government = monarchy
add_government_reform = autocracy_reform
government_rank = 1
primary_culture = caamas
religion = summer_court
technology_group = tech_eordand
capital = 2028

1000.1.1 = { set_country_flag = mage_organization_decentralized_flag }

1425.3.5 = {
	monarch = {
		name = "Gelehorn"
		dynasty = "Strongarm"
		birth_date = 1409.6.8
		adm = 5
		dip = 3
		mil = 5
	}
	add_ruler_personality = bold_fighter_personality
	heir = {
		name = "Denarion"
		monarch_name = "Denarion I"
		dynasty = "Strongarm"
		birth_date = 1431.2.11
		death_date = 1481.3.2
		claim = 95
		adm = 2
		dip = 1
		mil = 4
	}
	queen = {
		country_of_origin = H03
		name = "Alaria"
		dynasty = "Seastrider"
		birth_date = 1414.5.20
		death_date = 1475.4.10
		female = yes
		adm = 4
		dip = 2
		mil = 3
	}
}

