government = monarchy
add_government_reform = autocracy_reform
government_rank = 1
primary_culture = peitar
religion = eordellon
technology_group = tech_eordand
capital = 2049
historical_friend = H06 #Sidpar
historical_friend = H20 #Trimgarb
historical_friend = H09 #Iadth
historical_friend = H19 #Strutmar
historical_rival = H01 #Arakeprun

1000.1.1 = { set_country_flag = mage_organization_decentralized_flag }
1443.1.1 = { set_country_flag = eordand_pelomar_oathsworn }

1433.3.5 = {
	monarch = {
		name = "Pelodan X"
		dynasty = "Oathsworn"
		birth_date = 1420.6.8
		adm = 2
		dip = 4
		mil = 6
	}
	add_ruler_personality = inspiring_leader_personality
	heir = {
		name = "Pelodan"
		monarch_name = "Pelodan XI"
		dynasty = "Oathsworn"
		birth_date = 1440.2.11
		death_date = 1481.3.2
		claim = 95
		adm = 3
		dip = 2
		mil = 4
	}
	queen = {
		country_of_origin = H06
		name = "Leslindel"
		dynasty = "Swiftsword"
		birth_date = 1419.5.20
		death_date = 1475.4.10
		female = yes
		adm = 2
		dip = 3
		mil = 3
	}
	add_queen_personality = embezzler_personality
	set_consort_flag = pelomar_leslindel
}
