goblin_tide = {
	potential = {
		has_country_flag = fallen_disaster_start
		NOT = { has_country_flag = goblin_tide_happened }
		NOT = { has_spawned_rebels = goblin_tide_rebel }
	}

	
	
	can_start = {
		always = yes
	}
	
	
	can_stop = {
        always = no
	}
	
	progress = {
		modifier = {
			factor = 100
			custom_trigger_tooltip = {
				tooltip = something_is_going_up_tooltip
				always = yes
			}
		}
	}
	
	
	
	can_end = {
		custom_trigger_tooltip = { #Own all old Hold
			tooltip = no_old_hold_tooltip
			NOT = {
				any_owned_province = {
					has_province_modifier = old_hold
					NOT = { controlled_by = ROOT }
				}
			}
		}
		if = {
			limit = { any_owned_province = { has_province_modifier = old_gate } } #Destroy all old gate
			custom_trigger_tooltip = {
				tooltip = no_old_gate_tooltip
				OR = {
					all_owned_province = { NOT = { has_province_modifier = old_gate } }
					ai = yes
				}
			}
		}
		custom_trigger_tooltip = { #Fight the big boss
			tooltip = fight_great_invasion_tooltip
			has_country_flag = fallen_disaster_end
		}
		NOT = { has_spawned_rebels = goblin_tide_rebel } #No rebel alive
	}
	

	modifier = {
		global_unrest = 3
		global_colonial_growth = -100
		global_trade_goods_size_modifier = -0.2
	}
	
	
	on_start = goblin_tide.1
	on_end = goblin_tide.9
	
	on_monthly = {
		events = {
		}
		random_events = { 
			1000 = 0
			100 = goblin_tide.2 #Attack in old hold
			200 = goblin_tide.4 #Attack from gate
		
		}
	}
}

