serpent_rot = {
	potential = {
		has_country_flag = serpent_rot_start
		NOT = { has_global_flag = serpent_rot_happened }
	}

	
	
	can_start = {
		always = yes
	}
	
	
	can_stop = {
        always = no
	}
	
	progress = {
		modifier = {
			factor = 1
			any_owned_province = {
				custom_trigger_tooltip = {
					tooltip = caurak_collapse_tooltip
					has_province_flag = caurak_collapse
				}
				development = 10
			}
		}
		
		modifier = {
			factor = 2
			any_owned_province = {
				custom_trigger_tooltip = {
					tooltip = caurak_collapse_tooltip
					has_province_flag = caurak_collapse
				}
				development = 40
			}
		}
		
		modifier = {
			factor = 3
			any_owned_province = {
				custom_trigger_tooltip = {
					tooltip = caurak_collapse_tooltip
					has_province_flag = caurak_collapse
				}
				development = 65
			}
		}
		
		modifier = {
			factor = 4
			any_owned_province = {
				custom_trigger_tooltip = {
					tooltip = caurak_collapse_tooltip
					has_province_flag = caurak_collapse
				}
				development = 85
			}
		}
		
		modifier = {
			factor = 5
			any_owned_province = {
				custom_trigger_tooltip = {
					tooltip = caurak_collapse_tooltip
					has_province_flag = caurak_collapse
				}
				development = 100
			}
		}
	}
	
	
	
	can_end = {
		custom_trigger_tooltip = { #Own all old Hold
			tooltip = serpent_rot_cure_tooltip
			has_country_flag = serpent_rot_cure
		}
	}
	

	modifier = {
		global_unrest = 2
		global_colonial_growth = -100
		development_cost = 1
		all_power_cost = 0.1
		war_exhaustion = 0.1
	}
	
	
	on_start = serpent_rot.1
	on_end = serpent_rot.1000 #Nothing
	
	on_monthly = {
		events = {
		}
		random_events = { 
			1000 = 0
		
		}
	}
}

