nathalaire_missions = {
	slot = 1 
	generic = no
	ai = yes 
	potential = {
	tag = A74
	} #These are triggers for the entire series
	
	
	
	nathalaire_expel_goblins = { 
		icon = mission_build_up_to_force_limit
		required_missions = {  } 
		trigger = {
			OR = {
				506 = { country_or_non_sovereign_subject_holds = ROOT }
				507 = { country_or_non_sovereign_subject_holds = ROOT }
				
			}
		}
		effect = { 
			add_country_modifier = {
				name = nathalaire_resettlement_of_goblins
				duration = 10950 #30 years		
			}
		}
	}
	
	nathalaire_reclaim_dalavans_folly = {
		icon = mission_conquer_50_development
		required_missions = { nathalaire_expel_goblins }
		trigger = {  
			is_core = 445 
			is_core = 447 
			is_core = 448 
		}
		effect = {
			445 = {
				add_base_tax = 1
				add_base_production = 1
				add_base_manpower = 1
			}
			447 = {
				add_base_tax = 1
				add_base_production = 1
				add_base_manpower = 1
			}
			448 = {
				add_base_tax = 1
				add_base_production = 1
				add_base_manpower = 1
			}
		}
	}
	
	nathalaire_seize_the_gem_isle = {
		icon = mission_cannons_firing
		required_missions = { nathalaire_reclaim_dalavans_folly }
		trigger = {  
			is_core = 452 
		}
		effect = {
			add_country_modifier = {
				name = nathalaire_seizing_of_assets
				duration = 3650 #10 years
			}	
		}
	}
	
	
	nathalaire_a_second_home = {
		icon = mission_assemble_an_army
		required_missions = { nathalaire_seize_the_gem_isle }
		trigger = {
			452 = { 
				culture = nathalairey
				development = 15 
			}
		}
		effect = {
			380 = {
				add_claim = A74
			}
			452 = { 
				add_province_modifier = { 
				name = nathalaire_gems_of_the_gem_isle
				duration = -1  
				}
			}
		}
	}
	
	
	a_trifectomy_of_citys = {
		icon = mission_unite_home_region
		required_missions = { nathalaire_a_second_home }
		trigger = {
			ROOT = {
				owns = 380
			}
		}
		effect = {
			380 = {
				change_culture = nathalairey
				add_center_of_trade_level = 2	
			}
		}
	}

}