<?xml version="1.0" encoding="utf-8"?>
<COLLADA xmlns="http://www.collada.org/2005/11/COLLADASchema" version="1.4.1">
  <asset>
    <contributor>
      <author>Blender User</author>
      <authoring_tool>Blender 2.77.0 commit date:2016-04-05, commit time:18:12, hash:abf6f08</authoring_tool>
    </contributor>
    <created>2018-02-03T23:26:29</created>
    <modified>2018-02-03T23:26:29</modified>
    <unit name="meter" meter="1"/>
    <up_axis>Z_UP</up_axis>
  </asset>
  <library_cameras>
    <camera id="Camera-camera" name="Camera">
      <optics>
        <technique_common>
          <perspective>
            <xfov sid="xfov">49.13434</xfov>
            <aspect_ratio>1.777778</aspect_ratio>
            <znear sid="znear">0.1</znear>
            <zfar sid="zfar">100</zfar>
          </perspective>
        </technique_common>
      </optics>
      <extra>
        <technique profile="blender">
          <YF_dofdist>0</YF_dofdist>
          <shiftx>0</shiftx>
          <shifty>0</shifty>
        </technique>
      </extra>
    </camera>
    <camera id="Camera_001-camera" name="Camera.002">
      <optics>
        <technique_common>
          <perspective>
            <xfov sid="xfov">49.13434</xfov>
            <aspect_ratio>1.777778</aspect_ratio>
            <znear sid="znear">0.1</znear>
            <zfar sid="zfar">100</zfar>
          </perspective>
        </technique_common>
      </optics>
      <extra>
        <technique profile="blender">
          <YF_dofdist>0</YF_dofdist>
          <shiftx>0</shiftx>
          <shifty>0</shifty>
        </technique>
      </extra>
    </camera>
  </library_cameras>
  <library_lights>
    <light id="Lamp-light" name="Lamp">
      <technique_common>
        <point>
          <color sid="color">1 1 1</color>
          <constant_attenuation>1</constant_attenuation>
          <linear_attenuation>0</linear_attenuation>
          <quadratic_attenuation>0.00111109</quadratic_attenuation>
        </point>
      </technique_common>
      <extra>
        <technique profile="blender">
          <adapt_thresh>0.000999987</adapt_thresh>
          <area_shape>1</area_shape>
          <area_size>0.1</area_size>
          <area_sizey>0.1</area_sizey>
          <area_sizez>1</area_sizez>
          <atm_distance_factor>1</atm_distance_factor>
          <atm_extinction_factor>1</atm_extinction_factor>
          <atm_turbidity>2</atm_turbidity>
          <att1>0</att1>
          <att2>1</att2>
          <backscattered_light>1</backscattered_light>
          <bias>1</bias>
          <blue>1</blue>
          <buffers>1</buffers>
          <bufflag>0</bufflag>
          <bufsize>2880</bufsize>
          <buftype>2</buftype>
          <clipend>30.002</clipend>
          <clipsta>1.000799</clipsta>
          <compressthresh>0.04999995</compressthresh>
          <dist sid="blender_dist">29.99998</dist>
          <energy sid="blender_energy">1</energy>
          <falloff_type>2</falloff_type>
          <filtertype>0</filtertype>
          <flag>0</flag>
          <gamma sid="blender_gamma">1</gamma>
          <green>1</green>
          <halo_intensity sid="blnder_halo_intensity">1</halo_intensity>
          <horizon_brightness>1</horizon_brightness>
          <mode>8192</mode>
          <ray_samp>1</ray_samp>
          <ray_samp_method>1</ray_samp_method>
          <ray_samp_type>0</ray_samp_type>
          <ray_sampy>1</ray_sampy>
          <ray_sampz>1</ray_sampz>
          <red>1</red>
          <samp>3</samp>
          <shadhalostep>0</shadhalostep>
          <shadow_b sid="blender_shadow_b">0</shadow_b>
          <shadow_g sid="blender_shadow_g">0</shadow_g>
          <shadow_r sid="blender_shadow_r">0</shadow_r>
          <sky_colorspace>0</sky_colorspace>
          <sky_exposure>1</sky_exposure>
          <skyblendfac>1</skyblendfac>
          <skyblendtype>1</skyblendtype>
          <soft>3</soft>
          <spotblend>0.15</spotblend>
          <spotsize>75</spotsize>
          <spread>1</spread>
          <sun_brightness>1</sun_brightness>
          <sun_effect_type>0</sun_effect_type>
          <sun_intensity>1</sun_intensity>
          <sun_size>1</sun_size>
          <type>0</type>
        </technique>
      </extra>
    </light>
    <light id="Lamp_001-light" name="Lamp.001">
      <technique_common>
        <point>
          <color sid="color">1 1 1</color>
          <constant_attenuation>1</constant_attenuation>
          <linear_attenuation>0</linear_attenuation>
          <quadratic_attenuation>0.00111109</quadratic_attenuation>
        </point>
      </technique_common>
      <extra>
        <technique profile="blender">
          <adapt_thresh>9.99987e-4</adapt_thresh>
          <area_shape>1</area_shape>
          <area_size>0.1</area_size>
          <area_sizey>0.1</area_sizey>
          <area_sizez>1</area_sizez>
          <atm_distance_factor>1</atm_distance_factor>
          <atm_extinction_factor>1</atm_extinction_factor>
          <atm_turbidity>2</atm_turbidity>
          <att1>0</att1>
          <att2>1</att2>
          <backscattered_light>1</backscattered_light>
          <bias>1</bias>
          <blue>1</blue>
          <buffers>1</buffers>
          <bufflag>0</bufflag>
          <bufsize>2880</bufsize>
          <buftype>2</buftype>
          <clipend>30.002</clipend>
          <clipsta>1.000799</clipsta>
          <compressthresh>0.04999995</compressthresh>
          <dist sid="blender_dist">29.99998</dist>
          <energy sid="blender_energy">1</energy>
          <falloff_type>2</falloff_type>
          <filtertype>0</filtertype>
          <flag>0</flag>
          <gamma sid="blender_gamma">1</gamma>
          <green>1</green>
          <halo_intensity sid="blnder_halo_intensity">1</halo_intensity>
          <horizon_brightness>1</horizon_brightness>
          <mode>8192</mode>
          <ray_samp>1</ray_samp>
          <ray_samp_method>1</ray_samp_method>
          <ray_samp_type>0</ray_samp_type>
          <ray_sampy>1</ray_sampy>
          <ray_sampz>1</ray_sampz>
          <red>1</red>
          <samp>3</samp>
          <shadhalostep>0</shadhalostep>
          <shadow_b sid="blender_shadow_b">0</shadow_b>
          <shadow_g sid="blender_shadow_g">0</shadow_g>
          <shadow_r sid="blender_shadow_r">0</shadow_r>
          <sky_colorspace>0</sky_colorspace>
          <sky_exposure>1</sky_exposure>
          <skyblendfac>1</skyblendfac>
          <skyblendtype>1</skyblendtype>
          <soft>3</soft>
          <spotblend>0.15</spotblend>
          <spotsize>75</spotsize>
          <spread>1</spread>
          <sun_brightness>1</sun_brightness>
          <sun_effect_type>0</sun_effect_type>
          <sun_intensity>1</sun_intensity>
          <sun_size>1</sun_size>
          <type>0</type>
        </technique>
      </extra>
    </light>
  </library_lights>
  <library_images/>
  <library_effects>
    <effect id="Material_001-effect">
      <profile_COMMON>
        <technique sid="common">
          <phong>
            <emission>
              <color sid="emission">0 0 0 1</color>
            </emission>
            <ambient>
              <color sid="ambient">0 0 0 1</color>
            </ambient>
            <diffuse>
              <color sid="diffuse">0.64 0.64 0.64 1</color>
            </diffuse>
            <specular>
              <color sid="specular">0.25 0.25 0.25 1</color>
            </specular>
            <shininess>
              <float sid="shininess">50</float>
            </shininess>
            <index_of_refraction>
              <float sid="index_of_refraction">1</float>
            </index_of_refraction>
          </phong>
        </technique>
      </profile_COMMON>
    </effect>
  </library_effects>
  <library_materials>
    <material id="Material_001-material" name="Material_001">
      <instance_effect url="#Material_001-effect"/>
    </material>
  </library_materials>
  <library_geometries>
    <geometry id="Cube_001-mesh" name="Cube.001">
      <mesh>
        <source id="Cube_001-mesh-positions">
          <float_array id="Cube_001-mesh-positions-array" count="663">0.4679537 -0.869277 -0.1180751 0.2486904 -0.869277 -0.1180751 0.4679536 -0.8298572 0.2428507 0.2486904 -0.8298572 0.2428507 0.358322 -0.8748325 -0.1824055 0.358322 -0.8354128 0.2962391 0.474148 -0.8483497 0.03482627 0.242496 -0.8483497 0.03482627 0.358322 -0.9980895 -0.3072232 0.3583221 0.1749553 -0.129437 0.2729156 0.1699836 -0.0958904 0.4703988 0.1749553 0.02598327 0.4437287 0.1699836 0.1409814 0.2462454 0.1749553 0.02598327 0.2729156 0.1699836 0.1409814 0.3583222 0.1749553 0.1814036 0.4437287 0.1699836 -0.0958904 0.3583221 0.2080346 -0.1397385 0.358322 -0.9188004 -0.3253453 0.2388585 -0.9064089 -0.2323452 0.5150908 -0.9265065 0.03420501 0.4777855 -0.8708822 0.3346598 0.2015532 -0.9265065 0.03420501 0.2388585 -0.8708822 0.3346598 0.358322 -0.8694728 0.4127795 0.4777857 -0.9064089 -0.2323452 0.2787932 -0.9903067 -0.2456237 0.4770247 -0.970807 0.03373253 0.4380578 -0.9444973 0.3268654 0.2396193 -0.970807 0.03373253 0.2785862 -0.9444973 0.3268654 0.358322 -0.9431758 0.3790445 0.437851 -0.9903067 -0.2456237 0.2169969 -0.956449 -0.2811976 0.5437791 -0.9708265 0.03348785 0.4996471 -0.9133698 0.3845299 0.1728649 -0.9708265 0.03348785 0.2169969 -0.9133698 0.3845299 0.4996472 -0.956449 -0.2811976 0.358322 -1.034246 -0.2248337 0.322223 -1.028452 -0.2025515 0.43836 -1.006949 0.04880112 0.3948924 -0.984225 0.2667354 0.278284 -1.006949 0.04880118 0.3217516 -0.984225 0.2667354 0.358322 -0.9782238 0.2851939 0.3944212 -1.028452 -0.2025515 0.2729156 0.2030629 -0.1039435 0.4703988 0.2080346 0.02609843 0.4437287 0.2030629 0.1488041 0.2462454 0.2080346 0.02609843 0.2729156 0.2030629 0.1488041 0.3583222 0.2080346 0.1919354 0.4437287 0.2030629 -0.1039435 0.3583222 0.3063362 0.1581622 0.2729156 0.3038997 0.1235954 0.2462454 0.3160638 0.02579903 0.4703988 0.3160638 0.02579903 0.4437287 0.3038997 0.1235954 0.3583221 0.3257914 -0.1065642 0.2729156 0.3187252 -0.0781359 0.4437287 0.3187252 -0.0781359 0.358322 -1.031577 -0.2745894 0.2855146 -1.024452 -0.218196 0.4669924 -1.0066 0.03755015 0.4313188 -0.9825142 0.3059087 0.2496516 -1.0066 0.03755015 0.2853252 -0.9825142 0.3059087 0.358322 -0.9813043 0.3536778 0.4311295 -1.024452 -0.218196 0.3583009 -1.23229 -0.1716098 0.3221688 -1.196769 -0.1221693 0.4638325 -1.226786 0.05730438 0.4055995 -1.089131 0.1951389 0.256052 -1.183866 0.03348535 0.3341839 -1.074379 0.1869521 0.3583008 -1.106244 0.2781689 0.3944331 -1.196769 -0.1221693 0.3583009 -1.3226 -0.1675117 0.3290278 -1.27268 -0.1300761 0.4297603 -1.286282 0.07218009 0.3867068 -1.175683 0.1825569 0.2614235 -1.25151 0.05288273 0.3288483 -1.163732 0.1759242 0.3583008 -1.194867 0.2598208 0.387574 -1.27268 -0.1300761 0.3583011 -3.965039 -0.1672407 0.3315607 -3.948279 -0.1170168 0.4371168 -3.90749 0.005211234 0.3853905 -3.867567 0.124845 0.2794852 -3.90749 0.005211234 0.3312115 -3.867567 0.124845 0.358301 -3.850543 0.1758581 0.3850414 -3.948279 -0.1170168 0.3583011 -5.472652 -0.1420668 0.3370172 -5.474865 -0.09998226 0.4210338 -5.480248 0.002436876 0.3798627 -5.402204 0.1052946 0.2955682 -5.480248 0.002436876 0.3367394 -5.402204 0.1052946 0.358301 -5.404451 0.1480405 0.3795849 -5.474865 -0.09998226 0.3279784 -2.562807 0.1471174 0.3583009 -2.553865 0.2076976 0.3886234 -2.562807 0.1471174 0.4465231 -2.611349 0.0145244 0.3882327 -2.660283 -0.1211709 0.358301 -2.678831 -0.1774647 0.2700788 -2.611349 0.0145244 0.3283693 -2.660283 -0.1211709 0.4485493 -0.7303079 -0.07890808 0.3583221 0.02630847 -0.09141892 0.2977805 0.02245026 -0.06763893 0.4377694 0.02630847 0.01875299 0.4188638 0.02245026 0.1002712 0.3584805 -0.7348576 -0.1202458 0.2693409 -0.7303079 -0.07890808 0.465308 -0.7659593 0.03869509 0.4485492 -0.7416053 0.2008406 0.2568297 -0.7659593 0.03869509 0.2693409 -0.7416053 0.2008406 0.2788749 0.02630847 0.01875299 0.2977804 0.02245026 0.1002712 0.3583222 0.02630847 0.128925 0.3584805 -0.7461549 0.2351471 0.4188638 0.02245026 -0.06763893 0.2856224 0.138992 0.1202032 0.3583222 0.143625 0.1546112 0.4537239 0.143625 0.02231442 0.4310218 0.138992 -0.08142668 0.3583221 0.143625 -0.1099821 0.2856224 0.138992 -0.08142668 0.4310218 0.138992 0.1202032 0.2629203 0.143625 0.02231442 0.2844135 -1.063009 0.02626216 0.3344231 -1.009785 0.2280195 0.3585265 -1.123474 -0.222747 0.3294112 -1.094961 -0.1921251 0.3585264 -1.021516 0.2957977 0.3926399 -1.016155 0.2315547 0.4340569 -1.081542 0.0365476 0.3876417 -1.094961 -0.1921251 0.3583011 -6.047928 0.04439324 0.4400449 0.01779979 0.1075854 0.4521499 0.02160525 0.02018862 0.2714684 0.01779979 -0.07243311 0.3583221 0.02160525 -0.09792798 0.4522889 -0.2370866 -0.07162129 0.2623276 -0.2370866 -0.07162129 0.2624315 0.02160525 0.02018862 0.2714684 0.01779979 0.1075854 0.4522889 -0.2620407 0.1754202 0.3583222 0.02160525 0.1383054 0.2623276 -0.2620407 0.1754202 0.4400449 0.01779979 -0.07243311 0.3583221 -0.2622933 0.1952533 0.3583221 -0.237376 -0.1032338 0.2504364 -0.237376 0.02889913 0.4682173 -0.237376 0.02889913 0.358322 -0.9188004 -0.4782711 0.2388585 -0.9064089 -0.4654747 0.358322 -0.8694728 0.5183991 0.2388585 -0.8708822 0.5164285 0.4777857 -0.9064089 -0.4654747 0.4777855 -0.8708822 0.5164285 0.2169969 -0.956449 -0.4721966 0.358322 -0.9680759 -0.4872827 0.2169969 -0.9133698 0.5176865 0.358322 -0.9088373 0.5200151 0.4996472 -0.956449 -0.4721966 0.4996471 -0.9133698 0.5176865 0.358322 -0.9750568 -0.4108787 0.2787932 -0.9667587 -0.331177 0.358322 -0.9201431 0.477063 0.2785862 -0.9209492 0.40955 0.437851 -0.9667587 -0.3311769 0.4380578 -0.9209492 0.40955 0.3583239 -0.6176712 -0.1393753 0.3582829 -0.6155152 -0.1489416 0.4617992 -0.6130891 -0.09413522 0.4672541 -0.6106922 -0.1013586 0.2552767 -0.6130889 -0.09413522 0.2497463 -0.6106911 -0.1013585 0.4871723 -0.6155118 0.03404927 0.480758 -0.6176735 0.03455865 0.4618362 -0.5883325 0.189291 0.4672495 -0.5847033 0.2177486 0.2348764 -0.6155104 0.03404927 0.2411128 -0.6176735 0.03455865 0.2497497 -0.584702 0.2177484 0.2552374 -0.5883322 0.189291 0.3582829 -0.5889117 0.2428042 0.3583234 -0.5923285 0.2268443 0.358322 -0.8856502 0.6977763 0.2388585 -0.8870596 0.6637958 0.4777855 -0.8870596 0.6637958 0.2169969 -0.9295472 0.6650539 0.358322 -0.9250147 0.6993923 0.4996471 -0.9295472 0.6650539 0.358322 -0.8897974 -0.7059708 0.2388585 -0.8774058 -0.6281043 0.4777857 -0.8774058 -0.6281043 0.2169969 -0.927446 -0.6348262 0.358322 -0.9390729 -0.7149824 0.4996472 -0.927446 -0.6348262 0.3583222 0.3443791 0.1116451 0.3042434 0.3428363 0.08975762 0.2873561 0.3505385 0.0278337 0.4292882 0.3505385 0.0278337 0.4124009 0.3428363 0.08975762 0.3583221 0.3566979 -0.05597752 0.3042434 0.3522237 -0.03797698 0.4124009 0.3522237 -0.03797698 0.3359925 -4.86485 -0.1205877 0.2925478 -4.864271 0.00295192 0.358301 -4.851527 0.1778997 0.3809008 -4.851769 0.126339 0.3357012 -4.851769 0.126339 0.4240542 -4.864271 0.00295192 0.3806096 -4.86485 -0.1205877 0.3583011 -4.865088 -0.1713505</float_array>
          <technique_common>
            <accessor source="#Cube_001-mesh-positions-array" count="221" stride="3">
              <param name="X" type="float"/>
              <param name="Y" type="float"/>
              <param name="Z" type="float"/>
            </accessor>
          </technique_common>
        </source>
        <source id="Cube_001-mesh-normals">
          <float_array id="Cube_001-mesh-normals-array" count="663">-9.15578e-5 0.8413857 0.5404352 -0.6115965 0.779633 0.1346184 0 0.9959446 0.08996886 0.7664932 0.543641 -0.3419692 0.8619324 0.5052813 -0.04199486 0.5716506 0.8054868 -0.1562265 -9.15587e-5 0.8240589 -0.5665042 -0.5716506 0.8054868 -0.1562265 -0.7658507 0.5453489 -0.3406866 -0.9733897 -0.2289269 0.01025456 -0.724341 -0.4121303 0.5527014 -0.7312911 -0.3636313 0.5770491 0.9518058 0.3045217 -0.03650104 0.80211 0.1818343 0.5688199 0.7627813 0.5526829 0.3357177 0.9733897 -0.2289269 0.01025456 0.724341 -0.4121303 0.5527014 0.9477792 -0.3189275 2.74674e-4 -0.8619324 0.5052813 -0.04199486 -0.9454436 0.3238966 -0.03503561 -0.001190245 0.1193004 -0.9928575 0.9999344 0.008911609 0.007202506 0.693448 0.4297656 0.5783005 0.7502829 0.007416129 0.6610754 -0.7339655 -0.3271699 -0.5951929 -0.9999344 0.008911609 0.007202506 -0.7323498 -0.006897389 -0.6808937 0 -0.3948915 -0.9187278 0.7323498 -0.006897389 -0.6808937 0.7339655 -0.3271699 -0.5951929 -0.714945 -0.3599141 -0.5994295 -0.9477792 -0.3189275 2.74674e-4 -0.7620351 0.5551146 0.3333923 -7.93504e-4 0.325825 0.9454298 -0.806047 0.1902883 0.5604272 0 -0.3709539 -0.9286513 0.714945 -0.3599141 -0.5994295 0.7312911 -0.3636313 0.5770491 0 -0.4808288 0.8768146 -0.8300627 0.0398581 -0.556244 0.8214776 0.03274679 -0.5692998 0.9997639 0.01654112 -0.01409965 -0.9985645 0.05307322 -0.007233083 0 -0.4524187 0.8918057 0.9123072 -0.3891794 0.1274172 0.517843 0.8542516 0.04574763 0.8657748 -0.5004268 0.002655148 0.882819 -0.4683119 0.03625637 0.9177345 -0.3796249 -0.1168264 0 0.9962792 -0.08618444 0.5162397 0.8534513 0.07153803 0 0.996551 0.0829823 -0.882819 -0.4683119 0.03625637 -0.9123072 -0.3891794 0.1274172 0.6115965 0.779633 0.1346184 -0.1363297 -0.9762817 0.1681918 -0.8657748 -0.5004268 0.002655148 0 -0.8782162 0.478264 0.1363297 -0.9762817 0.1681918 0 -0.9689553 0.2472363 -0.5713813 -0.8183429 0.06195402 -0.6196056 -0.7577365 -0.2047548 -0.6504565 -0.7567855 0.06467026 -0.517843 0.8542516 0.04574763 0 0.9987004 0.05096656 0.4499452 -0.8076613 0.3810938 -0.4499452 -0.8076613 0.3810938 0 -0.9130057 -0.4079471 0.2354843 -0.9634533 -0.1276913 0.5307872 -0.7924574 -0.3004599 0.5713813 -0.8183429 0.06195402 -0.5307872 -0.7924574 -0.3004599 -0.9177345 -0.3796249 -0.1168264 -0.9997939 0.01980662 -0.004455685 -0.9549689 -0.0557276 0.2914256 -0.8720283 -0.4251035 0.242598 0 -0.8185389 0.5744513 0.56063 -0.7635495 0.3204472 0.6504565 -0.7567855 0.06467026 0.6196056 -0.7577365 -0.2047548 0 -0.8583883 -0.5130004 -0.56063 -0.7635495 0.3204472 0 -0.003967463 -0.9999921 0 0.01959329 0.9998081 -0.7502829 0.007416129 0.6610754 0.9130631 0.4067248 0.02984744 0.342339 0.8742356 0.3442617 0.6806469 0.4702452 -0.5617733 0 0.5260594 0.8504479 -0.6934322 0.4297747 0.5783128 0 0.569667 -0.8218757 -0.9130631 0.4067248 0.02984744 -0.6806469 0.4702452 -0.5617733 -5.7987e-4 -0.8560406 -0.5169083 0.3553707 -0.8697792 0.3423388 -0.3032104 -0.9140872 0.2692729 -0.6052845 -0.7828443 0.144172 -8.24019e-4 -0.7814756 0.6239353 0.5180978 -0.8218883 -0.2368002 0.6511608 -0.7505929 0.1122502 -0.516721 -0.8237138 -0.2334415 0.9803513 -0.1789004 0.08310234 0.8910318 -0.04208564 -0.4519859 0.9198765 -0.07229977 -0.3854869 9.46087e-4 -0.3053115 -0.9522521 -0.9175156 -0.07757866 -0.3900601 -0.8750095 -0.1405704 -0.4632475 -0.9984825 0.05130201 -0.0200203 0.9223995 -0.2095113 0.3244756 -0.08984816 -0.2505921 0.9639145 0.9311304 -0.05209565 0.3609465 -0.04846411 -0.2385362 0.9699236 0.9982933 0.04663234 -0.03515738 0.8738851 -0.1406016 -0.4653559 -3.35712e-4 -0.1831459 -0.9830858 -0.9040479 -0.01370322 0.4272116 0 -0.01211601 0.9999267 0 -0.03213602 0.9994836 0 -0.01532036 -0.9998827 -0.9215776 -0.00439471 0.3881692 -0.8765357 -0.01855552 -0.4809792 -0.9943351 -0.02587997 0.1030927 0.8779773 -0.1482624 0.4551638 -0.009155631 -0.1012006 0.9948239 0.969815 -0.1792404 0.1653236 -0.9999347 -0.01132261 -0.001556456 -0.9061123 -0.07513803 -0.4163111 -0.9979075 -0.06448644 0.004730403 0.9999744 -0.005157649 0.004974484 0.9009032 -0.005401909 0.4339864 0.9999713 -0.007202327 0.00238043 0.9014776 -0.001342833 -0.432824 0.9035572 -0.005585014 -0.4284312 0 -0.001617491 -0.9999987 0 -0.006164789 -0.9999811 -0.9999598 -0.008056998 0.003936946 -0.9009032 -0.005401909 0.4339864 -0.9035572 -0.005585014 -0.4284312 -0.9014776 -0.001342833 -0.432824 -0.9999713 -0.007202327 0.00238043 0.9053451 -0.01040697 0.4245493 0.9292489 -0.01312321 0.3692214 0 -0.09946137 0.9950415 0.9085361 -0.03488379 0.4163475 -0.9292489 -0.01312321 0.3692214 0 -0.03070211 0.9995287 0.9999347 -0.01132261 -0.001556456 0.9979075 -0.06448644 0.004730403 0.9061123 -0.07513803 -0.4163111 0.9294005 -0.008423268 -0.3689768 0 -0.1588831 -0.9872974 0 -0.02151578 -0.9997686 -0.9085361 -0.03488379 0.4163475 -0.9294005 -0.008423268 -0.3689768 0.001800596 0.1676394 0.9858468 -0.6389519 -0.4866606 0.5957366 -4.57791e-4 -0.5398579 0.841756 0.5726729 0.6656971 0.4784278 0.798624 0.6017452 0.01013231 0.8239043 0.5666555 0.009125292 -0.5610596 0.6804191 0.4714256 0.00552386 0.6018935 0.7985572 0 0.4908118 0.8712657 -0.52212 0.6848781 -0.5082643 0.005157709 0.4584884 -0.8886855 -0.6475309 0.5416284 -0.5360434 -0.8108399 0.5851489 0.01181101 0.6327963 -0.4859353 0.6028565 0.7295389 0.1417937 0.6690797 -0.7874946 0.6162192 0.01123112 -0.6563135 0.6042785 0.4517744 0.6525628 0.6015346 0.4607798 0 0.4157013 -0.9095012 0.5348228 0.6669415 -0.5188001 -0.8208565 -0.5704122 0.02871894 -0.7814081 0.0519433 -0.6218549 -0.6930283 -0.4826294 -0.5355191 -0.7377726 0.1354444 0.6613218 -0.9989159 0.04477125 -0.01275688 0.003448605 0.0553919 -0.9984588 0.7710071 0.05954295 -0.6340369 0.8246536 -0.5651201 0.02420151 0.6842737 -0.482663 -0.5466316 0.6453589 0.5360086 -0.5442488 0.9981971 0.05752897 -0.01712131 -6.40895e-4 -0.7620243 -0.6475483 0.5201728 -0.7684482 -0.3727031 0 -0.996979 0.077672 0.7833407 -0.620642 0.03436481 -0.7898703 -0.6122174 0.03598225 -7.6298e-4 -0.686316 0.7273032 -0.5247235 -0.7726342 -0.3573539 0.3368709 -0.8412618 0.4228435 -0.3299123 -0.8479142 0.4149692 -0.4912689 0.6908955 0.5303946 0 0.6393405 0.7689238 -0.4898056 0.8256714 -0.2799238 -0.5162397 0.8534513 0.07153803 0.4912689 0.6908955 0.5303946 0.8215681 -0.3400413 -0.4576 0.4898056 0.8256714 -0.2799238 0 -0.9953801 -0.096013 -0.84583 -0.530265 -0.05822992 0 -0.9922709 -0.124091 0 -0.9996516 0.02639895 0.84583 -0.530265 -0.05822992 -0.2354843 -0.9634533 -0.1276913 -7.62977e-4 -0.5184889 -0.855084 0 -0.6567029 0.7541494 0.7352508 -0.4863319 0.4721097 -0.7352508 -0.4863319 0.4721097 0 -0.5097891 -0.8602995 -0.8215681 -0.3400413 -0.4576 0 0.6842091 -0.729286 0 0.8986232 0.4387212 0.3969889 0.9151378 0.07016277 0 0.9541984 -0.299175 -0.342339 0.8742356 0.3442617 -0.3361407 0.9167113 -0.2159858 -0.3969889 0.9151378 0.07016277 0.3361407 0.9167113 -0.2159858</float_array>
          <technique_common>
            <accessor source="#Cube_001-mesh-normals-array" count="221" stride="3">
              <param name="X" type="float"/>
              <param name="Y" type="float"/>
              <param name="Z" type="float"/>
            </accessor>
          </technique_common>
        </source>
        <source id="Cube_001-mesh-map-0">
          <float_array id="Cube_001-mesh-map-0-array" count="2628">0.2207985 0.2053945 0.2189435 0.2247071 0.2362297 0.2111878 0.143687 0.2193776 0.169111 0.2291904 0.1248598 0.2278404 0.1268514 0.2081299 0.1251147 0.2275156 0.1438552 0.2191486 0.1778892 0.0641753 0.1907489 0.06833517 0.1915336 0.06340456 0.1695854 0.2160193 0.1985428 0.1996623 0.2048372 0.2159807 0.1783662 0.06324422 0.1912696 0.06746858 0.1777921 0.06731569 0.1438552 0.2191486 0.1691517 0.2289535 0.1695616 0.2158268 0.1438552 0.2191486 0.1380122 0.1930117 0.1268514 0.2081299 0.1784534 0.05935359 0.1880024 0.04865759 0.1924107 0.05859071 0.1635951 0.06284362 0.1779643 0.06030339 0.1634383 0.05898833 0.1524178 0.06016433 0.163855 0.05799257 0.1640039 0.06186896 0.1915336 0.06340456 0.1779643 0.06030339 0.1778892 0.0641753 0.1778892 0.0641753 0.1634361 0.06739157 0.1773294 0.06822991 0.2045286 0.2154831 0.2118651 0.1955509 0.1982101 0.199248 0.1635951 0.06284362 0.152695 0.06638383 0.1634361 0.06739157 0.1783662 0.06324422 0.1638353 0.06643962 0.1640039 0.06186896 0.2048372 0.2159807 0.2124282 0.1960268 0.2213311 0.2060016 0.1920776 0.06251847 0.202911 0.06719356 0.1912696 0.06746858 0.1695616 0.2158268 0.1520446 0.1953113 0.1438552 0.2191486 0.1640039 0.06186896 0.1530326 0.0654118 0.1524178 0.06016433 0.1695854 0.2160193 0.1519799 0.1954508 0.1709569 0.2028551 0.1695616 0.2158268 0.1982101 0.199248 0.1708668 0.2026408 0.143687 0.2193776 0.1377426 0.193114 0.1519799 0.1954508 0.1915336 0.06340456 0.2023339 0.06800872 0.2037342 0.06211048 0.2261723 0.2344976 0.2448807 0.2302588 0.2445162 0.2352868 0.1248598 0.2278404 0.1688165 0.2371657 0.1178863 0.237644 0.106692 0.213234 0.09048074 0.2322028 0.08506399 0.2169729 0.2189435 0.2247071 0.1688947 0.2369077 0.2258863 0.2336532 0.2045286 0.2154831 0.1691517 0.2289535 0.2189435 0.2247071 0.2213311 0.2060016 0.2192658 0.2254189 0.2048372 0.2159807 0.2048372 0.2159807 0.169111 0.2291904 0.1695854 0.2160193 0.1265438 0.2083361 0.1248598 0.2278404 0.106692 0.213234 0.2258863 0.2336532 0.2305814 0.2430649 0.244135 0.2342692 0.2192658 0.2254189 0.1688165 0.2371657 0.169111 0.2291904 0.1251147 0.2275156 0.1688947 0.2369077 0.1691517 0.2289535 0.2286463 0.2567853 0.2308114 0.2439994 0.2426252 0.2540383 0.1692496 0.2467028 0.1285367 0.2553635 0.1696411 0.2531012 0.2362297 0.2111878 0.2444488 0.2292637 0.2501773 0.2155438 0.2171052 0.2472172 0.1688165 0.2371657 0.2261723 0.2344976 0.2169685 0.2463655 0.1688947 0.2369077 0.1692496 0.2467028 0.1178863 0.237644 0.09048074 0.2322028 0.1248598 0.2278404 0.2258863 0.2336532 0.2444488 0.2292637 0.2189435 0.2247071 0.111106 0.2605108 0.1092161 0.2475004 0.1235911 0.250399 0.1235911 0.250399 0.1688165 0.2371657 0.1691209 0.2469709 0.1237369 0.2499322 0.1688947 0.2369077 0.1181433 0.2372325 0.1673256 0.2660025 0.1935452 0.2719515 0.2014684 0.2632926 0.2171052 0.2472172 0.2233019 0.2602983 0.2127338 0.2528858 0.2169685 0.2463655 0.2232267 0.2593731 0.2285345 0.2558262 0.1691209 0.2469709 0.2127338 0.2528858 0.1694734 0.2533693 0.1691209 0.2469709 0.1284658 0.2558321 0.1235911 0.250399 0.1235911 0.250399 0.1168473 0.2638977 0.111106 0.2605108 0.1692496 0.2467028 0.2126625 0.2520356 0.2169685 0.2463655 0.1237369 0.2499322 0.1169715 0.2632625 0.1285367 0.2553635 0.1920776 0.06251847 0.1784534 0.05935359 0.1924107 0.05859071 0.152074 0.06117039 0.1634383 0.05898833 0.1522754 0.05632197 0.1640039 0.06186896 0.1784534 0.05935359 0.1783662 0.06324422 0.2043454 0.06127035 0.1924107 0.05859071 0.2044347 0.05628448 0.2037342 0.06211048 0.1918499 0.05949485 0.1915336 0.06340456 0.1785746 0.04853653 0.1853469 0.0428186 0.1880024 0.04865759 0.1784534 0.05935359 0.1691171 0.04744684 0.1785746 0.04853653 0.1918499 0.05949485 0.1973479 0.04310119 0.1874282 0.04962956 0.163855 0.05799257 0.1605582 0.03927451 0.1691171 0.04744684 0.1634383 0.05898833 0.1601115 0.04038745 0.1522754 0.05632197 0.1779643 0.06030339 0.1874282 0.04962956 0.1780511 0.04954099 0.1779643 0.06030339 0.1686426 0.04848635 0.1634383 0.05898833 0.1924107 0.05859071 0.1980019 0.04212909 0.2044347 0.05628448 0.1241177 0.2656763 0.1285367 0.2553635 0.1169715 0.2632625 0.2084919 0.260159 0.1694734 0.2533693 0.2127338 0.2528858 0.2084835 0.2592568 0.1696411 0.2531012 0.1715818 0.2572234 0.2138745 0.2631516 0.2126625 0.2520356 0.2084835 0.2592568 0.1240843 0.2662938 0.1284658 0.2558321 0.1293565 0.2621551 0.2139397 0.264024 0.2127338 0.2528858 0.2233019 0.2602983 0.1293565 0.2621551 0.1694734 0.2533693 0.1713654 0.2574849 0.1293565 0.2616598 0.1696411 0.2531012 0.1285367 0.2553635 0.1703985 0.2907174 0.142928 0.2981834 0.1440265 0.2868521 0.1277301 0.2770931 0.1430842 0.2862905 0.1326044 0.2719449 0.1673256 0.2660025 0.1430842 0.2862905 0.1672213 0.2854382 0.2013964 0.2641946 0.2059095 0.2794283 0.1930739 0.2741437 0.2014684 0.2632926 0.2059791 0.2789216 0.2110359 0.2682292 0.168619 0.2689951 0.1930739 0.2741437 0.1703985 0.2907174 0.168619 0.2689951 0.1440265 0.2868521 0.1328861 0.2725426 0.1280248 0.2779265 0.1440265 0.2868521 0.1356218 0.2924703 0.1705906 0.4791598 0.1620653 0.657279 0.1800621 0.4786745 0.1356218 0.2924703 0.142928 0.2981834 0.1357662 0.3050541 0.1672213 0.2854382 0.1900424 0.2848306 0.1935452 0.2719515 0.1346834 0.2914463 0.1415439 0.2970957 0.1430842 0.2862905 0.1430842 0.2862905 0.1691333 0.2952854 0.1672213 0.2854382 0.2059095 0.2794283 0.1907798 0.2871599 0.1930739 0.2741437 0.2059791 0.2789216 0.1900424 0.2848306 0.2019634 0.2906976 0.1703985 0.2907174 0.1907798 0.2871599 0.1724271 0.3003574 0.1252333 0.7951175 0.1037364 0.8779785 0.1187694 0.8794866 0.1495154 0.4870007 0.1523106 0.6611168 0.1339068 0.665098 0.1286769 0.4920893 0.1339068 0.665098 0.1152019 0.6693163 0.1196492 0.4939643 0.1152019 0.6693163 0.1071943 0.6710261 0.1501517 0.484282 0.1539103 0.6589924 0.1705906 0.4791598 0.1202928 0.4915024 0.1167641 0.6673882 0.1292918 0.4895619 0.1292918 0.4895619 0.1354948 0.6630695 0.1501517 0.484282 0.1695907 0.4820186 0.1604468 0.6594452 0.1523106 0.6611168 0.1412048 0.796557 0.1387782 0.8728808 0.1322734 0.8719024 0.1434323 0.7948209 0.1413627 0.871343 0.1511986 0.7954081 0.1230491 0.796767 0.1322734 0.8719024 0.1162019 0.8808975 0.1230491 0.796767 0.1012133 0.8793219 0.10499 0.7954651 0.10499 0.7954651 0.09474921 0.8787086 0.09736001 0.7949232 0.1252333 0.7951175 0.1348374 0.870393 0.1434323 0.7948209 0.1071237 0.7938984 0.09725356 0.8773943 0.1037364 0.8779785 0.201975 0.2912284 0.1695907 0.4820186 0.1907798 0.2871599 0.1415439 0.2970957 0.1501517 0.484282 0.1691333 0.2952854 0.1345698 0.3036805 0.1292918 0.4895619 0.1415439 0.2970957 0.1691333 0.2952854 0.1705906 0.4791598 0.1900424 0.2848306 0.1357662 0.3050541 0.1286769 0.4920893 0.1196492 0.4939643 0.142928 0.2981834 0.1495154 0.4870007 0.1286769 0.4920893 0.1724271 0.3003574 0.1695907 0.4820186 0.1495154 0.4870007 0.2019634 0.2906976 0.1705906 0.4791598 0.1800621 0.4786745 0.2111396 0.1297826 0.1985477 0.1713812 0.2110867 0.1753237 0.1906107 0.08694195 0.1765904 0.08738744 0.1765825 0.08502233 0.1901901 0.08775925 0.2018146 0.08662819 0.2009758 0.08541268 0.1622424 0.08576887 0.1521295 0.08319193 0.1639344 0.08896297 0.2014489 0.08467739 0.1912696 0.06746858 0.202911 0.06719356 0.1901901 0.08775925 0.1773294 0.06822991 0.1761728 0.08588635 0.2116997 0.1295251 0.1990191 0.1716954 0.1968904 0.1306641 0.1761728 0.08588635 0.1639344 0.08896297 0.1761416 0.08853846 0.2009758 0.08541268 0.1907489 0.06833517 0.1901901 0.08775925 0.1765825 0.08502233 0.1638353 0.06643962 0.1777921 0.06731569 0.1901901 0.08775925 0.1761416 0.08853846 0.1882987 0.09160274 0.1906107 0.08694195 0.2022803 0.08590507 0.1892623 0.09024584 0.1761728 0.08588635 0.1634361 0.06739157 0.1622424 0.08576887 0.1530696 0.08149832 0.1638353 0.06643962 0.1626484 0.08487552 0.1527376 0.0823512 0.1634361 0.06739157 0.152695 0.06638383 0.1906107 0.08694195 0.1777921 0.06731569 0.1912696 0.06746858 0.1715841 0.1790519 0.1595407 0.124206 0.1524866 0.1753802 0.1715841 0.1790519 0.1961833 0.1309261 0.1743108 0.1255494 0.1427446 0.1216514 0.1524866 0.1753802 0.1595407 0.124206 0.1595523 0.1237149 0.1717865 0.1789436 0.1524814 0.1754855 0.1626484 0.08487552 0.1524618 0.08234918 0.1530696 0.08149832 0.1765825 0.08502233 0.1638931 0.08759349 0.1626484 0.08487552 0.1968904 0.1306641 0.1717865 0.1789436 0.1747171 0.1251655 0.1519799 0.1954508 0.1375142 0.1787574 0.1528547 0.1766449 0.1012133 0.8793219 0.1162019 0.8808975 0.115551 0.9588264 0.1240843 0.2662938 0.1328861 0.2725426 0.1280248 0.2779265 0.1293565 0.2621551 0.168619 0.2689951 0.1328861 0.2725426 0.1713654 0.2574849 0.2013964 0.2641946 0.168619 0.2689951 0.2084835 0.2592568 0.2110359 0.2682292 0.2138745 0.2631516 0.2084919 0.260159 0.2112032 0.2690473 0.2013964 0.2641946 0.1293565 0.2616598 0.1673256 0.2660025 0.1715818 0.2572234 0.1241177 0.2656763 0.1326044 0.2719449 0.1293565 0.2616598 0.1715818 0.2572234 0.2014684 0.2632926 0.2084835 0.2592568 0.1519799 0.1954508 0.1718467 0.1798531 0.1709569 0.2028551 0.09474921 0.8787086 0.1012133 0.8793219 0.115551 0.9588264 0.1348374 0.870393 0.1187694 0.8794866 0.1184874 0.9576097 0.1037364 0.8779785 0.09725356 0.8773943 0.1184874 0.9576097 0.1187694 0.8794866 0.1037364 0.8779785 0.1184874 0.9576097 0.1322734 0.8719024 0.1387782 0.8728808 0.115551 0.9588264 0.1413627 0.871343 0.1348374 0.870393 0.1184874 0.9576097 0.1162019 0.8808975 0.1322734 0.8719024 0.115551 0.9588264 0.1982101 0.199248 0.1716477 0.1799383 0.1708668 0.2026408 0.1743108 0.1255494 0.1882987 0.09160274 0.1761416 0.08853846 0.1985428 0.1996623 0.2104892 0.1776812 0.2124282 0.1960268 0.1524814 0.1754855 0.1430068 0.1211177 0.1595523 0.1237149 0.1595407 0.124206 0.1761416 0.08853846 0.1639344 0.08896297 0.1520446 0.1953113 0.1716477 0.1799383 0.1528792 0.1765167 0.1765904 0.08738744 0.1595523 0.1237149 0.1638931 0.08759349 0.1985428 0.1996623 0.1718467 0.1798531 0.1958255 0.1740921 0.1638931 0.08759349 0.1430068 0.1211177 0.1524618 0.08234918 0.2022803 0.08590507 0.1968904 0.1306641 0.1892623 0.09024584 0.1982101 0.199248 0.2098184 0.1773642 0.1953403 0.1737121 0.1892623 0.09024584 0.1747171 0.1251655 0.1765904 0.08738744 0.2018146 0.08662819 0.1961833 0.1309261 0.2111396 0.1297826 0.1427446 0.1216514 0.1639344 0.08896297 0.1521295 0.08319193 0.2501773 0.2155438 0.2559702 0.2323859 0.2686092 0.2312287 0.08563172 0.216582 0.07606011 0.2337648 0.09095609 0.2317176 0.2507801 0.2165216 0.2564295 0.2335134 0.2448807 0.2302588 0.09048074 0.2322028 0.07639318 0.2384133 0.07547897 0.2343183 0.0965327 0.2574664 0.09093809 0.2383527 0.08582431 0.255998 0.2305814 0.2430649 0.2487913 0.2517251 0.244135 0.2342692 0.09619724 0.2581346 0.09048742 0.2388883 0.1092161 0.2475004 0.2308114 0.2439994 0.2490209 0.2528644 0.2426252 0.2540383 0.2367984 0.2119942 0.2448807 0.2302588 0.2192658 0.2254189 0.1113039 0.2598792 0.10949 0.2469757 0.0965327 0.2574664 0.1178863 0.237644 0.1092161 0.2475004 0.09048742 0.2388883 0.1181433 0.2372325 0.09095609 0.2317176 0.09093809 0.2383527 0.1071135 0.2129407 0.09095609 0.2317176 0.1251147 0.2275156 0.1181433 0.2372325 0.10949 0.2469757 0.1237369 0.2499322 0.2261723 0.2344976 0.2308114 0.2439994 0.2171052 0.2472172 0.2285345 0.2558262 0.2305814 0.2430649 0.2169685 0.2463655 0.1717865 0.1789436 0.1528547 0.1766449 0.1524814 0.1754855 0.1990191 0.1716954 0.2104892 0.1776812 0.1958255 0.1740921 0.1375142 0.1787574 0.1524814 0.1754855 0.1528547 0.1766449 0.1985477 0.1713812 0.2098184 0.1773642 0.2110867 0.1753237 0.1953403 0.1737121 0.1715841 0.1790519 0.1716477 0.1799383 0.1717865 0.1789436 0.1958255 0.1740921 0.1718467 0.1798531 0.1377692 0.178811 0.1524866 0.1753802 0.1369782 0.1774795 0.1528792 0.1765167 0.1715841 0.1790519 0.1524866 0.1753802 0.1520446 0.1953113 0.1377692 0.178811 0.1380122 0.1930117 0.2564295 0.2335134 0.2692304 0.2378532 0.2556197 0.2365276 0.2559702 0.2323859 0.2687517 0.2365739 0.2686092 0.2312287 0.2490209 0.2528644 0.2556197 0.2365276 0.2692304 0.2378532 0.2487913 0.2517251 0.255195 0.2353928 0.244135 0.2342692 0.244135 0.2342692 0.2559702 0.2323859 0.2444488 0.2292637 0.2445162 0.2352868 0.2564295 0.2335134 0.2556197 0.2365276 0.07606011 0.2337648 0.06027168 0.2394953 0.07695323 0.2378318 0.07547897 0.2343183 0.05958867 0.2401479 0.0606901 0.2334185 0.08539772 0.2566922 0.07639318 0.2384133 0.09048742 0.2388883 0.08582431 0.255998 0.07695323 0.2378318 0.06027168 0.2394953 0.09095609 0.2317176 0.07695323 0.2378318 0.09093809 0.2383527 0.08506399 0.2169729 0.07547897 0.2343183 0.0606901 0.2334185 0.1902927 0.03731042 0.1787639 0.04380685 0.1692354 0.03587299 0.1973479 0.04310119 0.1847672 0.04383212 0.1874282 0.04962956 0.1780511 0.04954099 0.1718828 0.04353773 0.1686426 0.04848635 0.1980019 0.04212909 0.1853469 0.0428186 0.1902927 0.03731042 0.1601115 0.04038745 0.1718828 0.04353773 0.1687253 0.03697973 0.1780511 0.04954099 0.1847672 0.04383212 0.1782241 0.04483646 0.1785746 0.04853653 0.1723908 0.04248023 0.1787639 0.04380685 0.1605582 0.03927451 0.1723908 0.04248023 0.1691171 0.04744684 0.1087435 0.6691428 0.1071237 0.7938984 0.1167641 0.6673882 0.1354948 0.6630695 0.1434323 0.7948209 0.1539103 0.6589924 0.1071943 0.6710261 0.10499 0.7954651 0.09736001 0.7949232 0.1152019 0.6693163 0.1230491 0.796767 0.10499 0.7954651 0.1339068 0.665098 0.1412048 0.796557 0.1230491 0.796767 0.1539103 0.6589924 0.1511986 0.7954081 0.1620653 0.657279 0.1523106 0.6611168 0.1489492 0.7971796 0.1412048 0.796557 0.1167641 0.6673882 0.1252333 0.7951175 0.1354948 0.6630695 0.1687253 0.03697973 0.1782241 0.04483646 0.1896656 0.03833818 0.2207985 0.2053945 0.2045286 0.2154831 0.2189435 0.2247071 0.143687 0.2193776 0.1695854 0.2160193 0.169111 0.2291904 0.1268514 0.2081299 0.1071135 0.2129407 0.1251147 0.2275156 0.1778892 0.0641753 0.1773294 0.06822991 0.1907489 0.06833517 0.1695854 0.2160193 0.1709569 0.2028551 0.1985428 0.1996623 0.1783662 0.06324422 0.1920776 0.06251847 0.1912696 0.06746858 0.1438552 0.2191486 0.1251147 0.2275156 0.1691517 0.2289535 0.1438552 0.2191486 0.1520446 0.1953113 0.1380122 0.1930117 0.1784534 0.05935359 0.1785746 0.04853653 0.1880024 0.04865759 0.1635951 0.06284362 0.1778892 0.0641753 0.1779643 0.06030339 0.1524178 0.06016433 0.1526311 0.05528599 0.163855 0.05799257 0.1915336 0.06340456 0.1918499 0.05949485 0.1779643 0.06030339 0.1778892 0.0641753 0.1635951 0.06284362 0.1634361 0.06739157 0.2045286 0.2154831 0.2207985 0.2053945 0.2118651 0.1955509 0.1635951 0.06284362 0.152074 0.06117039 0.152695 0.06638383 0.1783662 0.06324422 0.1777921 0.06731569 0.1638353 0.06643962 0.2048372 0.2159807 0.1985428 0.1996623 0.2124282 0.1960268 0.1920776 0.06251847 0.2043454 0.06127035 0.202911 0.06719356 0.1695616 0.2158268 0.1708668 0.2026408 0.1520446 0.1953113 0.1640039 0.06186896 0.1638353 0.06643962 0.1530326 0.0654118 0.1695854 0.2160193 0.143687 0.2193776 0.1519799 0.1954508 0.1695616 0.2158268 0.2045286 0.2154831 0.1982101 0.199248 0.143687 0.2193776 0.1265438 0.2083361 0.1377426 0.193114 0.1915336 0.06340456 0.1907489 0.06833517 0.2023339 0.06800872 0.2261723 0.2344976 0.2192658 0.2254189 0.2448807 0.2302588 0.1248598 0.2278404 0.169111 0.2291904 0.1688165 0.2371657 0.106692 0.213234 0.1248598 0.2278404 0.09048074 0.2322028 0.2189435 0.2247071 0.1691517 0.2289535 0.1688947 0.2369077 0.2045286 0.2154831 0.1695616 0.2158268 0.1691517 0.2289535 0.2213311 0.2060016 0.2367984 0.2119942 0.2192658 0.2254189 0.2048372 0.2159807 0.2192658 0.2254189 0.169111 0.2291904 0.1265438 0.2083361 0.143687 0.2193776 0.1248598 0.2278404 0.2258863 0.2336532 0.2169685 0.2463655 0.2305814 0.2430649 0.2192658 0.2254189 0.2261723 0.2344976 0.1688165 0.2371657 0.1251147 0.2275156 0.1181433 0.2372325 0.1688947 0.2369077 0.2286463 0.2567853 0.2171052 0.2472172 0.2308114 0.2439994 0.1692496 0.2467028 0.1237369 0.2499322 0.1285367 0.2553635 0.2362297 0.2111878 0.2189435 0.2247071 0.2444488 0.2292637 0.2171052 0.2472172 0.1691209 0.2469709 0.1688165 0.2371657 0.2169685 0.2463655 0.2258863 0.2336532 0.1688947 0.2369077 0.1178863 0.237644 0.09048742 0.2388883 0.09048074 0.2322028 0.2258863 0.2336532 0.244135 0.2342692 0.2444488 0.2292637 0.111106 0.2605108 0.09619724 0.2581346 0.1092161 0.2475004 0.1235911 0.250399 0.1178863 0.237644 0.1688165 0.2371657 0.1237369 0.2499322 0.1692496 0.2467028 0.1688947 0.2369077 0.1673256 0.2660025 0.1672213 0.2854382 0.1935452 0.2719515 0.2171052 0.2472172 0.2286463 0.2567853 0.2233019 0.2602983 0.2169685 0.2463655 0.2126625 0.2520356 0.2232267 0.2593731 0.1691209 0.2469709 0.2171052 0.2472172 0.2127338 0.2528858 0.1691209 0.2469709 0.1694734 0.2533693 0.1284658 0.2558321 0.1235911 0.250399 0.1284658 0.2558321 0.1168473 0.2638977 0.1692496 0.2467028 0.1696411 0.2531012 0.2126625 0.2520356 0.1237369 0.2499322 0.1113039 0.2598792 0.1169715 0.2632625 0.1920776 0.06251847 0.1783662 0.06324422 0.1784534 0.05935359 0.152074 0.06117039 0.1635951 0.06284362 0.1634383 0.05898833 0.1640039 0.06186896 0.163855 0.05799257 0.1784534 0.05935359 0.2043454 0.06127035 0.1920776 0.06251847 0.1924107 0.05859071 0.2037342 0.06211048 0.2038018 0.0571509 0.1918499 0.05949485 0.1785746 0.04853653 0.1787639 0.04380685 0.1853469 0.0428186 0.1784534 0.05935359 0.163855 0.05799257 0.1691171 0.04744684 0.1918499 0.05949485 0.2038018 0.0571509 0.1973479 0.04310119 0.163855 0.05799257 0.1526311 0.05528599 0.1605582 0.03927451 0.1634383 0.05898833 0.1686426 0.04848635 0.1601115 0.04038745 0.1779643 0.06030339 0.1918499 0.05949485 0.1874282 0.04962956 0.1779643 0.06030339 0.1780511 0.04954099 0.1686426 0.04848635 0.1924107 0.05859071 0.1880024 0.04865759 0.1980019 0.04212909 0.1241177 0.2656763 0.1293565 0.2616598 0.1285367 0.2553635 0.2084919 0.260159 0.1713654 0.2574849 0.1694734 0.2533693 0.2084835 0.2592568 0.2126625 0.2520356 0.1696411 0.2531012 0.2138745 0.2631516 0.2232267 0.2593731 0.2126625 0.2520356 0.1240843 0.2662938 0.1168473 0.2638977 0.1284658 0.2558321 0.2139397 0.264024 0.2084919 0.260159 0.2127338 0.2528858 0.1293565 0.2621551 0.1284658 0.2558321 0.1694734 0.2533693 0.1293565 0.2616598 0.1715818 0.2572234 0.1696411 0.2531012 0.1703985 0.2907174 0.1724271 0.3003574 0.142928 0.2981834 0.1277301 0.2770931 0.1346834 0.2914463 0.1430842 0.2862905 0.1673256 0.2660025 0.1326044 0.2719449 0.1430842 0.2862905 0.2013964 0.2641946 0.2112032 0.2690473 0.2059095 0.2794283 0.2014684 0.2632926 0.1935452 0.2719515 0.2059791 0.2789216 0.168619 0.2689951 0.2013964 0.2641946 0.1930739 0.2741437 0.168619 0.2689951 0.1703985 0.2907174 0.1440265 0.2868521 0.1280248 0.2779265 0.1328861 0.2725426 0.1440265 0.2868521 0.1705906 0.4791598 0.1539103 0.6589924 0.1620653 0.657279 0.1356218 0.2924703 0.1440265 0.2868521 0.142928 0.2981834 0.1672213 0.2854382 0.1691333 0.2952854 0.1900424 0.2848306 0.1346834 0.2914463 0.1345698 0.3036805 0.1415439 0.2970957 0.1430842 0.2862905 0.1415439 0.2970957 0.1691333 0.2952854 0.2059095 0.2794283 0.201975 0.2912284 0.1907798 0.2871599 0.2059791 0.2789216 0.1935452 0.2719515 0.1900424 0.2848306 0.1703985 0.2907174 0.1930739 0.2741437 0.1907798 0.2871599 0.1252333 0.7951175 0.1071237 0.7938984 0.1037364 0.8779785 0.1495154 0.4870007 0.1695907 0.4820186 0.1523106 0.6611168 0.1286769 0.4920893 0.1495154 0.4870007 0.1339068 0.665098 0.1196492 0.4939643 0.1286769 0.4920893 0.1152019 0.6693163 0.1501517 0.484282 0.1354948 0.6630695 0.1539103 0.6589924 0.1202928 0.4915024 0.1087435 0.6691428 0.1167641 0.6673882 0.1292918 0.4895619 0.1167641 0.6673882 0.1354948 0.6630695 0.1695907 0.4820186 0.1791061 0.4815665 0.1604468 0.6594452 0.1412048 0.796557 0.1489492 0.7971796 0.1387782 0.8728808 0.1434323 0.7948209 0.1348374 0.870393 0.1413627 0.871343 0.1230491 0.796767 0.1412048 0.796557 0.1322734 0.8719024 0.1230491 0.796767 0.1162019 0.8808975 0.1012133 0.8793219 0.10499 0.7954651 0.1012133 0.8793219 0.09474921 0.8787086 0.1252333 0.7951175 0.1187694 0.8794866 0.1348374 0.870393 0.1071237 0.7938984 0.09947246 0.7933912 0.09725356 0.8773943 0.201975 0.2912284 0.1791061 0.4815665 0.1695907 0.4820186 0.1415439 0.2970957 0.1292918 0.4895619 0.1501517 0.484282 0.1345698 0.3036805 0.1202928 0.4915024 0.1292918 0.4895619 0.1691333 0.2952854 0.1501517 0.484282 0.1705906 0.4791598 0.1357662 0.3050541 0.142928 0.2981834 0.1286769 0.4920893 0.142928 0.2981834 0.1724271 0.3003574 0.1495154 0.4870007 0.1724271 0.3003574 0.1907798 0.2871599 0.1695907 0.4820186 0.2019634 0.2906976 0.1900424 0.2848306 0.1705906 0.4791598 0.2111396 0.1297826 0.1961833 0.1309261 0.1985477 0.1713812 0.1906107 0.08694195 0.1892623 0.09024584 0.1765904 0.08738744 0.1901901 0.08775925 0.1882987 0.09160274 0.2018146 0.08662819 0.1622424 0.08576887 0.1527376 0.0823512 0.1521295 0.08319193 0.2014489 0.08467739 0.1906107 0.08694195 0.1912696 0.06746858 0.1901901 0.08775925 0.1907489 0.06833517 0.1773294 0.06822991 0.2116997 0.1295251 0.2117599 0.1756228 0.1990191 0.1716954 0.1761728 0.08588635 0.1622424 0.08576887 0.1639344 0.08896297 0.2009758 0.08541268 0.2023339 0.06800872 0.1907489 0.06833517 0.1765825 0.08502233 0.1626484 0.08487552 0.1638353 0.06643962 0.1901901 0.08775925 0.1761728 0.08588635 0.1761416 0.08853846 0.1906107 0.08694195 0.2014489 0.08467739 0.2022803 0.08590507 0.1761728 0.08588635 0.1773294 0.06822991 0.1634361 0.06739157 0.1530696 0.08149832 0.1530326 0.0654118 0.1638353 0.06643962 0.1527376 0.0823512 0.1622424 0.08576887 0.1634361 0.06739157 0.1906107 0.08694195 0.1765825 0.08502233 0.1777921 0.06731569 0.1715841 0.1790519 0.1743108 0.1255494 0.1595407 0.124206 0.1715841 0.1790519 0.1985477 0.1713812 0.1961833 0.1309261 0.1427446 0.1216514 0.1369782 0.1774795 0.1524866 0.1753802 0.1595523 0.1237149 0.1747171 0.1251655 0.1717865 0.1789436 0.1626484 0.08487552 0.1638931 0.08759349 0.1524618 0.08234918 0.1765825 0.08502233 0.1765904 0.08738744 0.1638931 0.08759349 0.1968904 0.1306641 0.1990191 0.1716954 0.1717865 0.1789436 0.1519799 0.1954508 0.1377426 0.193114 0.1375142 0.1787574 0.1240843 0.2662938 0.1293565 0.2621551 0.1328861 0.2725426 0.1293565 0.2621551 0.1713654 0.2574849 0.168619 0.2689951 0.1713654 0.2574849 0.2084919 0.260159 0.2013964 0.2641946 0.2084835 0.2592568 0.2014684 0.2632926 0.2110359 0.2682292 0.2084919 0.260159 0.2139397 0.264024 0.2112032 0.2690473 0.1293565 0.2616598 0.1326044 0.2719449 0.1673256 0.2660025 0.1241177 0.2656763 0.1277301 0.2770931 0.1326044 0.2719449 0.1715818 0.2572234 0.1673256 0.2660025 0.2014684 0.2632926 0.1519799 0.1954508 0.1528547 0.1766449 0.1718467 0.1798531 0.1982101 0.199248 0.1953403 0.1737121 0.1716477 0.1799383 0.1743108 0.1255494 0.1961833 0.1309261 0.1882987 0.09160274 0.1985428 0.1996623 0.1958255 0.1740921 0.2104892 0.1776812 0.1524814 0.1754855 0.1367285 0.177414 0.1430068 0.1211177 0.1595407 0.124206 0.1743108 0.1255494 0.1761416 0.08853846 0.1520446 0.1953113 0.1708668 0.2026408 0.1716477 0.1799383 0.1765904 0.08738744 0.1747171 0.1251655 0.1595523 0.1237149 0.1985428 0.1996623 0.1709569 0.2028551 0.1718467 0.1798531 0.1638931 0.08759349 0.1595523 0.1237149 0.1430068 0.1211177 0.2022803 0.08590507 0.2116997 0.1295251 0.1968904 0.1306641 0.1982101 0.199248 0.2118651 0.1955509 0.2098184 0.1773642 0.1892623 0.09024584 0.1968904 0.1306641 0.1747171 0.1251655 0.2018146 0.08662819 0.1882987 0.09160274 0.1961833 0.1309261 0.1427446 0.1216514 0.1595407 0.124206 0.1639344 0.08896297 0.2501773 0.2155438 0.2444488 0.2292637 0.2559702 0.2323859 0.08563172 0.216582 0.06138736 0.2328214 0.07606011 0.2337648 0.2507801 0.2165216 0.2691424 0.2324804 0.2564295 0.2335134 0.09048074 0.2322028 0.09048742 0.2388883 0.07639318 0.2384133 0.0965327 0.2574664 0.10949 0.2469757 0.09093809 0.2383527 0.2305814 0.2430649 0.2424367 0.2529532 0.2487913 0.2517251 0.09619724 0.2581346 0.08539772 0.2566922 0.09048742 0.2388883 0.2308114 0.2439994 0.2445162 0.2352868 0.2490209 0.2528644 0.2367984 0.2119942 0.2507801 0.2165216 0.2448807 0.2302588 0.1113039 0.2598792 0.1237369 0.2499322 0.10949 0.2469757 0.1178863 0.237644 0.1235911 0.250399 0.1092161 0.2475004 0.1181433 0.2372325 0.1251147 0.2275156 0.09095609 0.2317176 0.1071135 0.2129407 0.08563172 0.216582 0.09095609 0.2317176 0.1181433 0.2372325 0.09093809 0.2383527 0.10949 0.2469757 0.2261723 0.2344976 0.2445162 0.2352868 0.2308114 0.2439994 0.2285345 0.2558262 0.2424367 0.2529532 0.2305814 0.2430649 0.1717865 0.1789436 0.1718467 0.1798531 0.1528547 0.1766449 0.1990191 0.1716954 0.2117599 0.1756228 0.2104892 0.1776812 0.1375142 0.1787574 0.1367285 0.177414 0.1524814 0.1754855 0.1985477 0.1713812 0.1953403 0.1737121 0.2098184 0.1773642 0.1953403 0.1737121 0.1985477 0.1713812 0.1715841 0.1790519 0.1717865 0.1789436 0.1990191 0.1716954 0.1958255 0.1740921 0.1377692 0.178811 0.1528792 0.1765167 0.1524866 0.1753802 0.1528792 0.1765167 0.1716477 0.1799383 0.1715841 0.1790519 0.1520446 0.1953113 0.1528792 0.1765167 0.1377692 0.178811 0.2564295 0.2335134 0.2691424 0.2324804 0.2692304 0.2378532 0.2559702 0.2323859 0.255195 0.2353928 0.2687517 0.2365739 0.2490209 0.2528644 0.2445162 0.2352868 0.2556197 0.2365276 0.2487913 0.2517251 0.2687517 0.2365739 0.255195 0.2353928 0.244135 0.2342692 0.255195 0.2353928 0.2559702 0.2323859 0.2445162 0.2352868 0.2448807 0.2302588 0.2564295 0.2335134 0.07606011 0.2337648 0.06138736 0.2328214 0.06027168 0.2394953 0.07547897 0.2343183 0.07639318 0.2384133 0.05958867 0.2401479 0.08539772 0.2566922 0.05958867 0.2401479 0.07639318 0.2384133 0.08582431 0.255998 0.09093809 0.2383527 0.07695323 0.2378318 0.09095609 0.2317176 0.07606011 0.2337648 0.07695323 0.2378318 0.08506399 0.2169729 0.09048074 0.2322028 0.07547897 0.2343183 0.1723908 0.04248023 0.1692354 0.03587299 0.1787639 0.04380685 0.1902927 0.03731042 0.1853469 0.0428186 0.1787639 0.04380685 0.1973479 0.04310119 0.1896656 0.03833818 0.1847672 0.04383212 0.1780511 0.04954099 0.1782241 0.04483646 0.1718828 0.04353773 0.1980019 0.04212909 0.1880024 0.04865759 0.1853469 0.0428186 0.1601115 0.04038745 0.1686426 0.04848635 0.1718828 0.04353773 0.1780511 0.04954099 0.1874282 0.04962956 0.1847672 0.04383212 0.1785746 0.04853653 0.1691171 0.04744684 0.1723908 0.04248023 0.1605582 0.03927451 0.1692354 0.03587299 0.1723908 0.04248023 0.1087435 0.6691428 0.09947246 0.7933912 0.1071237 0.7938984 0.1354948 0.6630695 0.1252333 0.7951175 0.1434323 0.7948209 0.1071943 0.6710261 0.1152019 0.6693163 0.10499 0.7954651 0.1152019 0.6693163 0.1339068 0.665098 0.1230491 0.796767 0.1339068 0.665098 0.1523106 0.6611168 0.1412048 0.796557 0.1539103 0.6589924 0.1434323 0.7948209 0.1511986 0.7954081 0.1523106 0.6611168 0.1604468 0.6594452 0.1489492 0.7971796 0.1167641 0.6673882 0.1071237 0.7938984 0.1252333 0.7951175 0.1847672 0.04383212 0.1896656 0.03833818 0.1782241 0.04483646 0.1687253 0.03697973 0.1718828 0.04353773 0.1782241 0.04483646</float_array>
          <technique_common>
            <accessor source="#Cube_001-mesh-map-0-array" count="1314" stride="2">
              <param name="S" type="float"/>
              <param name="T" type="float"/>
            </accessor>
          </technique_common>
        </source>
        <vertices id="Cube_001-mesh-vertices">
          <input semantic="POSITION" source="#Cube_001-mesh-positions"/>
        </vertices>
        <polylist material="Material_001-material" count="438">
          <input semantic="VERTEX" source="#Cube_001-mesh-vertices" offset="0"/>
          <input semantic="NORMAL" source="#Cube_001-mesh-normals" offset="1"/>
          <input semantic="TEXCOORD" source="#Cube_001-mesh-map-0" offset="2" set="0"/>
          <vcount>3 3 3 3 3 3 3 3 3 3 3 3 3 3 3 3 3 3 3 3 3 3 3 3 3 3 3 3 3 3 3 3 3 3 3 3 3 3 3 3 3 3 3 3 3 3 3 3 3 3 3 3 3 3 3 3 3 3 3 3 3 3 3 3 3 3 3 3 3 3 3 3 3 3 3 3 3 3 3 3 3 3 3 3 3 3 3 3 3 3 3 3 3 3 3 3 3 3 3 3 3 3 3 3 3 3 3 3 3 3 3 3 3 3 3 3 3 3 3 3 3 3 3 3 3 3 3 3 3 3 3 3 3 3 3 3 3 3 3 3 3 3 3 3 3 3 3 3 3 3 3 3 3 3 3 3 3 3 3 3 3 3 3 3 3 3 3 3 3 3 3 3 3 3 3 3 3 3 3 3 3 3 3 3 3 3 3 3 3 3 3 3 3 3 3 3 3 3 3 3 3 3 3 3 3 3 3 3 3 3 3 3 3 3 3 3 3 3 3 3 3 3 3 3 3 3 3 3 3 3 3 3 3 3 3 3 3 3 3 3 3 3 3 3 3 3 3 3 3 3 3 3 3 3 3 3 3 3 3 3 3 3 3 3 3 3 3 3 3 3 3 3 3 3 3 3 3 3 3 3 3 3 3 3 3 3 3 3 3 3 3 3 3 3 3 3 3 3 3 3 3 3 3 3 3 3 3 3 3 3 3 3 3 3 3 3 3 3 3 3 3 3 3 3 3 3 3 3 3 3 3 3 3 3 3 3 3 3 3 3 3 3 3 3 3 3 3 3 3 3 3 3 3 3 3 3 3 3 3 3 3 3 3 3 3 3 3 3 3 3 3 3 3 3 3 3 3 3 3 3 3 3 3 3 3 3 3 3 3 3 3 3 3 3 3 3 3 3 3 3 3 3 3 3 3 3 3 3 3 3 3 3 3 3 3 3 3 3 3 3 3 3 3 3 3 3 3 3 3 3 3 3 3 3 3 3 3 3 </vcount>
          <p>5 0 0 23 1 1 24 2 2 0 3 3 20 4 4 25 5 5 4 6 6 19 7 7 1 8 8 13 9 9 126 10 10 14 11 11 6 12 12 118 13 13 2 14 14 11 15 15 132 16 16 128 17 17 1 8 18 22 18 19 7 19 20 1 8 21 115 20 22 4 6 23 48 21 24 58 22 25 49 23 26 10 24 27 50 25 28 47 26 29 9 27 30 53 28 31 16 29 32 14 11 33 50 25 34 13 9 35 13 9 36 131 30 37 133 31 38 3 32 39 124 33 40 120 34 41 10 24 42 130 35 43 131 30 44 11 15 45 129 36 46 16 29 47 2 14 48 124 33 49 5 0 50 12 37 51 127 38 52 132 16 53 7 19 54 116 39 55 1 8 56 16 29 57 130 35 58 9 27 59 6 12 60 110 40 61 117 41 62 7 19 63 120 34 64 119 42 65 0 3 66 115 20 67 110 40 68 14 11 69 127 38 70 15 43 71 35 44 72 164 45 73 170 46 74 25 5 75 34 47 76 38 48 77 18 49 78 163 50 79 159 51 80 23 1 81 36 52 82 37 53 83 3 32 84 22 18 85 23 1 86 5 0 87 21 54 88 2 14 89 2 14 90 20 4 91 6 12 92 4 6 93 25 5 94 18 49 95 37 53 96 174 55 97 167 56 98 21 54 99 34 47 100 20 4 101 19 7 102 36 52 103 22 18 104 31 57 105 176 58 106 173 59 107 29 60 108 63 61 109 66 62 110 24 2 111 162 63 112 161 64 113 28 65 114 34 47 115 35 44 116 30 66 117 36 52 118 29 60 119 38 48 120 163 50 121 25 5 122 37 53 123 162 63 124 23 1 125 8 67 126 175 68 127 32 69 128 32 69 129 34 47 130 27 70 131 26 71 132 36 52 133 33 72 134 134 73 135 75 74 136 135 75 137 28 65 138 68 76 139 65 77 140 30 66 141 68 76 142 31 57 143 27 70 144 65 77 145 64 78 146 27 70 147 69 79 148 32 69 149 32 69 150 62 80 151 8 67 152 29 60 153 67 81 154 30 66 155 26 71 156 62 80 157 63 61 158 12 37 159 48 21 160 49 23 161 9 27 162 47 26 163 17 82 164 16 29 165 48 21 166 11 15 167 15 43 168 49 23 169 52 83 170 15 43 171 51 84 172 14 11 173 57 85 174 209 86 175 58 22 176 48 21 177 61 87 178 57 85 179 51 84 180 54 88 181 55 89 182 53 28 183 59 90 184 61 87 185 47 26 186 59 90 187 17 82 188 50 25 189 55 89 190 56 91 191 50 25 192 60 92 193 47 26 194 49 23 195 54 88 196 52 83 197 39 93 198 63 61 199 62 80 200 42 94 201 64 78 202 65 77 203 44 95 204 66 62 205 43 96 206 45 97 207 67 81 208 44 95 209 39 93 210 69 79 211 46 98 212 45 97 213 65 77 214 68 76 215 46 98 216 64 78 217 41 99 218 40 100 219 66 62 220 63 61 221 72 101 222 85 102 223 77 103 224 136 104 225 71 105 226 137 106 227 134 73 228 71 105 229 74 107 230 139 108 231 76 109 232 73 110 233 135 75 234 76 109 235 138 111 236 140 112 237 73 110 238 72 101 239 140 112 240 77 103 241 141 113 242 136 104 243 77 103 244 70 114 245 102 115 246 92 116 247 103 117 248 70 114 249 85 102 250 78 118 251 74 107 252 83 119 253 75 74 254 70 114 255 79 120 256 71 105 257 71 105 258 82 121 259 74 107 260 76 109 261 81 122 262 73 110 263 76 109 264 83 119 265 84 123 266 72 101 267 81 122 268 80 124 269 214 125 270 95 126 271 98 127 272 105 128 273 89 129 274 88 130 275 106 131 276 88 130 277 93 132 278 107 133 279 93 132 280 86 134 281 108 135 282 91 136 283 102 115 284 107 133 285 87 137 286 109 138 287 109 138 288 90 139 289 108 135 290 104 140 291 92 116 292 89 129 293 216 141 294 100 142 295 97 143 296 217 144 297 100 142 298 215 145 299 218 146 300 97 143 301 96 147 302 218 146 303 101 148 304 219 149 305 219 149 306 94 150 307 220 151 308 214 125 309 99 152 310 217 144 311 213 153 312 94 150 313 95 126 314 84 123 315 104 140 316 81 122 317 79 120 318 108 135 319 82 121 320 78 118 321 109 138 322 79 120 323 82 121 324 102 115 325 83 119 326 78 118 327 106 131 328 107 133 329 85 102 330 105 128 331 106 131 332 80 124 333 104 140 334 105 128 335 84 123 336 102 115 337 103 117 338 155 154 339 189 155 340 191 156 341 114 157 342 144 158 343 113 159 344 122 160 345 152 161 346 123 162 347 112 163 348 146 164 349 145 165 350 123 162 351 132 16 352 127 38 353 122 160 354 133 31 355 121 166 356 155 154 357 186 167 358 151 168 359 121 166 360 145 165 361 149 169 362 123 162 363 126 10 364 122 160 365 113 159 366 129 36 367 128 17 368 122 160 369 149 169 370 150 170 371 114 157 372 152 161 373 143 171 374 121 166 375 131 30 376 112 163 377 111 172 378 129 36 379 125 173 380 111 172 381 131 30 382 130 35 383 114 157 384 128 17 385 132 16 386 187 174 387 148 175 388 182 176 389 187 174 390 153 177 391 157 178 392 156 179 393 182 176 394 148 175 395 147 180 396 183 181 397 180 182 398 125 173 399 146 164 400 111 172 401 113 159 402 154 183 403 125 173 404 151 168 405 183 181 406 158 184 407 110 40 408 177 185 409 179 186 410 101 148 411 96 147 412 142 187 413 39 93 414 141 113 415 136 104 416 46 98 417 140 112 418 141 113 419 41 99 420 139 108 421 140 112 422 44 95 423 138 111 424 45 97 425 42 94 426 138 111 427 139 108 428 40 100 429 134 73 430 43 96 431 39 93 432 137 106 433 40 100 434 43 96 435 135 75 436 44 95 437 110 40 438 184 188 439 117 41 440 94 150 441 101 148 442 142 187 443 99 152 444 98 127 445 142 187 446 95 126 447 94 150 448 142 187 449 98 127 450 95 126 451 142 187 452 97 143 453 100 142 454 142 187 455 100 142 456 99 152 457 142 187 458 96 147 459 97 143 460 142 187 461 120 34 462 188 189 463 119 42 464 157 178 465 150 170 466 149 169 467 118 13 468 192 190 469 124 33 470 180 182 471 156 179 472 147 180 473 148 175 474 149 169 475 145 165 476 116 39 477 188 189 478 181 191 479 144 158 480 147 180 481 154 183 482 118 13 483 184 188 484 185 192 485 154 183 486 156 179 487 146 164 488 152 161 489 151 168 490 143 171 491 120 34 492 192 190 493 190 193 494 143 171 495 158 184 496 144 158 497 152 161 498 153 177 499 155 154 500 156 179 501 145 165 502 146 164 503 161 64 504 194 194 505 193 195 506 159 51 507 200 196 508 160 197 509 161 64 510 195 198 511 164 45 512 163 50 513 204 199 514 201 200 515 171 201 516 165 202 517 166 203 518 174 55 519 168 204 520 167 56 521 171 201 522 169 205 523 175 68 524 176 58 525 168 204 526 173 59 527 24 2 528 164 45 529 21 54 530 8 67 531 172 206 532 171 201 533 38 48 534 175 68 535 169 205 536 33 72 537 160 197 538 165 202 539 18 49 540 160 197 541 19 7 542 33 72 543 172 206 544 26 71 545 35 44 546 176 58 547 28 65 548 31 57 549 174 55 550 30 66 551 183 181 552 179 186 553 180 182 554 186 167 555 192 190 556 185 192 557 177 185 558 180 182 559 179 186 560 189 155 561 192 190 562 191 156 563 190 193 564 187 174 565 188 189 566 183 181 567 185 192 568 184 188 569 177 185 570 182 176 571 178 207 572 181 191 573 187 174 574 182 176 575 116 39 576 177 185 577 115 20 578 195 198 579 197 208 580 198 209 581 194 194 582 197 208 583 193 195 584 168 204 585 198 209 586 197 208 587 168 204 588 196 210 589 167 56 590 167 56 591 194 194 592 162 63 593 170 46 594 195 198 595 198 209 596 200 196 597 203 211 598 202 212 599 201 200 600 203 211 601 199 213 602 166 203 603 204 199 604 169 205 605 166 203 606 202 212 607 203 211 608 160 197 609 202 212 610 165 202 611 159 51 612 201 200 613 199 213 614 205 214 615 208 215 616 210 216 617 54 88 618 206 217 619 55 89 620 56 91 621 211 218 622 60 92 623 54 88 624 209 86 625 205 214 626 59 90 627 211 218 628 210 216 629 56 91 630 206 217 631 207 219 632 57 85 633 212 220 634 208 215 635 59 90 636 212 220 637 61 87 638 86 134 639 213 153 640 87 137 641 90 139 642 217 144 643 91 136 644 86 134 645 219 149 646 220 151 647 93 132 648 218 146 649 219 149 650 88 130 651 216 141 652 218 146 653 91 136 654 215 145 655 92 116 656 89 129 657 215 145 658 216 141 659 87 137 660 214 125 661 90 139 662 210 216 663 207 219 664 205 214 665 5 0 666 3 32 667 23 1 668 0 3 669 6 12 670 20 4 671 4 6 672 18 49 673 19 7 674 13 9 675 133 31 676 126 10 677 6 12 678 117 41 679 118 13 680 11 15 681 12 37 682 132 16 683 1 8 684 19 7 685 22 18 686 1 8 687 116 39 688 115 20 689 48 21 690 57 85 691 58 22 692 10 24 693 13 9 694 50 25 695 9 27 696 17 82 697 53 28 698 14 11 699 51 84 700 50 25 701 13 9 702 10 24 703 131 30 704 3 32 705 5 0 706 124 33 707 10 24 708 9 27 709 130 35 710 11 15 711 128 17 712 129 36 713 2 14 714 118 13 715 124 33 716 12 37 717 15 43 718 127 38 719 7 19 720 119 42 721 116 39 722 16 29 723 129 36 724 130 35 725 6 12 726 0 3 727 110 40 728 7 19 729 3 32 730 120 34 731 0 3 732 4 6 733 115 20 734 14 11 735 126 10 736 127 38 737 35 44 738 21 54 739 164 45 740 25 5 741 20 4 742 34 47 743 18 49 744 25 5 745 163 50 746 23 1 747 22 18 748 36 52 749 3 32 750 7 19 751 22 18 752 5 0 753 24 2 754 21 54 755 2 14 756 21 54 757 20 4 758 4 6 759 0 3 760 25 5 761 37 53 762 30 66 763 174 55 764 21 54 765 35 44 766 34 47 767 19 7 768 33 72 769 36 52 770 31 57 771 28 65 772 176 58 773 29 60 774 26 71 775 63 61 776 24 2 777 23 1 778 162 63 779 28 65 780 27 70 781 34 47 782 30 66 783 37 53 784 36 52 785 38 48 786 169 205 787 163 50 788 37 53 789 167 56 790 162 63 791 8 67 792 171 201 793 175 68 794 32 69 795 38 48 796 34 47 797 26 71 798 29 60 799 36 52 800 134 73 801 74 107 802 75 74 803 28 65 804 31 57 805 68 76 806 30 66 807 67 81 808 68 76 809 27 70 810 28 65 811 65 77 812 27 70 813 64 78 814 69 79 815 32 69 816 69 79 817 62 80 818 29 60 819 66 62 820 67 81 821 26 71 822 8 67 823 62 80 824 12 37 825 11 15 826 48 21 827 9 27 828 10 24 829 47 26 830 16 29 831 53 28 832 48 21 833 15 43 834 12 37 835 49 23 836 15 43 837 52 83 838 51 84 839 57 85 840 208 215 841 209 86 842 48 21 843 53 28 844 61 87 845 51 84 846 52 83 847 54 88 848 53 28 849 17 82 850 59 90 851 47 26 852 60 92 853 59 90 854 50 25 855 51 84 856 55 89 857 50 25 858 56 91 859 60 92 860 49 23 861 58 22 862 54 88 863 39 93 864 40 100 865 63 61 866 42 94 867 41 99 868 64 78 869 44 95 870 67 81 871 66 62 872 45 97 873 68 76 874 67 81 875 39 93 876 62 80 877 69 79 878 45 97 879 42 94 880 65 77 881 46 98 882 69 79 883 64 78 884 40 100 885 43 96 886 66 62 887 72 101 888 80 124 889 85 102 890 136 104 891 70 114 892 71 105 893 134 73 894 137 106 895 71 105 896 139 108 897 138 111 898 76 109 899 135 75 900 75 74 901 76 109 902 140 112 903 139 108 904 73 110 905 140 112 906 72 101 907 77 103 908 136 104 909 141 113 910 77 103 911 102 115 912 91 136 913 92 116 914 70 114 915 77 103 916 85 102 917 74 107 918 82 121 919 83 119 920 70 114 921 78 118 922 79 120 923 71 105 924 79 120 925 82 121 926 76 109 927 84 123 928 81 122 929 76 109 930 75 74 931 83 119 932 72 101 933 73 110 934 81 122 935 214 125 936 213 153 937 95 126 938 105 128 939 104 140 940 89 129 941 106 131 942 105 128 943 88 130 944 107 133 945 106 131 946 93 132 947 108 135 948 90 139 949 91 136 950 107 133 951 86 134 952 87 137 953 109 138 954 87 137 955 90 139 956 104 140 957 103 117 958 92 116 959 216 141 960 215 145 961 100 142 962 217 144 963 99 152 964 100 142 965 218 146 966 216 141 967 97 143 968 218 146 969 96 147 970 101 148 971 219 149 972 101 148 973 94 150 974 214 125 975 98 127 976 99 152 977 213 153 978 220 151 979 94 150 980 84 123 981 103 117 982 104 140 983 79 120 984 109 138 985 108 135 986 78 118 987 107 133 988 109 138 989 82 121 990 108 135 991 102 115 992 78 118 993 85 102 994 106 131 995 85 102 996 80 124 997 105 128 998 80 124 999 81 122 1000 104 140 1001 84 123 1002 83 119 1003 102 115 1004 155 154 1005 153 177 1006 189 155 1007 114 157 1008 143 171 1009 144 158 1010 122 160 1011 150 170 1012 152 161 1013 112 163 1014 111 172 1015 146 164 1016 123 162 1017 114 157 1018 132 16 1019 122 160 1020 126 10 1021 133 31 1022 155 154 1023 191 156 1024 186 167 1025 121 166 1026 112 163 1027 145 165 1028 123 162 1029 127 38 1030 126 10 1031 113 159 1032 125 173 1033 129 36 1034 122 160 1035 121 166 1036 149 169 1037 114 157 1038 123 162 1039 152 161 1040 121 166 1041 133 31 1042 131 30 1043 111 172 1044 130 35 1045 129 36 1046 111 172 1047 112 163 1048 131 30 1049 114 157 1050 113 159 1051 128 17 1052 187 174 1053 157 178 1054 148 175 1055 187 174 1056 189 155 1057 153 177 1058 156 179 1059 178 207 1060 182 176 1061 147 180 1062 158 184 1063 183 181 1064 125 173 1065 154 183 1066 146 164 1067 113 159 1068 144 158 1069 154 183 1070 151 168 1071 186 167 1072 183 181 1073 110 40 1074 115 20 1075 177 185 1076 39 93 1077 46 98 1078 141 113 1079 46 98 1080 41 99 1081 140 112 1082 41 99 1083 42 94 1084 139 108 1085 44 95 1086 135 75 1087 138 111 1088 42 94 1089 45 97 1090 138 111 1091 40 100 1092 137 106 1093 134 73 1094 39 93 1095 136 104 1096 137 106 1097 43 96 1098 134 73 1099 135 75 1100 110 40 1101 179 186 1102 184 188 1103 120 34 1104 190 193 1105 188 189 1106 157 178 1107 153 177 1108 150 170 1109 118 13 1110 185 192 1111 192 190 1112 180 182 1113 178 207 1114 156 179 1115 148 175 1116 157 178 1117 149 169 1118 116 39 1119 119 42 1120 188 189 1121 144 158 1122 158 184 1123 147 180 1124 118 13 1125 117 41 1126 184 188 1127 154 183 1128 147 180 1129 156 179 1130 152 161 1131 155 154 1132 151 168 1133 120 34 1134 124 33 1135 192 190 1136 143 171 1137 151 168 1138 158 184 1139 152 161 1140 150 170 1141 153 177 1142 156 179 1143 148 175 1144 145 165 1145 161 64 1146 162 63 1147 194 194 1148 159 51 1149 199 213 1150 200 196 1151 161 64 1152 193 195 1153 195 198 1154 163 50 1155 169 205 1156 204 199 1157 171 201 1158 172 206 1159 165 202 1160 174 55 1161 173 59 1162 168 204 1163 171 201 1164 166 203 1165 169 205 1166 176 58 1167 170 46 1168 168 204 1169 24 2 1170 161 64 1171 164 45 1172 8 67 1173 26 71 1174 172 206 1175 38 48 1176 32 69 1177 175 68 1178 33 72 1179 19 7 1180 160 197 1181 18 49 1182 159 51 1183 160 197 1184 33 72 1185 165 202 1186 172 206 1187 35 44 1188 170 46 1189 176 58 1190 31 57 1191 173 59 1192 174 55 1193 183 181 1194 184 188 1195 179 186 1196 186 167 1197 191 156 1198 192 190 1199 177 185 1200 178 207 1201 180 182 1202 189 155 1203 190 193 1204 192 190 1205 190 193 1206 189 155 1207 187 174 1208 183 181 1209 186 167 1210 185 192 1211 177 185 1212 181 191 1213 182 176 1214 181 191 1215 188 189 1216 187 174 1217 116 39 1218 181 191 1219 177 185 1220 195 198 1221 193 195 1222 197 208 1223 194 194 1224 196 210 1225 197 208 1226 168 204 1227 170 46 1228 198 209 1229 168 204 1230 197 208 1231 196 210 1232 167 56 1233 196 210 1234 194 194 1235 170 46 1236 164 45 1237 195 198 1238 200 196 1239 199 213 1240 203 211 1241 201 200 1242 204 199 1243 203 211 1244 166 203 1245 203 211 1246 204 199 1247 166 203 1248 165 202 1249 202 212 1250 160 197 1251 200 196 1252 202 212 1253 159 51 1254 163 50 1255 201 200 1256 212 220 1257 210 216 1258 208 215 1259 205 214 1260 209 86 1261 208 215 1262 54 88 1263 205 214 1264 206 217 1265 56 91 1266 207 219 1267 211 218 1268 54 88 1269 58 22 1270 209 86 1271 59 90 1272 60 92 1273 211 218 1274 56 91 1275 55 89 1276 206 217 1277 57 85 1278 61 87 1279 212 220 1280 59 90 1281 210 216 1282 212 220 1283 86 134 1284 220 151 1285 213 153 1286 90 139 1287 214 125 1288 217 144 1289 86 134 1290 93 132 1291 219 149 1292 93 132 1293 88 130 1294 218 146 1295 88 130 1296 89 129 1297 216 141 1298 91 136 1299 217 144 1300 215 145 1301 89 129 1302 92 116 1303 215 145 1304 87 137 1305 213 153 1306 214 125 1307 206 217 1308 205 214 1309 207 219 1310 210 216 1311 211 218 1312 207 219 1313</p>
        </polylist>
      </mesh>
    </geometry>
  </library_geometries>
  <library_controllers/>
  <library_visual_scenes>
    <visual_scene id="Scene" name="Scene">
      <node id="Camera" name="Camera" type="NODE">
        <matrix sid="transform">0.6858805 -0.3173701 0.6548619 7.481132 0.7276338 0.3124686 -0.6106656 -6.50764 -0.01081678 0.8953432 0.4452454 5.343665 0 0 0 1</matrix>
        <instance_camera url="#Camera-camera"/>
      </node>
      <node id="Lamp" name="Lamp" type="NODE">
        <matrix sid="transform">-0.2908646 -0.7711008 0.5663932 4.076245 0.9551712 -0.1998834 0.2183912 1.005454 -0.05518906 0.6045247 0.7946723 5.903862 0 0 0 1</matrix>
        <instance_light url="#Lamp-light"/>
      </node>
      <node id="Cube" name="Cube" type="NODE">
        <matrix sid="transform">1 0 0 0 0 -1 0 -0.1524195 0 0 1 0.103612 0 0 0 1</matrix>
        <instance_geometry url="#Cube_001-mesh" name="Cube">
          <bind_material>
            <technique_common>
              <instance_material symbol="Material_001-material" target="#Material_001-material"/>
            </technique_common>
          </bind_material>
        </instance_geometry>
      </node>
      <node id="Lamp_001" name="Lamp_001" type="NODE">
        <matrix sid="transform">-0.290865 -0.7711005 0.5663933 4.076245 0.955171 -0.1998836 0.2183914 1.005454 -0.05518899 0.6045248 0.7946723 5.903862 0 0 0 1</matrix>
        <instance_light url="#Lamp_001-light"/>
      </node>
      <node id="Camera_001" name="Camera_001" type="NODE">
        <matrix sid="transform">0.6858805 -0.3173701 0.6548619 7.481132 0.7276338 0.3124686 -0.6106656 -6.50764 -0.01081675 0.8953432 0.4452454 5.343665 0 0 0 1</matrix>
        <instance_camera url="#Camera_001-camera"/>
      </node>
    </visual_scene>
  </library_visual_scenes>
  <scene>
    <instance_visual_scene url="#Scene"/>
  </scene>
</COLLADA>