
country_decisions = {
	rebuild_golden_highway_bulwar_proper = {
		major = yes
	
		potential = {
			any_owned_province = {
				province_group = golden_highway_bulwar_proper
			}
			golden_highway_bulwar_proper = {
				NOT = {
					has_province_modifier = golden_highway_construction_stalled
					has_province_modifier = golden_highway_under_construction
					has_province_modifier = golden_highway
				}
			}
		}
		
		allow = {
			golden_highway_bulwar_proper = {
				type = all
				owned_by = ROOT
			}
			treasury = 650
			adm_power = 200
		}
	
		effect = {
			add_treasury = -650
			add_adm_power = -200
			every_owned_province = {
				limit = { province_group = golden_highway_bulwar_proper }
				add_permanent_province_modifier = {
					name = golden_highway_under_construction
					duration = -1
				}
			}
		}
		
	}
	
	rebuild_golden_highway_far_bulwar = {
		major = yes
	
		potential = {
			any_owned_province = {
				province_group = golden_highway_far_bulwar
			}
			golden_highway_far_bulwar = {
				NOT = {
					has_province_modifier = golden_highway_construction_stalled
					has_province_modifier = golden_highway_under_construction
					has_province_modifier = golden_highway
				}
			}
		}
		
		allow = {
			golden_highway_far_bulwar = {
				type = all
				owned_by = ROOT
			}
			treasury = 650
			adm_power = 200
		}
	
		effect = {
			add_treasury = -650
			add_adm_power = -200
			every_owned_province = {
				limit = { province_group = golden_highway_far_bulwar }
				add_permanent_province_modifier = {
					name = golden_highway_under_construction
					duration = -1
				}
			}
		}
		
	}
	
	rebuild_golden_highway_far_salahad = {
		major = yes
	
		potential = {
			any_owned_province = {
				province_group = golden_highway_far_salahad
			}
			golden_highway_far_salahad = {
				NOT = {
					has_province_modifier = golden_highway_construction_stalled
					has_province_modifier = golden_highway_under_construction
					has_province_modifier = golden_highway
				}
			}
		}
		
		allow = {
			golden_highway_far_salahad = {
				type = all
				owned_by = ROOT
			}
			treasury = 350
			adm_power = 200
		}
	
		effect = {
			add_treasury = -350
			add_adm_power = -200
			every_owned_province = {
				limit = { province_group = golden_highway_far_salahad }
				add_permanent_province_modifier = {
					name = golden_highway_under_construction
					duration = -1
				}
			}
		}
		
	}
	
	golden_highway_pause_all_construction = {
		major = yes
		
		potential = {
			any_owned_province = {
				has_province_modifier = golden_highway_under_construction
			}
		}
		
		potential = {
			any_owned_province = {
				has_province_modifier = golden_highway_under_construction
			}
		}
		
		effect = {
			every_owned_province = {
				limit = { has_province_modifier = golden_highway_under_construction }
				remove_province_modifier = golden_highway_under_construction
				add_permanent_province_modifier = {
					name = golden_highway_construction_stalled
					duration = -1
				}
			}
		}
	}
	
	golden_highway_bulwar_proper_resume_construction = {
		major = yes
		
		potential = {
			any_owned_province = {
				has_province_modifier = golden_highway_construction_stalled
				province_group = golden_highway_bulwar_proper
			}
		}
		
		potential = {
			any_owned_province = {
				has_province_modifier = golden_highway_construction_stalled
				province_group = golden_highway_bulwar_proper
			}
		}
		
		effect = {
			every_owned_province = {
				limit = { has_province_modifier = golden_highway_construction_stalled province_group = golden_highway_bulwar_proper }
				remove_province_modifier = golden_highway_construction_stalled
				add_permanent_province_modifier = {
					name = golden_highway_under_construction
					duration = -1
				}
			}
			
			if = {
				limit = {
					num_of_owned_provinces_with = {
						value = 15
						has_province_modifier = golden_highway_construction_stalled
						province_group = golden_highway_bulwar_proper
					}
				}
				add_treasury = -750
			}
			else_if = {
				limit = {
					num_of_owned_provinces_with = {
						value = 14
						has_province_modifier = golden_highway_construction_stalled
						province_group = golden_highway_bulwar_proper
					}
				}
				add_treasury = -700
			}
			else_if = {
				limit = {
					num_of_owned_provinces_with = {
						value = 13
						has_province_modifier = golden_highway_construction_stalled
						province_group = golden_highway_bulwar_proper
					}
				}
				add_treasury = -650
			}
			else_if = {
				limit = {
					num_of_owned_provinces_with = {
						value = 12
						has_province_modifier = golden_highway_construction_stalled
						province_group = golden_highway_bulwar_proper
					}
				}
				add_treasury = -600
			}
			else_if = {
				limit = {
					num_of_owned_provinces_with = {
						value = 11
						has_province_modifier = golden_highway_construction_stalled
						province_group = golden_highway_bulwar_proper
					}
				}
				add_treasury = -550
			}
			else_if = {
				limit = {
					num_of_owned_provinces_with = {
						value = 10
						has_province_modifier = golden_highway_construction_stalled
						province_group = golden_highway_bulwar_proper
					}
				}
				add_treasury = -500
			}
			else_if = {
				limit = {
					num_of_owned_provinces_with = {
						value = 9
						has_province_modifier = golden_highway_construction_stalled
						province_group = golden_highway_bulwar_proper
					}
				}
				add_treasury = -450
			}
			else_if = {
				limit = {
					num_of_owned_provinces_with = {
						value = 8
						has_province_modifier = golden_highway_construction_stalled
						province_group = golden_highway_bulwar_proper
					}
				}
				add_treasury = -400
			}
			else_if = {
				limit = {
					num_of_owned_provinces_with = {
						value = 7
						has_province_modifier = golden_highway_construction_stalled
						province_group = golden_highway_bulwar_proper
					}
				}
				add_treasury = -350
			}
			else_if = {
				limit = {
					num_of_owned_provinces_with = {
						value = 6
						has_province_modifier = golden_highway_construction_stalled
						province_group = golden_highway_bulwar_proper
					}
				}
				add_treasury = -300
			}
			else_if = {
				limit = {
					num_of_owned_provinces_with = {
						value = 5
						has_province_modifier = golden_highway_construction_stalled
						province_group = golden_highway_bulwar_proper
					}
				}
				add_treasury = -250
			}
			else_if = {
				limit = {
					num_of_owned_provinces_with = {
						value = 4
						has_province_modifier = golden_highway_construction_stalled
						province_group = golden_highway_bulwar_proper
					}
				}
				add_treasury = -200
			}
			else_if = {
				limit = {
					num_of_owned_provinces_with = {
						value = 3
						has_province_modifier = golden_highway_construction_stalled
						province_group = golden_highway_bulwar_proper
					}
				}
				add_treasury = -150
			}
			else_if = {
				limit = {
					num_of_owned_provinces_with = {
						value = 2
						has_province_modifier = golden_highway_construction_stalled
						province_group = golden_highway_bulwar_proper
					}
				}
				add_treasury = -100
			}
			else_if = {
				limit = {
					num_of_owned_provinces_with = {
						value = 1
						has_province_modifier = golden_highway_construction_stalled
						province_group = golden_highway_bulwar_proper
					}
				}
				add_treasury = -50
			}
		}
	}
	
	golden_highway_far_bulwar_resume_construction = {
		major = yes
		
		potential = {
			any_owned_province = {
				has_province_modifier = golden_highway_construction_stalled
				province_group = golden_highway_far_bulwar
			}
		}
		
		potential = {
			any_owned_province = {
				has_province_modifier = golden_highway_construction_stalled
				province_group = golden_highway_far_bulwar
			}
		}
		
		effect = {
			every_owned_province = {
				limit = { has_province_modifier = golden_highway_construction_stalled province_group = golden_highway_far_bulwar }
				remove_province_modifier = golden_highway_construction_stalled
				add_permanent_province_modifier = {
					name = golden_highway_under_construction
					duration = -1
				}
			}
			
			if = {
				limit = {
					num_of_owned_provinces_with = {
						value = 15
						has_province_modifier = golden_highway_construction_stalled
						province_group = golden_highway_far_bulwar
					}
				}
				add_treasury = -750
			}
			else_if = {
				limit = {
					num_of_owned_provinces_with = {
						value = 14
						has_province_modifier = golden_highway_construction_stalled
						province_group = golden_highway_far_bulwar
					}
				}
				add_treasury = -700
			}
			else_if = {
				limit = {
					num_of_owned_provinces_with = {
						value = 13
						has_province_modifier = golden_highway_construction_stalled
						province_group = golden_highway_far_bulwar
					}
				}
				add_treasury = -650
			}
			else_if = {
				limit = {
					num_of_owned_provinces_with = {
						value = 12
						has_province_modifier = golden_highway_construction_stalled
						province_group = golden_highway_far_bulwar
					}
				}
				add_treasury = -600
			}
			else_if = {
				limit = {
					num_of_owned_provinces_with = {
						value = 11
						has_province_modifier = golden_highway_construction_stalled
						province_group = golden_highway_far_bulwar
					}
				}
				add_treasury = -550
			}
			else_if = {
				limit = {
					num_of_owned_provinces_with = {
						value = 10
						has_province_modifier = golden_highway_construction_stalled
						province_group = golden_highway_far_bulwar
					}
				}
				add_treasury = -500
			}
			else_if = {
				limit = {
					num_of_owned_provinces_with = {
						value = 9
						has_province_modifier = golden_highway_construction_stalled
						province_group = golden_highway_far_bulwar
					}
				}
				add_treasury = -450
			}
			else_if = {
				limit = {
					num_of_owned_provinces_with = {
						value = 8
						has_province_modifier = golden_highway_construction_stalled
						province_group = golden_highway_far_bulwar
					}
				}
				add_treasury = -400
			}
			else_if = {
				limit = {
					num_of_owned_provinces_with = {
						value = 7
						has_province_modifier = golden_highway_construction_stalled
						province_group = golden_highway_far_bulwar
					}
				}
				add_treasury = -350
			}
			else_if = {
				limit = {
					num_of_owned_provinces_with = {
						value = 6
						has_province_modifier = golden_highway_construction_stalled
						province_group = golden_highway_far_bulwar
					}
				}
				add_treasury = -300
			}
			else_if = {
				limit = {
					num_of_owned_provinces_with = {
						value = 5
						has_province_modifier = golden_highway_construction_stalled
						province_group = golden_highway_far_bulwar
					}
				}
				add_treasury = -250
			}
			else_if = {
				limit = {
					num_of_owned_provinces_with = {
						value = 4
						has_province_modifier = golden_highway_construction_stalled
						province_group = golden_highway_far_bulwar
					}
				}
				add_treasury = -200
			}
			else_if = {
				limit = {
					num_of_owned_provinces_with = {
						value = 3
						has_province_modifier = golden_highway_construction_stalled
						province_group = golden_highway_far_bulwar
					}
				}
				add_treasury = -150
			}
			else_if = {
				limit = {
					num_of_owned_provinces_with = {
						value = 2
						has_province_modifier = golden_highway_construction_stalled
						province_group = golden_highway_far_bulwar
					}
				}
				add_treasury = -100
			}
			else_if = {
				limit = {
					num_of_owned_provinces_with = {
						value = 1
						has_province_modifier = golden_highway_construction_stalled
						province_group = golden_highway_far_bulwar
					}
				}
				add_treasury = -50
			}
		}
	}
	
	golden_highway_far_salahad_resume_construction = {
		major = yes
		
		potential = {
			any_owned_province = {
				has_province_modifier = golden_highway_construction_stalled
				province_group = golden_highway_far_salahad
			}
		}
		
		potential = {
			any_owned_province = {
				has_province_modifier = golden_highway_construction_stalled
				province_group = golden_highway_far_salahad
			}
		}
		
		effect = {
			every_owned_province = {
				limit = { has_province_modifier = golden_highway_construction_stalled province_group = golden_highway_far_salahad }
				remove_province_modifier = golden_highway_construction_stalled
				add_permanent_province_modifier = {
					name = golden_highway_under_construction
					duration = -1
				}
			}
			
			if = {
				limit = {
					num_of_owned_provinces_with = {
						value = 15
						has_province_modifier = golden_highway_construction_stalled
						province_group = golden_highway_far_salahad
					}
				}
				add_treasury = -750
			}
			else_if = {
				limit = {
					num_of_owned_provinces_with = {
						value = 14
						has_province_modifier = golden_highway_construction_stalled
						province_group = golden_highway_far_salahad
					}
				}
				add_treasury = -700
			}
			else_if = {
				limit = {
					num_of_owned_provinces_with = {
						value = 13
						has_province_modifier = golden_highway_construction_stalled
						province_group = golden_highway_far_salahad
					}
				}
				add_treasury = -650
			}
			else_if = {
				limit = {
					num_of_owned_provinces_with = {
						value = 12
						has_province_modifier = golden_highway_construction_stalled
						province_group = golden_highway_far_salahad
					}
				}
				add_treasury = -600
			}
			else_if = {
				limit = {
					num_of_owned_provinces_with = {
						value = 11
						has_province_modifier = golden_highway_construction_stalled
						province_group = golden_highway_far_salahad
					}
				}
				add_treasury = -550
			}
			else_if = {
				limit = {
					num_of_owned_provinces_with = {
						value = 10
						has_province_modifier = golden_highway_construction_stalled
						province_group = golden_highway_far_salahad
					}
				}
				add_treasury = -500
			}
			else_if = {
				limit = {
					num_of_owned_provinces_with = {
						value = 9
						has_province_modifier = golden_highway_construction_stalled
						province_group = golden_highway_far_salahad
					}
				}
				add_treasury = -450
			}
			else_if = {
				limit = {
					num_of_owned_provinces_with = {
						value = 8
						has_province_modifier = golden_highway_construction_stalled
						province_group = golden_highway_far_salahad
					}
				}
				add_treasury = -400
			}
			else_if = {
				limit = {
					num_of_owned_provinces_with = {
						value = 7
						has_province_modifier = golden_highway_construction_stalled
						province_group = golden_highway_far_salahad
					}
				}
				add_treasury = -350
			}
			else_if = {
				limit = {
					num_of_owned_provinces_with = {
						value = 6
						has_province_modifier = golden_highway_construction_stalled
						province_group = golden_highway_far_salahad
					}
				}
				add_treasury = -300
			}
			else_if = {
				limit = {
					num_of_owned_provinces_with = {
						value = 5
						has_province_modifier = golden_highway_construction_stalled
						province_group = golden_highway_far_salahad
					}
				}
				add_treasury = -250
			}
			else_if = {
				limit = {
					num_of_owned_provinces_with = {
						value = 4
						has_province_modifier = golden_highway_construction_stalled
						province_group = golden_highway_far_salahad
					}
				}
				add_treasury = -200
			}
			else_if = {
				limit = {
					num_of_owned_provinces_with = {
						value = 3
						has_province_modifier = golden_highway_construction_stalled
						province_group = golden_highway_far_salahad
					}
				}
				add_treasury = -150
			}
			else_if = {
				limit = {
					num_of_owned_provinces_with = {
						value = 2
						has_province_modifier = golden_highway_construction_stalled
						province_group = golden_highway_far_salahad
					}
				}
				add_treasury = -100
			}
			else_if = {
				limit = {
					num_of_owned_provinces_with = {
						value = 1
						has_province_modifier = golden_highway_construction_stalled
						province_group = golden_highway_far_salahad
					}
				}
				add_treasury = -50
			}
		}
	}
}
