namespace = diggy
### Events to dig
#Done
country_event = {
	id = diggy.1
	title = diggy.1.t
	desc = diggy.1.d
	picture = INCA_CITY_eventPicture
	
	mean_time_to_happen = {
		years = 15
		
		modifier = {
			factor = 0.9
			has_country_modifier = dig_manpower
		}
		modifier = {
			factor = 0.9
			has_country_modifier = dig_prod
		}
		modifier = {
			factor = 0.8
			has_country_modifier = dig_explosive
		}
		modifier = {
			factor = 0.9
			capital_scope = { province_id = 4119 } #Amldhir
		}
		
		modifier = {
			factor = 0.95
			capital_scope = { province_id = 4311 } #Gronstunad
		}
		
		modifier = {
			factor = 0.9
			has_country_modifier = how_to_dig
		}
		
		modifier = {
			factor = 1.1
			has_country_flag = dig_culture
		}
		
		modifier = {
			factor = 0.8
			has_country_modifier = dig_through
		}
		
		modifier = {
			factor = 0.9
			has_country_modifier = remnant_dig
		}
		
		modifier = {
			factor = 1.2
			has_country_modifier = not_dig_through
		}
		modifier = {
			factor = 0.8
			capital_scope = {
				has_terrain = dwarven_hold #It's faster to dig in inner hold in serpentspine
				continent = serpentspine
			}
		}
		modifier = {
			factor = 0.95
			capital_scope = {
				has_province_modifier = easy_rock
			}
		}
		
		modifier = {
			factor = 1.2
			capital_scope = {
				has_province_modifier = orc_hold_barrack
			}
		}
		
		modifier = {
			factor = 1.2
			capital_scope = {
				has_province_modifier = orc_hold_raider
			}
		}
		
		modifier = {
			factor = 1.2
			capital_scope = {
				has_province_modifier = orc_hold_arena
			}
		}
		
		modifier = {
			factor = 0.01
			capital_scope = {
				had_province_flag = {
					flag = dig_capital
					days = 14600
				}
			}
		}
		
		modifier = {
			factor = 100
			NOT = {
				capital_scope = {
					had_province_flag = {
						flag = dig_capital
						days = 2920
					}
				}
			}
		}
		
		modifier = {
			factor = 1.5
			NOT = { has_country_modifier = dwarven_administration }
		}
	}
	
	trigger = {
		has_country_flag = is_digging
		capital_scope = {
			OR = {
				has_terrain = dwarven_hold
				has_terrain = dwarven_hold_surface
			}
			OR = {
				has_province_modifier = dig_1
				has_province_modifier = dig_2
				has_province_modifier = dig_3
				has_province_modifier = dig_4
				has_province_modifier = dig_5
				has_province_modifier = dig_6
				has_province_modifier = dig_7
				has_province_modifier = dig_8
				has_province_modifier = dig_9
				AND = {
					has_province_modifier = dig_10
					OR = {
						province_id = 4119
						province_id = 4311
					}
				}
			}
		}
	}
	
	option = {
        name = diggy.1.a
        ai_chance = { factor = 100 }
		
		if = {
			limit = { capital_scope = { has_province_modifier = dig_1 } }
			capital_scope = {
				add_permanent_province_modifier = {
					name = dig_2
					duration = -1
				}
				hidden_effect = { remove_province_modifier = dig_1 }
			}
		}
		else_if = {
			limit = { capital_scope = { has_province_modifier = dig_2 } }
			capital_scope = {
				add_permanent_province_modifier = {
					name = dig_3
					duration = -1
				}
				hidden_effect = { remove_province_modifier = dig_2 }
			}
		}
		else_if = {
			limit = { capital_scope = { has_province_modifier = dig_3 } }
			capital_scope = {
				add_permanent_province_modifier = {
					name = dig_4
					duration = -1
				}
				hidden_effect = { remove_province_modifier = dig_3 }
			}
		}
		else_if = {
			limit = { capital_scope = { has_province_modifier = dig_4 } }
			capital_scope = {
				add_permanent_province_modifier = {
					name = dig_5
					duration = -1
				}
				hidden_effect = { remove_province_modifier = dig_4 }
			}
		}
		else_if = {
			limit = { capital_scope = { has_province_modifier = dig_5 } }
			capital_scope = {
				add_permanent_province_modifier = {
					name = dig_6
					duration = -1
				}
				hidden_effect = { remove_province_modifier = dig_5 }
			}
		}
		else_if = {
			limit = { capital_scope = { has_province_modifier = dig_6 } }
			capital_scope = {
				add_permanent_province_modifier = {
					name = dig_7
					duration = -1
				}
				hidden_effect = { remove_province_modifier = dig_6 }
			}
		}
		else_if = {
			limit = { capital_scope = { has_province_modifier = dig_7 } }
			capital_scope = {
				add_permanent_province_modifier = {
					name = dig_8
					duration = -1
				}
				hidden_effect = { remove_province_modifier = dig_7 }
			}
		}
		else_if = {
			limit = { capital_scope = { has_province_modifier = dig_8 } }
			capital_scope = {
				add_permanent_province_modifier = {
					name = dig_9
					duration = -1
				}
				hidden_effect = { remove_province_modifier = dig_8 }
			}
		}
		else_if = {
			limit = { capital_scope = { has_province_modifier = dig_9 } }
			capital_scope = {
				add_permanent_province_modifier = {
					name = dig_10
					duration = -1
				}
				hidden_effect = { remove_province_modifier = dig_9 }
			}
		}
		else_if = {
			limit = { capital_scope = { has_province_modifier = dig_10 } }
			capital_scope = {
				add_permanent_province_modifier = {
					name = dig_11
					duration = -1
				}
				hidden_effect = { remove_province_modifier = dig_10 }
			}
		}
		hidden_effect = {
			clr_country_flag = is_digging
			clr_country_flag = dig_prod
			clr_country_flag = dig_manpower
			clr_country_flag = dig_culture
			clr_country_flag = dig_explosive
		}
		remove_country_modifier = dig_prod
		remove_country_modifier = dig_manpower
		remove_country_modifier = dig_explosive
		capital_scope = { 
			remove_province_modifier = dig_deeper
			remove_province_modifier = dig_deeper_ai
			hidden_effect = { clr_province_flag = dig_capital }
		}
	}
}

##Event dig production
country_event = {
	id = diggy.2
	title = diggy.2.t
	desc = diggy.2.d
	picture = CITY_DEVELOPMENT_eventPicture
	
	mean_time_to_happen = {
		years = 10
	}
	
	trigger = {
		has_country_flag = is_digging
		NOT = { has_country_flag = dig_prod }
	}
	
	immediate = {
		set_country_flag = dig_prod
	}
	
	option = {
        name = diggy.2.a
        ai_chance = { factor = 100 }
		add_adm_power = -50
		add_country_modifier = {
			name = dig_prod
			duration = -1
		}
	}
	
	option = {
		name = diggy.2.b
		ai_chance = { factor = 100 }
	}
}

##Do Cultural shit while dig
country_event = {
	id = diggy.3
	title = diggy.3.t
	desc = diggy.3.d
	picture = GOLDEN_CITY_eventPicture
	
	mean_time_to_happen = {
		years = 8
	}
	
	trigger = {
		has_country_flag = is_digging
		NOT = { has_country_flag = dig_culture }
	}
	
	immediate = {
		set_country_flag = dig_culture
	}
	
	option = {
        name = diggy.3.a
        ai_chance = { factor = 90 }
		add_adm_power = -80
		add_dip_power = -35
		add_mil_power = -25
		add_prestige = 20
		random = {
			chance = 30
			add_stability = 1
		}
	}
	
	option = {
		name = diggy.3.b
		ai_chance = { factor = 10 }
		add_prestige = -15
		random = {
			chance = 15
			add_stability = -1
		}
		random = {
			chance = 5
			add_country_modifier = {
				name = dig_not_culture
				duration = 1460
			}
		}
	}
}

##Use the army
country_event = {
	id = diggy.4
	title = diggy.4.t
	desc = diggy.4.d
	picture = CONQUEST__eventPicture
	
	mean_time_to_happen = {
		years = 10
	}
	
	trigger = {
		has_country_flag = is_digging
		NOT = { has_country_flag = dig_manpower }
	}
	
	immediate = {
		set_country_flag = dig_manpower
	}
	
	option = {
        name = diggy.4.a
        ai_chance = { factor = 100 }
		add_mil_power = -50
		add_country_modifier = {
			name = dig_manpower
			duration = -1
		}
	}
	
	option = {
		name = diggy.4.b
		ai_chance = { factor = 100 }
	}
}

### Dig through rock
#Apatite 5Mohs
country_event = {
	id = diggy.5
	title = diggy.5.t
	desc = diggy.5.d
	picture = FORT_eventPicture
	
	mean_time_to_happen = {
		years = 5
	}
	
	trigger = {
		has_country_flag = is_digging
		NOT = { has_country_flag = dig_apatite }
		capital_scope = {
			OR = {
				has_province_modifier = dig_3
				has_province_modifier = dig_4
				has_province_modifier = dig_5
				has_province_modifier = dig_6
				has_province_modifier = dig_7
				has_province_modifier = dig_8
				has_province_modifier = dig_9
			}
		}
	}
	
	immediate = {
		set_country_flag = dig_apatite
	}
	#Dig through
	option = {
        name = diggy.5.a
        ai_chance = { factor = 100 }
		custom_tooltip = dig_through_tooltip
		add_adm_power = -50
		if = {
			limit = { ai = no }
			add_years_of_income = -0.5
		}
		hidden_effect = {
			set_country_flag = dig_through
			clr_country_flag = not_dig_through
		}
	}
	#Make detour
	option = {
		name = diggy.5.b
		ai_chance = { factor = 0 }
		custom_tooltip = not_dig_through_tooltip
		add_stability = 1
		hidden_effect = {
			set_country_flag = not_dig_through
			clr_country_flag = dig_through
		}
	}
}

#orthoclase 6Mohs
country_event = {
	id = diggy.6
	title = diggy.6.t
	desc = diggy.6.d
	picture = FORT_eventPicture
	
	mean_time_to_happen = {
		years = 5
	}
	
	trigger = {
		has_country_flag = is_digging
		has_country_flag = dig_apatite
		NOT = { has_country_flag = dig_ortho }
		capital_scope = {
			OR = {
				has_province_modifier = dig_4
				has_province_modifier = dig_5
				has_province_modifier = dig_6
				has_province_modifier = dig_7
				has_province_modifier = dig_8
				has_province_modifier = dig_9
			}
		}
	}
	
	immediate = {
		set_country_flag = dig_ortho
	}
	#Dig through
	option = {
        name = diggy.6.a
        ai_chance = { factor = 100 }
		custom_tooltip = dig_through_tooltip
		add_adm_power = -50
		if = {
			limit = { ai = no }
			add_years_of_income = -1.5
		}
		hidden_effect = {
			set_country_flag = dig_through
			clr_country_flag = not_dig_through
		}
	}
	#Make detour
	option = {
		name = diggy.6.b
		ai_chance = { factor = 0 }
		custom_tooltip = not_dig_through_tooltip
		add_stability = 1
		hidden_effect = {
			set_country_flag = not_dig_through
			clr_country_flag = dig_through
		}
	}
}

#(iron) Pyrite 6-7Mohs
country_event = {
	id = diggy.7
	title = diggy.7.t
	desc = diggy.7.d
	picture = ARTWORK_eventPicture
	
	mean_time_to_happen = {
		years = 5
	}
	
	trigger = {
		has_country_flag = is_digging
		has_country_flag = dig_ortho
		NOT = { has_country_flag = dig_pyrite }
		capital_scope = {
			OR = {
				has_province_modifier = dig_6
				has_province_modifier = dig_7
				has_province_modifier = dig_8
				has_province_modifier = dig_9
			}
		}
	}
	
	immediate = {
		set_country_flag = dig_pyrite
	}
	#Dig through
	option = {
        name = diggy.7.a
        ai_chance = { factor = 100 }
		custom_tooltip = dig_through_tooltip
		add_adm_power = -50
		if = {
			limit = { ai = no }
			add_years_of_income = -2.5
		}
		hidden_effect = {
			set_country_flag = dig_through
			clr_country_flag = not_dig_through
		}
	}
	#Make detour
	option = {
		name = diggy.7.b
		ai_chance = { factor = 0 }
		custom_tooltip = not_dig_through_tooltip
		add_stability = 1
		hidden_effect = {
			set_country_flag = not_dig_through
			clr_country_flag = dig_through
		}
	}
}

#Spinel 7.5-8Mohs
country_event = {
	id = diggy.8
	title = diggy.8.t
	desc = diggy.8.d
	picture = FORT_eventPicture
	
	mean_time_to_happen = {
		years = 5
	}
	
	trigger = {
		has_country_flag = is_digging
		has_country_flag = dig_pyrite
		NOT = { has_country_flag = dig_spinel }
		capital_scope = {
			OR = {
				has_province_modifier = dig_7
				has_province_modifier = dig_8
				has_province_modifier = dig_9
			}
		}
	}
	
	immediate = {
		set_country_flag = dig_spinel
	}
	#Dig through
	option = {
        name = diggy.8.a
        ai_chance = { factor = 100 }
		custom_tooltip = dig_through_tooltip
		add_adm_power = -50
		if = {
			limit = { ai = no }
			add_years_of_income = -3.75
		}
		hidden_effect = {
			set_country_flag = dig_through
			clr_country_flag = not_dig_through
		}
	}
	#Make detour
	option = {
		name = diggy.8.b
		ai_chance = { factor = 0 }
		custom_tooltip = not_dig_through_tooltip
		add_stability = 1
		hidden_effect = {
			set_country_flag = not_dig_through
			clr_country_flag = dig_through
		}
	}
}

#Corundum 9Mohs
country_event = {
	id = diggy.9
	title = diggy.9.t
	desc = diggy.9.d
	picture = FORT_eventPicture
	
	mean_time_to_happen = {
		years = 5
	}
	
	trigger = {
		has_country_flag = is_digging
		has_country_flag = dig_spinel
		NOT = { has_country_flag = dig_corundum }
		capital_scope = {
			OR = {
				has_province_modifier = dig_8
				has_province_modifier = dig_9
			}
		}
	}
	
	immediate = {
		set_country_flag = dig_corundum
	}
	#Dig through
	option = {
        name = diggy.9.a
        ai_chance = { factor = 100 }
		custom_tooltip = dig_through_tooltip
		add_adm_power = -50
		if = {
			limit = { ai = no }
			add_years_of_income = -4
		}
		hidden_effect = {
			set_country_flag = dig_through
			clr_country_flag = not_dig_through
		}
	}
	#Make detour
	option = {
		name = diggy.9.b
		ai_chance = { factor = 0 }
		custom_tooltip = not_dig_through_tooltip
		add_stability = 1
		hidden_effect = {
			set_country_flag = not_dig_through
			clr_country_flag = dig_through
		}
	}
}

#Carbonado 10Mohs
country_event = {
	id = diggy.10
	title = diggy.10.t
	desc = diggy.10.d
	picture = FORT_eventPicture
	
	mean_time_to_happen = {
		years = 5
	}
	
	trigger = {
		has_country_flag = is_digging
		has_country_flag = dig_corundum
		NOT = { has_country_flag = dig_carbonado }
		capital_scope = {
			OR = {
				has_province_modifier = dig_9
				has_province_modifier = dig_10
			}
		}
	}
	
	immediate = {
		set_country_flag = dig_carbonado
	}
	#Dig through
	option = {
        name = diggy.10.a
        ai_chance = { factor = 100 }
		custom_tooltip = dig_through_tooltip
		add_adm_power = -50
		if = {
			limit = { ai = no }
			add_years_of_income = -5
		}
		hidden_effect = {
			set_country_flag = dig_through
			clr_country_flag = not_dig_through
		}
	}
	#Make detour
	option = {
		name = diggy.10.b
		ai_chance = { factor = 0 }
		custom_tooltip = not_dig_through_tooltip
		add_stability = 1
		hidden_effect = {
			set_country_flag = not_dig_through
			clr_country_flag = dig_through
		}
	}
}

#Using explosive
country_event = {
	id = diggy.11
	title = diggy.11.t
	desc = diggy.11.d
	picture = SIERRA_DE_LA_PLATA
	
	mean_time_to_happen = {
		years = 10
	}
	
	trigger = {
		has_country_flag = is_digging
		is_year = 1500
		NOT = { has_country_flag = dig_explosive }
	}
	
	immediate = {
		set_country_flag = dig_explosive
	}
	option = {
        name = diggy.11.a
        ai_chance = { factor = 100 }
		add_adm_power = -35
		add_dip_power = -15
		add_country_modifier = {
			name = dig_explosive
			duration = -1
		}
	}
	
	option = {
		name = diggy.11.b
		ai_chance = { factor = 100 }
	}
}

### Hold Restoration
province_event = {
	id = diggy.12
	title = diggy.12.t
	desc = diggy.12.d
	picture = BUDDHISM_MONASTERY_eventPicture
	
	mean_time_to_happen = {
		years = 15
		
		modifier = {
			factor = 0.9
			has_coexisting_dwarven_pop_trigger = yes
		}
		
		modifier = {
			factor = 0.8
			has_integrated_dwarven_pop_trigger = yes
		}
		modifier = {
			factor = 0.5
			is_capital = yes
		}
		
		modifier = {
			factor = 0.2
			owner = { NOT = { num_of_cities = 2 } }
		}
		
		modifier = {
			factor = 1.2
			has_province_modifier = ruined_hold
		}
		
		modifier = {
			factor = 0.8
			has_province_modifier = partially_ruined_hold
		}
		
		modifier = {
			factor = 0.6
			has_province_modifier = damaged_hold
		}
		
		modifier = {
			factor = 0.01
			had_province_flag = {
				flag = being_restored
				days = 9125
			}
		}
	}
	
	trigger = {
		has_province_modifier = hold_being_restored
	}
	
	option = {
        name = diggy.12.a
        ai_chance = { factor = 100 }
		add_prestige = 15
		custom_tooltip = hold_restored_tooltip
		hidden_effect = {
			remove_province_modifier = damaged_hold
			remove_province_modifier = partially_ruined_hold
			remove_province_modifier = hold_being_restored
			clr_province_flag = being_restored
			if = {
				limit = { 
					development = 3
					NOT = { development = 30 }
					has_province_modifier = ruined_hold
				}
				random_list = {
					66 = {
						add_permanent_province_modifier = {
							name = dig_1
							duration = -1
						}
					}
					33 = {
						add_permanent_province_modifier = {
							name = dig_2
							duration = -1
						}
					}
				}
				remove_province_modifier = ruined_hold
				remove_province_modifier = partially_ruined_hold
				remove_province_modifier = damaged_hold
				remove_province_modifier = hold_being_restored
				clr_province_flag = being_restored
			}
			else_if = {
				limit = { 
					development = 30
					NOT = { development = 60 }
					has_province_modifier = ruined_hold
				}
				random_list = {
					50 = {
						add_permanent_province_modifier = {
							name = dig_2
							duration = -1
						}
					}
					30 = {
						add_permanent_province_modifier = {
							name = dig_3
							duration = -1
						}
					}
					20 = {
						add_permanent_province_modifier = {
							name = dig_4
							duration = -1
						}
					}
				}
				remove_province_modifier = ruined_hold
				remove_province_modifier = partially_ruined_hold
				remove_province_modifier = damaged_hold
				remove_province_modifier = hold_being_restored
				clr_province_flag = being_restored
			}
			else_if = {
				limit = { 
					development = 60
					NOT = { development = 90 }
					has_province_modifier = ruined_hold
				}
				random_list = {
					50 = {
						add_permanent_province_modifier = {
							name = dig_4
							duration = -1
						}
					}
					30 = {
						add_permanent_province_modifier = {
							name = dig_5
							duration = -1
						}
					}
					20 = {
						add_permanent_province_modifier = {
							name = dig_6
							duration = -1
						}
					}
				}
				remove_province_modifier = ruined_hold
				remove_province_modifier = partially_ruined_hold
				remove_province_modifier = damaged_hold
				remove_province_modifier = hold_being_restored
				clr_province_flag = being_restored
			}
			else_if = {
				limit = { 
					development = 90
					has_province_modifier = ruined_hold
				}
				random_list = {
					50 = {
						add_permanent_province_modifier = {
							name = dig_6
							duration = -1
						}
					}
					30 = {
						add_permanent_province_modifier = {
							name = dig_7
							duration = -1
						}
					}
					20 = {
						add_permanent_province_modifier = {
							name = dig_8
							duration = -1
						}
					}
				}
				remove_province_modifier = ruined_hold
				remove_province_modifier = partially_ruined_hold
				remove_province_modifier = damaged_hold
				remove_province_modifier = hold_being_restored
				clr_province_flag = being_restored
			}
		}
	}
}

#Capturing a Hold
province_event = {
	id = diggy.13
	title = diggy.13.t
	desc = diggy.13.d
	picture = FEMALE_GENERAL_eventPicture
	
	is_triggered_only = yes
	
	trigger = {
		OR = {
			has_terrain = dwarven_hold
			has_terrain = dwarven_hold_surface
		}
		NOT = { has_province_modifier = ruined_hold }
		NOT = { has_province_modifier = infested_hold }
		NOT = { has_province_modifier = fallen_great_excavation }
		NOT = { ROOT = { owned_by = FROM } }
	}
	
	immediate = {
		remove_province_modifier = hold_being_restored
	}
	
	option = {
        name = diggy.13.a
        ai_chance = { factor = 100 }
		add_devastation = 20
		if = {
			limit = { has_province_modifier = partially_ruined_hold }
			remove_province_modifier = dig_1
			remove_province_modifier = dig_2
			remove_province_modifier = dig_3
			remove_province_modifier = dig_4
			remove_province_modifier = dig_5
			remove_province_modifier = dig_6
			remove_province_modifier = dig_7
			remove_province_modifier = dig_8
			remove_province_modifier = dig_9
			remove_province_modifier = dig_10
			remove_province_modifier = dig_11
			remove_province_modifier = partially_ruined_hold
			add_permanent_province_modifier = {
				name = ruined_hold
				duration = -1
			}
			add_base_production = -3
			add_base_manpower = -3
			add_base_tax = -3
		}
		else_if = {
			limit = { has_province_modifier = damaged_hold }
			remove_province_modifier = damaged_hold
			add_permanent_province_modifier = {
				name = partially_ruined_hold
				duration = -1
			}
			add_base_production = -2
			add_base_manpower = -2
			add_base_tax = -2
		}
		else = {
			add_permanent_province_modifier = {
				name = damaged_hold
				duration = -1
			}
			add_base_production = -1
			add_base_manpower = -1
			add_base_tax = -1
		}
	}
}

###Flavours Events
#Gaz an explosion
country_event = {
	id = diggy.14
	title = diggy.14.t
	desc = diggy.14.d
	picture = VILLAGE_BURNING_eventPicture
	
	mean_time_to_happen = {
		years = 12.5
		
		modifier = {
			factor = 0.5
			NOT = { has_country_modifier = dwarven_administration }
		}
	}
	
	trigger = {
		has_country_modifier = dig_explosive
		has_country_flag = is_digging
	}
	
	option = {
        name = diggy.14.a
        ai_chance = { factor = 100 }
		custom_tooltip = gaz_explosion_tooltip
		capital_scope = {
			add_base_manpower = -1
			add_base_production = -1
			add_base_tax = -1
			random = {
				chance = 50
				
				add_base_manpower = -1
				add_base_production = -1
				add_base_tax = -1
			}
			
			random = {
				chance = 5
				
				add_base_manpower = -1
				add_base_production = -1
				add_base_tax = -1
			}
		}
	}
}
##Lead to Goblin Tide disaster, found treasure
country_event = {
	id = diggy.15
	title = diggy.15.t
	desc = diggy.15.d
	picture = COPTIC_MONASTERY_eventPicture
	
	mean_time_to_happen = {
		years = 70
		
		modifier = {
			factor = 0.9
			
			capital_scope = { has_province_modifier = dig_5 }
		}
		
		modifier = {
			factor = 0.8
			
			capital_scope = { has_province_modifier = dig_6 }
		}
		
		modifier = {
			factor = 0.7
			
			capital_scope = { has_province_modifier = dig_7 }
		}
		
		modifier = {
			factor = 0.6
			
			capital_scope = { has_province_modifier = dig_8 }
		}
		
		modifier = {
			factor = 0.5
			
			capital_scope = { has_province_modifier = dig_9 }
		}
		
		modifier = {
			factor = 0.4
			
			capital_scope = { has_province_modifier = dig_10 }
		}
	}
	
	trigger = {
		has_country_flag = is_digging
		capital_scope = {
			continent = serpentspine
		}
		NOT = { has_country_flag = fallen_treasure }
	}
	
	#Sell it
	option = {
        name = diggy.15.a
        ai_chance = { factor = 50 }
		add_years_of_income = 1
		hidden_effect = {
			random = { chance = 30 set_country_flag = fallen_treasure }
		}
	}
	#Create museum
	option = {
        name = diggy.15.b
        ai_chance = { factor = 30 }
		add_prestige = 30
		hidden_effect = {
			random = { chance = 30 set_country_flag = fallen_treasure }
		}
	}
	#dig deeper in this region
	option = {
        name = diggy.15.c
        ai_chance = { factor = 15 }
		add_years_of_income = 0.5
		add_prestige = 15
		hidden_effect = { set_country_flag = fallen_treasure }
	}
	#Do nothing
	option = {
        name = diggy.15.e
        ai_chance = { factor = 5 }
		add_legitimacy = 5
		add_prestige = -10
	}
}

#Discover old Hold
country_event = {
	id = diggy.16
	title = diggy.16.t
	desc = diggy.16.d
	picture = URBANISATION_INCIDENT_eventPicture
	
	mean_time_to_happen = {
		years = 30
		modifier = {
			factor = 1.5
			
			ai = yes
		}
	}
	
	trigger = {
		has_country_flag = fallen_treasure
		NOT = { capital_scope = { has_province_modifier = old_hold } }
	}
	
	#Such a great discovery, we need to explore it
	option = {
        name = diggy.16.a
        ai_chance = { factor = 90 }
		add_prestige = 50
		add_legitimacy = 10
		capital_scope = {
			add_permanent_province_modifier = {
				name = old_hold
				duration = -1
			}
		}
	}
	#Seal it, i don't want to hear about it ever again.
	option = {
		name = diggy.16.b
        ai_chance = { factor = 10 }
		highlight = yes
		trigger = { ruler_age = 150 }
		add_prestige = -10
		random = {
			chance = 75
			add_stability = -1
		}
		hidden_effect = { clr_country_flag = fallen_treasure }
	}
}

#Cave Collapse
country_event = {
	id = diggy.17
	title = diggy.17.t
	desc = diggy.17.d
	picture = BANKRUPTCY_eventPicture
	
	mean_time_to_happen = {
		years = 20
		
		modifier = {
			factor = 0.70
			NOT = { has_country_modifier = dwarven_administration }
		}
	}
	
	trigger = {
		has_country_flag = is_digging
	}
	
	option = {
        name = diggy.17.a
        ai_chance = { factor = 90 }
		add_prestige = -5
		capital_scope = {
			random = {
				chance = 50
				add_base_manpower = -1
			}
			random = {
				chance = 50
				add_base_tax = -1
			}
			random = {
				chance = 50
				add_base_production = -1
			}
		}
	}
}
##Easily diggable rock
country_event = {
	id = diggy.18
	title = diggy.18.t
	desc = diggy.18.d
	picture = ARTWORK_eventPicture
	
	mean_time_to_happen = {
		years = 20
	}
	
	trigger = {
		has_country_flag = is_digging
		NOT = { capital_scope = { has_province_modifier = easy_rock } }
		NOT = { capital_scope = { has_province_modifier = hard_rock } }
	}
	
	option = {
        name = diggy.18.a
        ai_chance = { factor = 100 }
		capital_scope = {
			add_province_modifier = {
				name = easy_rock
				duration = 1800
			}
		}
	}
}

##Hard rock to dig
country_event = {
	id = diggy.19
	title = diggy.19.t
	desc = diggy.19.d
	picture = ARTWORK_eventPicture
	
	mean_time_to_happen = {
		years = 30
		
		modifier = {
			factor = 0.5
			NOT = { has_country_modifier = dwarven_administration }
		}
	}
	
	trigger = {
		has_country_flag = is_digging
		NOT = { capital_scope = { has_province_modifier = easy_rock } }
		NOT = { capital_scope = { has_province_modifier = hard_rock } }
	}
	
	option = {
        name = diggy.19.a
        ai_chance = { factor = 100 }
		capital_scope = {
			add_province_modifier = {
				name = hard_rock
				duration = 1800
			}
		}
	}
}

##Discover Damestear
country_event = {
	id = diggy.20
	title = diggy.20.t
	desc = diggy.20.d
	picture = ARTWORK_eventPicture
	
	mean_time_to_happen = {
		years = 150
		modifier = {
			factor = 0.9
			capital_scope = { has_province_modifier = dig_7 }
		}
		modifier = {
			factor = 0.85
			capital_scope = { has_province_modifier = dig_8 }
		}
		modifier = {
			factor = 0.8
			capital_scope = { has_province_modifier = dig_9 }
		}
		modifier = {
			factor = 0.7
			capital_scope = { has_province_modifier = dig_10 }
		}
	}
	
	trigger = {
		has_country_flag = is_digging
		NOT = { capital_scope = { trade_goods = damestear } }
	}
	
	#Exploit it
	option = {
        name = diggy.20.a
        ai_chance = { factor = 50 }
		add_prestige = 15
		capital_scope = {
			hidden_effect = { set_province_flag = permanent_damestear }
			change_trade_goods = damestear
			remove_province_modifier = hold_city
			remove_province_modifier = hold_artisan
			remove_province_modifier = hold_farm
			remove_province_modifier = hold_city_2
			remove_province_modifier = hold_artisan_2
			remove_province_modifier = hold_farm_2
			random = {
				chance = 50
				add_permanent_province_modifier = {
					name = huge_damestear
					duration = -1
				}
			}
		}
	}
	#Leave it
	option = {
        name = diggy.20.a
        ai_chance = { factor = 50 }
		add_prestige = -15
		random = {
			chance = 75
			add_stability = -1
		}
	}
}

##Damestear Explosion
country_event = {
	id = diggy.21
	title = diggy.21.t
	desc = diggy.21.d
	picture = ARTWORK_eventPicture
	
	mean_time_to_happen = {
		years = 150
		modifier = {
			factor = 0.5
			any_owned_province = {
				trade_goods = damestear
				has_province_modifier = huge_damestear
			}
		}
		
		modifier = {
			factor = 0.75
			NOT = { has_country_modifier = dwarven_administration }
		}
	}
	
	trigger = {
		any_owned_province = { 
			development = 80
			trade_goods = damestear 
			OR = {
				has_terrain = dwarven_hold
				has_terrain = dwarven_hold_surface
			}
		}
	}
	
	#Such horror...
	option = {
        name = diggy.21.a
        ai_chance = { factor = 100 }
		add_prestige = -10
		add_legitimacy = -10
		add_stability = -2
		capital_scope = {
			add_base_manpower = -3
			add_base_tax = -3
			add_base_production = -3
			change_trade_goods = unknown
			if = {
				limit = { has_province_modifier = dig_6 }
				remove_province_modifier = dig_6
				add_permanent_province_modifier = {
					name = dig_5
					duration = -1
				}
			}
			else_if = {
				limit = { has_province_modifier = dig_7 }
				remove_province_modifier = dig_7
				add_permanent_province_modifier = {
					name = dig_6
					duration = -1
				}
			}
			else_if = {
				limit = { has_province_modifier = dig_8 }
				remove_province_modifier = dig_8
				add_permanent_province_modifier = {
					name = dig_7
					duration = -1
				}
			}
			else_if = {
				limit = { has_province_modifier = dig_9 }
				remove_province_modifier = dig_9
				add_permanent_province_modifier = {
					name = dig_8
					duration = -1
				}
			}
			else_if = {
				limit = { has_province_modifier = dig_10 }
				remove_province_modifier = dig_10
				add_permanent_province_modifier = {
					name = dig_9
					duration = -1
				}
			}
			else_if = {
				limit = { has_province_modifier = dig_11 }
				remove_province_modifier = dig_11
				add_permanent_province_modifier = {
					name = dig_10
					duration = -1
				}
			}
		}
	}
}

##Cave Goblin cavern found
country_event = {
	id = diggy.22
	title = diggy.22.t
	desc = diggy.22.d
	picture = ARTWORK_eventPicture
	
	mean_time_to_happen = {
		years = 25
		modifier = {
			factor = 0.9
			capital_scope = { superregion = west_serpentspine_superregion }
		}
		
		modifier = {
			factor = 1.5
			has_country_modifier = remnant_army
		}
	}
	
	trigger = {
		has_country_flag = is_digging
		NOT = { culture_group = goblin }
		capital_scope = {  
			OR = {
				has_terrain = dwarven_hold
				has_terrain = dwarven_hold_surface
			}
		}
	}
	
	#Prepare yourself
	option = {
        name = diggy.22.a
        ai_chance = { factor = 100 }
		capital_scope = {
			spawn_rebels = {
				type = cave_goblin_rebel
				culture = cave_goblin
				size = 1.5
			}
		}
	}
}

##Cave Orc cavern found
country_event = {
	id = diggy.23
	title = diggy.23.t
	desc = diggy.23.d
	picture = ARTWORK_eventPicture
	
	mean_time_to_happen = {
		years = 30
		
		modifier = {
			factor = 1.5
			has_country_modifier = remnant_army
		}
	}
	
	trigger = {
		has_country_flag = is_digging
		capital_scope = {  
			OR = {
				has_terrain = dwarven_hold
				has_terrain = dwarven_hold_surface
			}
			superregion = west_serpentspine_superregion
			superregion = east_serpentspine_superregion
		}
	}
	
	#Prepare yourself
	option = {
        name = diggy.23.a
        ai_chance = { factor = 100 }
		capital_scope = {
			spawn_rebels = {
				type = cave_orc_rebel
				culture = black_orc
				size = 1
			}
		}
	}
}

#Beautiful cavern
country_event = {
	id = diggy.24
	title = diggy.24.t
	desc = diggy.24.d
	picture = ARTWORK_eventPicture
	
	mean_time_to_happen = {
		years = 50
		modifier = {
			factor = 0.9
			capital_scope = { superregion = west_serpentspine_superregion }
		}
	}
	
	trigger = {
		has_country_flag = is_digging
		NOT = { capital_scope = { has_province_modifier = beautiful_cave } }
	}
	
	#Sell everything
	option = {
        name = diggy.24.a
        ai_chance = { factor = 10 }
		add_prestige = -5
		add_legitimacy = -5
		add_years_of_income = 2
	}
	
	#Make it a touristic shit
	option = {
        name = diggy.24.b
        ai_chance = { factor = 90 }
		add_prestige = 5
		capital_scope = {
			add_permanent_province_modifier = {
				name = beautiful_cave
				duration = -1
			}
		}
	}
}

#Cavern benefit
country_event = {
	id = diggy.25
	title = diggy.25.t
	desc = diggy.25.d
	picture = ARTWORK_eventPicture
	
	mean_time_to_happen = {
		years = 10
		modifier = {
			factor = 0.9
			capital_scope = { superregion = west_serpentspine_superregion }
		}
	}
	
	trigger = {
		capital_scope = { has_province_modifier = beautiful_cave }
	}
	
	#Profit
	option = {
        name = diggy.25.a
        ai_chance = { factor = 1 }
		add_prestige = 5
		add_legitimacy = 5
		add_years_of_income = 0.2
	}
	
	#Leader has a genius spark, partially creating fear in the nation
	option = {
        name = diggy.25.b
        ai_chance = { factor = 100 }
		highlight = yes
		trigger = {
			OR = {
				NOT = { adm = 1 }
				NOT = { dip = 1 }
				NOT = { mil = 1 }
			}
		}
		custom_tooltip = spark_tooltip
		random_list = {
			50 = { add_legitimacy = 50 }
			50 = { add_legitimacy = -50 }
		}
		change_adm = 6
		change_mil = 6
		change_dip = 6
	}
}

#Cave collapse
country_event = {
	id = diggy.26
	title = diggy.26.t
	desc = diggy.26.d
	picture = ARTWORK_eventPicture
	
	mean_time_to_happen = {
		years = 50
		
		modifier = {
			factor = 0.5
			NOT = { has_country_modifier = dwarven_administration }
		}
	}
	
	trigger = {
		has_country_flag = is_digging
		capital_scope = { has_province_modifier = beautiful_cave }
	}
	
	#Profit
	option = {
        name = diggy.26.a
        ai_chance = { factor = 100 }
		capital_scope = {
			random = {
				chance = 50
				add_base_manpower = -1
			}
			random = {
				chance = 50
				add_base_tax = -1
			}
			random = {
				chance = 50
				add_base_production = -1
			}
			random = {
				chance = 20
				remove_province_modifier = beautiful_cave
			}
			add_devastation = 15
		}
		random_list = {
			10 = { add_stability = -2 }
			30 = { }
			60 = { add_stability = -1 }
		}
	}
}
###Hold Specialization
#Hold Specialization
province_event = {
	id = diggy.27
	title = diggy.27.t
	desc = diggy.27.d
	picture = ARTWORK_eventPicture
	
	mean_time_to_happen = {
		years = 10
	}
	
	trigger = {
		OR = {
			has_province_modifier = dig_4
			has_province_modifier = dig_5
			has_province_modifier = dig_6
			has_province_modifier = dig_7
			has_province_modifier = dig_8
			has_province_modifier = dig_9
			has_province_modifier = dig_10
		}
		NOT = { has_province_flag = specialized_hold }
	}
	
	#Foundry
	option = {
        name = diggy.27.a
        ai_chance = { factor = 100 }
		trigger = {
			OR = {
				trade_goods = iron
				trade_goods = damestear
				trade_goods = mithril
				trade_goods = copper
			}
		}
		add_permanent_province_modifier = {
			name = hold_foundry
			duration = -1
		}
		hidden_effect = { set_province_flag = specialized_hold }
	}
	#city hub
	option = {
        name = diggy.27.b
        ai_chance = { factor = 100 }
		trigger = {
			OR = {
				trade_goods = glass
				trade_goods = cloth
				trade_goods = mithril
				trade_goods = gold
				trade_goods = paper
				trade_goods = wine
				trade_goods = precursor_relics
				trade_goods = gems
				trade_goods = salt
				base_tax = 30
			}
		}
		add_permanent_province_modifier = {
			name = hold_city
			duration = -1
		}
		hidden_effect = { set_province_flag = specialized_hold }
	}
	#Artisan District
	option = {
        name = diggy.27.c
        ai_chance = { factor = 100 }
		trigger = {
			OR = {
				trade_goods = gems
				trade_goods = wine
				trade_goods = gold
				trade_goods = mithril
				trade_goods = precursor_relics
			}
		}
		add_permanent_province_modifier = {
			name = hold_artisan
			duration = -1
		}
		hidden_effect = { set_province_flag = specialized_hold }
	}
	#Vertical Farm
	option = {
        name = diggy.27.e
        ai_chance = { factor = 100 }
		trigger = {
			OR = {
				trade_goods = fungi
				trade_goods = livestock
				trade_goods = salt
			}
		}
		add_permanent_province_modifier = {
			name = hold_farm
			duration = -1
		}
		hidden_effect = { set_province_flag = specialized_hold }
	}
	#Military
	option = {
        name = diggy.27.f
        ai_chance = { factor = 100 }
		trigger = {
			OR = {
				trade_goods = iron
				trade_goods = copper
				trade_goods = paper
				trade_goods = mithril
				base_manpower = 25
			}
		}
		add_permanent_province_modifier = {
			name = hold_military
			duration = -1
		}
		hidden_effect = { set_province_flag = specialized_hold }
	}
}

#Orc Warband
country_event = {
	id = diggy.28
	title = diggy.28.t
	desc = diggy.28.d
	picture = ARTWORK_eventPicture
	
	mean_time_to_happen = {
		years = 35
		modifier = {
			factor = 1.5
			has_country_modifier = remnant_army
		}
	}
	
	trigger = {
		NOT = { is_year = 1600 }
		any_owned_province = {
			OR = {
				superregion = west_serpentspine_superregion
				superregion = east_serpentspine_superregion
			}
			NOT = { has_terrain = dwarven_hold }
			NOT = { has_terrain = dwarven_hold_surface }
		}
		total_development = 100
	}
	
	#Profit
	option = {
        name = diggy.28.a
        ai_chance = { factor = 100 }
		custom_tooltip = orc_warband_tooltip
		hidden_effect = { country_event = { id = diggy.29 days = 150 random = 100 } }
	}
}

country_event = {
	id = diggy.29
	title = diggy.29.t
	desc = diggy.29.d
	picture = ARTWORK_eventPicture
	
	is_triggered_only = yes
	
	trigger = {
		any_owned_province = {
			has_empty_adjacent_province = yes
			OR = {
				superregion = west_serpentspine_superregion
				superregion = east_serpentspine_superregion
			}
			NOT = { has_terrain = dwarven_hold }
			NOT = { has_terrain = dwarven_hold_surface }
		}
	}
	
	option = {
        name = diggy.29.a
        ai_chance = { factor = 100 }
		hidden_effect = {
			random_owned_province = {
				limit = {
					has_empty_adjacent_province = yes
					OR = {
						superregion = west_serpentspine_superregion
						superregion = east_serpentspine_superregion
					}
					NOT = { has_terrain = dwarven_hold }
					NOT = { has_terrain = dwarven_hold_surface }
				}
				spawn_rebels = {
					type = cave_orc_rebel
					culture = black_orc
					size = 3
				}
			}
		}
	}
}

#Serpentsmite
province_event = {
	id = diggy.30
	title = diggy.30.t
	desc = diggy.30.d
	picture = ARTWORK_eventPicture
	
	mean_time_to_happen = {
		years = 150
	}
	
	trigger = {
		has_province_modifier = dig_deeper
		OR = {
			has_terrain = dwarven_hold
			has_terrain = dwarven_hold_surface
		}
		NOT = { has_province_flag = serpentsmited }
		continent = serpentspine
	}
	
	immediate = {
		hidden_effect = {
			add_base_manpower = -3
			add_base_tax = -3
			add_base_production = -3
			change_trade_goods = unknown
			if = {
				limit = { has_province_modifier = dig_6 }
				remove_province_modifier = dig_6
				add_permanent_province_modifier = {
					name = dig_5
					duration = -1
				}
			}
			else_if = {
				limit = { has_province_modifier = dig_7 }
				remove_province_modifier = dig_7
				add_permanent_province_modifier = {
					name = dig_6
					duration = -1
				}
			}
			else_if = {
				limit = { has_province_modifier = dig_8 }
				remove_province_modifier = dig_8
				add_permanent_province_modifier = {
					name = dig_7
					duration = -1
				}
			}
			else_if = {
				limit = { has_province_modifier = dig_9 }
				remove_province_modifier = dig_9
				add_permanent_province_modifier = {
					name = dig_8
					duration = -1
				}
			}
			else_if = {
				limit = { has_province_modifier = dig_10 }
				remove_province_modifier = dig_10
				add_permanent_province_modifier = {
					name = dig_9
					duration = -1
				}
			}
			else_if = {
				limit = { has_province_modifier = dig_11 }
				remove_province_modifier = dig_11
				add_permanent_province_modifier = {
					name = dig_10
					duration = -1
				}
			}
			set_province_flag = serpentsmited
		}
	}
	
	#Untaped Ore
	option = {
        name = diggy.30.a
        ai_chance = { factor = 90 }
		owner = { add_stability = -1 }
		random_list = {
			20 = { change_trade_goods = mithril }
			35 = { change_trade_goods = iron }
			45 = { change_trade_goods = copper }
		}
		add_permanent_province_modifier = {
			name = pristine_deposit
			duration = 29200
		}
		remove_province_modifier = hold_city
		remove_province_modifier = hold_artisan
		remove_province_modifier = hold_farm
		remove_province_modifier = hold_military
		remove_province_modifier = hold_city_2
		remove_province_modifier = hold_artisan_2
		remove_province_modifier = hold_farm_2
		remove_province_modifier = hold_military_2
	}
	
	option = {
        name = diggy.30.b
        ai_chance = { factor = 10 }
		owner = { add_stability = 2 }
		change_trade_goods = unknown
	}
}

#A Hold develop
province_event = {
	id = diggy.31
	title = diggy.31.t
	desc = diggy.31.d
	picture = ARTWORK_eventPicture
	
	mean_time_to_happen = {
		years = 40
		
		modifier = {
			factor = 0.9
			superregion = west_serpentspine_superregion
		}
		modifier = {
			factor = 0.9
			has_integrated_dwarven_pop_trigger = yes
		}
		modifier = {
			factor = 1.5
			NOT = { has_country_modifier = dwarven_administration }
		}
		
		modifier = {
			factor = 1.2
			
			has_province_modifier = orc_hold_arena
		}
		
		modifier = {
			factor = 1.2
			
			has_province_modifier = orc_hold_barrack
		}
		
		modifier = {
			factor = 1.2
			
			has_province_modifier = orc_hold_raider
		}
		
		modifier = {
			factor = 0.8
			owner = { owns = 676 }
			676 = { has_province_modifier = the_harpylen_dam }
		}
		modifier = {
			factor = 0.9
			owner = { tag = I24 } #Aul-Dwarov
		}
	}
	
	trigger = {
		OR = {
			has_terrain = dwarven_hold
			has_terrain = dwarven_hold_surface
		}
		has_subterranean_race = yes
		is_capital = no
		OR = {
			AND = { development = 40 has_province_modifier = dig_1 }
			AND = { development = 50  has_province_modifier = dig_2 }
			AND = { development = 60  has_province_modifier = dig_3 }
			AND = { development = 70  has_province_modifier = dig_4 }
			AND = { development = 80  has_province_modifier = dig_5 }
			AND = { development = 90  has_province_modifier = dig_6 }
			AND = { development = 100  has_province_modifier = dig_7 }
			AND = { development = 110  has_province_modifier = dig_8 }
			AND = { development = 120  has_province_modifier = dig_9 }
		}
	}
	
	#Developing Hold
	option = {
        name = diggy.31.a
        ai_chance = { factor = 100 }
		add_prestige = 10
		if = {
			limit = { has_province_modifier = dig_1 }
			add_permanent_province_modifier = {
				name = dig_2
				duration = -1
			}
			hidden_effect = { remove_province_modifier = dig_1 }
		}
		else_if = {
			limit = { has_province_modifier = dig_2 }
			add_permanent_province_modifier = {
				name = dig_3
				duration = -1
			}
			hidden_effect = { remove_province_modifier = dig_2 }
		}
		else_if = {
			limit = { has_province_modifier = dig_3 }
			add_permanent_province_modifier = {
				name = dig_4
				duration = -1
			}
			hidden_effect = { remove_province_modifier = dig_3 }
		}
		else_if = {
			limit = { has_province_modifier = dig_4 }
			add_permanent_province_modifier = {
				name = dig_5
				duration = -1
			}
			hidden_effect = { remove_province_modifier = dig_4 }
		}
		else_if = {
			limit = { has_province_modifier = dig_5 }
			add_permanent_province_modifier = {
				name = dig_6
				duration = -1
			}
			hidden_effect = { remove_province_modifier = dig_5 }
		}
		else_if = {
			limit = { has_province_modifier = dig_7 }
			add_permanent_province_modifier = {
				name = dig_8
				duration = -1
			}
			hidden_effect = { remove_province_modifier = dig_7 }
		}
		else_if = {
			limit = { has_province_modifier = dig_8 }
			add_permanent_province_modifier = {
				name = dig_9
				duration = -1
			}
			hidden_effect = { remove_province_modifier = dig_8 }
		}
		else_if = {
			limit = { has_province_modifier = dig_9 }
			add_permanent_province_modifier = {
				name = dig_10
				duration = -1
			}
			hidden_effect = { remove_province_modifier = dig_9 }
		}
	}
}
####Natives attack
province_event = {
	id = diggy.32
	title = diggy.32.t
	desc = diggy.32.d
	picture = ARTWORK_eventPicture
	
	mean_time_to_happen = {
		years = 3
		modifier = {
			factor = 5
			
			ai = yes
		}
		modifier = {
			factor = 1.5
			has_country_modifier = remnant_army
		}
	}
	
	trigger = {
		is_colony = yes
		OR = {
			superregion = west_serpentspine_superregion
			superregion = east_serpentspine_superregion
		}
		native_size = 10
		
	}
	
	immediate = {
		hidden_effect = {
			export_to_variable = {
				variable_name = nativeSize
				value = trigger_value:native_size
				who = ROOT
			}
			while = {
				limit = {
					NOT = {
						check_variable = {
							which = variable:nativeSize
							value = 10
						}
					}
				}
				create_native = 1
				subtract_variable = {
					which = variable:nativeSize
					value = 10
				}
			}
			change_native_size = -5
			random_list = {
				50 = { change_native_hostileness = -1 }
				40 = { change_native_hostileness = -2 }
				10 = { change_native_hostileness = -3 }
			}
			random_list = {
				50 = { change_native_ferocity = -1 }
				40 = { change_native_ferocity = -2 }
				10 = { change_native_ferocity = -3 }
			}
		}
	}
	
	option = {
        name = diggy.32.a
        ai_chance = { factor = 100 }
		custom_tooltip = diggy_native_tooltip
	}
}

####Cavern attack
province_event = {
	id = diggy.33
	title = diggy.33.t
	desc = diggy.33.d
	picture = ARTWORK_eventPicture
	
	mean_time_to_happen = {
		years = 20
		
		modifier = {
			factor = 0.5
			infantry_in_province = 1
		}
		modifier = {
			factor = 1.5
			has_country_modifier = remnant_army
		}
	}
	
	trigger = {
		has_terrain = dwarven_road
		OR = {
			is_colony = yes
			is_city = yes
		}
		any_neighbor_province = {
			native_size = 30
			has_terrain = cavern
			NOT = { is_city = yes }
			NOT = { is_colony = yes }
		}
		NOT = { has_province_modifier = devasted_province }
		owner = { total_development = 100 }
		
	}
	
	option = {
        name = diggy.33.a
        ai_chance = { factor = 100 }
		custom_tooltip = cavern_attack_tooltip
		spawn_rebels = {
			type = cave_goblin_rebel
			culture = cave_goblin
			size = 2
		}
	}
}

###Infested Hold Event
##Infestd Assault
country_event = {
	id = diggy.34
	title = diggy.34.t
	desc = diggy.34.d
	picture = ARTWORK_eventPicture
	
	mean_time_to_happen = {
		years = 2
	}
	
	trigger = {
		total_development = 100
		any_owned_province = {
			has_province_modifier = infested_hold
			OR = {
				superregion = west_serpentspine_superregion
				superregion = east_serpentspine_superregion
			}
			NOT = { has_province_modifier = recent_infested_attack }
			OR = {
				has_orcish_minority_trigger = yes
				has_orcish_majority_trigger = yes
				has_goblin_minority_trigger = yes
				has_goblin_majority_trigger = yes
			}
		}
		NOT = { has_spawned_rebels = cave_goblin_rebel }
		NOT = { has_spawned_rebels = cave_orc_rebel }
	}
	
	#Orc rise up
	option = {
        name = diggy.34.a
        ai_chance = { factor = 100 }
		random_owned_province  = {
			limit = {
				OR = {
					superregion = west_serpentspine_superregion
					superregion = east_serpentspine_superregion
				}
				has_province_modifier = infested_hold
			}
			if = {
				limit = { 
					OR = {
						has_orcish_minority_trigger = yes
						has_orcish_majority_trigger = yes
					}
				}
				if = {
					limit = { development = 3 }
					spawn_rebels = {
						type = cave_orc_rebel
						culture = black_orc
						size = 1
					}
				}
				if = {
					limit = { development = 25 }
					spawn_rebels = {
						type = cave_orc_rebel
						culture = black_orc
						size = 1
					}
				}
			}
			else_if = {
				limit = { 
					OR = {
						has_goblin_minority_trigger = yes
						has_goblin_majority_trigger = yes
					}
				}
				if = {
					limit = { 
						OR = {
							has_goblin_minority_trigger = yes
							has_goblin_majority_trigger = yes
						}
					}
					if = {
						limit = { development = 3 }
						spawn_rebels = {
							type = cave_goblin_rebel
							culture = cave_goblin
							size = 1.5
						}
					}
					if = {
						limit = { development = 15 }
						spawn_rebels = {
							type = cave_goblin_rebel
							culture = cave_goblin
							size = 1.5
						}
					}
					if = {
						limit = { development = 25 }
						spawn_rebels = {
							type = cave_goblin_rebel
							culture = cave_goblin
							size = 1.5
						}
					}
				}
			}
			else = {
				if = {
					limit = { development = 3 }
					spawn_rebels = {
						type = cave_orc_rebel
						culture = black_orc
						size = 1
					}
				}
				if = {
					limit = { development = 25 }
					spawn_rebels = {
						type = cave_orc_rebel
						culture = black_orc
						size = 1
					}
				}
			}
			hidden_effect = {
				add_permanent_province_modifier = {
					name = recent_infested_attack
					duration = 2920
				}
			}
		}
	}
}
##Special Cave Event
country_event = {
	id = diggy.35
	title = diggy.35.t
	desc = diggy.35.d
	picture = ARTWORK_eventPicture
	
	mean_time_to_happen = {
		months = 4
		
	}
	
	trigger = {
		any_owned_province = {
			has_province_modifier = special_cave
			has_province_modifier = exploring_cave
		}
	}
	
	immediate = {
		hidden_effect = {
			random_list = {
				5 = { set_country_flag = cave_1 }
				5 = { set_country_flag = cave_2 }
				5 = { set_country_flag = cave_3 }
				5 = { set_country_flag = cave_4 }
				5 = { set_country_flag = cave_5 }
				5 = { set_country_flag = cave_6 }
				5 = { set_country_flag = cave_7 }
				5 = { set_country_flag = cave_8 }
				5 = { set_country_flag = cave_9 }
				5 = { set_country_flag = cave_10 }
				5 = { set_country_flag = cave_11 }
				5 = { set_country_flag = cave_12 }
				5 = { set_country_flag = cave_13 }
				5 = { set_country_flag = cave_14 }
				5 = { set_country_flag = cave_15 }
				5 = { set_country_flag = cave_16 }
				5 = { set_country_flag = cave_17 }
				5 = { set_country_flag = cave_18 }
				5 = { set_country_flag = cave_19 }
				5 = { set_country_flag = cave_20 }
			}
		}
	}
	
	option = {
        name = diggy.35.a #Gold Cache
        ai_chance = { factor = 100 }
		trigger = { has_country_flag = cave_1 }
		hidden_effect = { clr_country_flag = cave_1 }
		add_treasury = 150
		random_owned_province = {
			limit = { has_province_modifier = special_cave is_city = yes }
			remove_province_modifier = special_cave
			remove_province_modifier = exploring_cave
		}
	}
	
	option = {
        name = diggy.35.b #Old weapon cache
        ai_chance = { factor = 100 }
		trigger = { has_country_flag = cave_2 }
		hidden_effect = { clr_country_flag = cave_2 }
		add_mil_power = 100
		random_owned_province = {
			limit = { has_province_modifier = special_cave is_city = yes }
			remove_province_modifier = special_cave
			remove_province_modifier = exploring_cave
		}
	}
	
	option = {
        name = diggy.35.c #Huge Mithril Cave
        ai_chance = { factor = 100 }
		trigger = { has_country_flag = cave_3 }
		hidden_effect = { clr_country_flag = cave_3 }
		random_owned_province = {
			limit = { has_province_modifier = special_cave is_city = yes }
			remove_province_modifier = special_cave
			remove_province_modifier = exploring_cave
			change_trade_goods = mithril
			add_base_manpower = 1
			add_base_production = 3
			add_base_tax = 2
		}
	}
	
	option = {
        name = diggy.35.e #Orc Ambush
        ai_chance = { factor = 100 }
		trigger = { has_country_flag = cave_4 }
		hidden_effect = { clr_country_flag = cave_4 }
		random_owned_province = {
			limit = { has_province_modifier = special_cave is_city = yes }
			remove_province_modifier = special_cave
			remove_province_modifier = exploring_cave
			spawn_rebels = {
				type = cave_orc_rebel
				culture = black_orc
				size = 1
			}
		}
	}
	
	option = {
        name = diggy.35.f #Old Dwarven Caravan
        ai_chance = { factor = 100 }
		trigger = { has_country_flag = cave_5 }
		hidden_effect = { clr_country_flag = cave_5 }
		random_owned_province = {
			limit = { has_province_modifier = special_cave is_city = yes }
			remove_province_modifier = special_cave
			remove_province_modifier = exploring_cave
		}
		add_mil_power = 33
		add_dip_power = 33
		add_adm_power = 33
	}
	
	option = {
        name = diggy.35.g #Tomb of Gramgir SteelBeard / Old tomb
        ai_chance = { factor = 100 }
		trigger = { has_country_flag = cave_6 }
		hidden_effect = { clr_country_flag = cave_6 }
		random_owned_province = {
			limit = { has_province_modifier = special_cave is_city = yes }
			remove_province_modifier = special_cave
			remove_province_modifier = exploring_cave
			if = {
				limit = { NOT = { has_global_flag = gramgir_tomb } }
				custom_tooltip = gramgir_tooltip
				add_permanent_province_modifier = {
					name = gramgir_steelbeard
					duration = -1
				}
				hidden_effect = { set_global_flag = gramgir_tomb }
			}
		}
		add_prestige = 10
		add_dip_power = 25
	}
	
	option = {
        name = diggy.35.h #Cave goblin ambush
        ai_chance = { factor = 100 }
		trigger = { has_country_flag = cave_7 }
		hidden_effect = { clr_country_flag = cave_7 }
		random_owned_province = {
			limit = { has_province_modifier = special_cave is_city = yes }
			remove_province_modifier = special_cave
			remove_province_modifier = exploring_cave
			spawn_rebels = {
				type = cave_goblin_rebel
				culture = cave_goblin
				size = 2
			}
		}
	}
	
	option = {
        name = diggy.35.i #Old Dwarven book Caravan
        ai_chance = { factor = 100 }
		trigger = { has_country_flag = cave_8 }
		hidden_effect = { clr_country_flag = cave_8 }
		random_owned_province = {
			limit = { has_province_modifier = special_cave is_city = yes }
			remove_province_modifier = special_cave
			remove_province_modifier = exploring_cave
		}
		add_country_modifier = {
			name = old_dwarven_book_caravan
			duration = 7200
		}
	}
	
	option = {
        name = diggy.35.j #Great Dookan temple
        ai_chance = { factor = 100 }
		trigger = { has_country_flag = cave_9 }
		hidden_effect = { clr_country_flag = cave_9 }
		random_owned_province = {
			limit = { has_province_modifier = special_cave is_city = yes }
			remove_province_modifier = special_cave
			remove_province_modifier = exploring_cave
			add_permanent_province_modifier = {
				name = great_dookan_temple
				duration = -1
			}
		}
		add_prestige = 5
	}
	
	option = {
        name = diggy.35.k #Big Fungi Cave
        ai_chance = { factor = 100 }
		trigger = { has_country_flag = cave_10 }
		hidden_effect = { clr_country_flag = cave_10 }
		random_owned_province = {
			limit = { has_province_modifier = special_cave is_city = yes }
			remove_province_modifier = special_cave
			remove_province_modifier = exploring_cave
			change_trade_goods = fungi
			add_base_production = 5
			add_base_tax = 2
			add_base_manpower = 1
			add_permanent_province_modifier = {
				name = big_fungi
				duration = -1
			}
		}
	}
	
	option = {
        name = diggy.35.l #Huge Battle Site
        ai_chance = { factor = 100 }
		trigger = { has_country_flag = cave_11 }
		hidden_effect = { clr_country_flag = cave_11 }
		random_owned_province = {
			limit = { has_province_modifier = special_cave is_city = yes }
			remove_province_modifier = special_cave
			remove_province_modifier = exploring_cave
		}
		add_prestige = 25
		add_mil_power = 50
	}
	
	option = {
        name = diggy.35.m #All for nothing
        ai_chance = { factor = 100 }
		trigger = { has_country_flag = cave_12 }
		hidden_effect = { clr_country_flag = cave_12 }
		random_owned_province = {
			limit = { has_province_modifier = special_cave is_city = yes }
			remove_province_modifier = special_cave
			remove_province_modifier = exploring_cave
		}
		add_prestige = -5
		add_treasury = -75
	}
	
	option = {
        name = diggy.35.n #A deep hole
        ai_chance = { factor = 100 }
		trigger = { has_country_flag = cave_13 }
		hidden_effect = { clr_country_flag = cave_13 }
		random_owned_province = {
			limit = { has_province_modifier = special_cave is_city = yes }
			remove_province_modifier = special_cave
			remove_province_modifier = exploring_cave
		}
		add_prestige = 5
	}
	
	option = {
        name = diggy.35.o #How to dig book
        ai_chance = { factor = 100 }
		trigger = { has_country_flag = cave_14 }
		hidden_effect = { clr_country_flag = cave_14 }
		random_owned_province = {
			limit = { has_province_modifier = special_cave is_city = yes }
			remove_province_modifier = special_cave
			remove_province_modifier = exploring_cave
		}
		if = {
			limit = { NOT = { has_country_modifier = how_to_dig } }
			custom_tooltip = how_to_dig_tooltip
			add_country_modifier = {
				name = how_to_dig
				duration = 43800
			}
		}
		add_prestige = 5
	}
	
	option = {
        name = diggy.35.p #Killing an Orc book
        ai_chance = { factor = 100 }
		trigger = { has_country_flag = cave_15 }
		hidden_effect = { clr_country_flag = cave_15 }
		random_owned_province = {
			limit = { has_province_modifier = special_cave is_city = yes }
			remove_province_modifier = special_cave
			remove_province_modifier = exploring_cave
		}
		add_country_modifier = {
			name = kiling_an_orc
			duration = 43800
		}
		add_prestige = 5
	}
	
	option = {
        name = diggy.35.q #Monstruous cache of gold
        ai_chance = { factor = 100 }
		trigger = { has_country_flag = cave_16 }
		hidden_effect = { clr_country_flag = cave_16 }
		random_owned_province = {
			limit = { has_province_modifier = special_cave is_city = yes }
			remove_province_modifier = special_cave
			remove_province_modifier = exploring_cave
		}
		add_years_of_income = 1
	}
	
	option = {
        name = diggy.35.r #Sink hole destroy exploring party
        ai_chance = { factor = 100 }
		trigger = { has_country_flag = cave_17 }
		hidden_effect = { clr_country_flag = cave_17 }
		random_owned_province = {
			limit = { has_province_modifier = special_cave is_city = yes }
			remove_province_modifier = special_cave
			remove_province_modifier = exploring_cave
		}
		add_stability = -1
	}
	
	option = {
        name = diggy.35.s #Old orcish artefact
        ai_chance = { factor = 100 }
		trigger = { has_country_flag = cave_18 }
		hidden_effect = { clr_country_flag = cave_18 }
		random_owned_province = {
			limit = { has_province_modifier = special_cave is_city = yes }
			remove_province_modifier = special_cave
			remove_province_modifier = exploring_cave
		}
		add_stability = 1
	}
	
	option = {
        name = diggy.35.t #Gnipahellir / Beautiful cavern
        ai_chance = { factor = 100 }
		trigger = { has_country_flag = cave_19 }
		hidden_effect = { clr_country_flag = cave_19 }
		random_owned_province = {
			limit = { has_province_modifier = special_cave is_city = yes }
			remove_province_modifier = special_cave
			remove_province_modifier = exploring_cave
			if = {
				limit = { NOT = { has_global_flag = gnipahellir } }
				custom_tooltip = gnipahellir_cavern_tooltip
				add_permanent_province_modifier = {
					name = gnipahellir_cavern
					duration = -1
				}
				add_base_tax = 5
				add_base_manpower = 5
				hidden_effect = { set_global_flag = gnipahellir }
			}
		}
		add_stability = 1
	}
	
	option = {
        name = diggy.35.u #Dwarovar Crown / Old Dwarven artefact
        ai_chance = { factor = 100 }
		trigger = { has_country_flag = cave_20 }
		hidden_effect = { clr_country_flag = cave_20 }
		random_owned_province = {
			limit = { has_province_modifier = special_cave is_city = yes }
			remove_province_modifier = special_cave
			remove_province_modifier = exploring_cave
		}
		if = {
			limit = { NOT = { has_global_flag = dwarovar_crown } }
			custom_tooltip = dwarovar_crown_tooltip
			add_country_modifier = {
				name = dwarovar_crown
				duration = -1
			}
			hidden_effect = { set_global_flag = dwarovar_crown }
		}
		add_prestige = 20
		random = {
			chance = 50
			add_stability = 1
		}
	}
}

##Restoring a Rail
province_event = {
	id = diggy.36
	title = diggy.36.t
	desc = diggy.36.d
	picture = ARTWORK_eventPicture
	
	is_triggered_only = yes
	
	trigger = {
		has_province_modifier = restoring_rail
	}
	
	option = {
        name = diggy.36.a
        ai_chance = { factor = 100 }
		remove_province_modifier = restoring_rail
		remove_province_modifier = dwarovar_rail
		add_permanent_province_modifier = {
			name = restored_rail
			duration = -1
		}
		add_prestige = 1
	}
}

##Discovery of an incredible cave
province_event = {
	id = diggy.37
	title = diggy.37.t
	desc = diggy.37.d
	picture = ARTWORK_eventPicture
	
	fire_only_once = yes
	mean_time_to_happen = {
		years = 20
		
		modifier = {
			factor = 0.5
			has_province_modifier = dig_deeper
		}
	}
	
	trigger = {
		has_province_modifier = beautiful_cave
		continent = serpentspine
		NOT = { province_id = 4097 }
		NOT = { has_global_flag = serpent_rot }
		is_year = 1650
		has_any_disaster = no
	}
	
	immediate = {
		hidden_effect = { set_global_flag = serpent_rot }
	}
	
	option = {
        name = diggy.37.a
        ai_chance = { factor = 100 }
		add_permanent_province_modifier = {
			name = mycos_caurak
			duration = -1
		}
	}
}

##Propose exploration of the lake
country_event = {
	id = diggy.38
	title = diggy.38.t
	desc = diggy.38.d
	picture = ARTWORK_eventPicture
	
	mean_time_to_happen = {
		years = 2
	}
	
	trigger = {
		any_owned_province = {
			has_province_modifier = mycos_caurak
		}
		NOT = { has_country_flag = explore_mycos }
	}
	
	### Yes
	option = {
        name = diggy.38.a
        ai_chance = { factor = 100 }
		add_years_of_income = -0.1
		add_adm_power = -20
		add_dip_power = -20
		hidden_effect = { 
			country_event = { id = diggy.39 days = 500 random = 100 }
			#country_event = { id = diggy.39 days = 1 } DEBUG
			set_country_flag = sent_expedition
			set_country_flag = explore_mycos
		}
	}
	
	### No, we want to let this pristine cave be pristine
	option = {
        name = diggy.38.b
        ai_chance = { factor = 100 }
		hidden_effect = { country_event = { id = diggy.39 days = 1000 random = 100 } }
	}
}
##Discover the beast + cave collapse
country_event = {
	id = diggy.39
	title = diggy.39.t
	desc = {
		trigger = { has_country_flag = sent_expedition }
		desc = diggy.39.d.1
	}
	desc = {
		trigger = { NOT = { has_country_flag = sent_expedition } }
		desc = diggy.39.d.2
	}
	picture = ARTWORK_eventPicture
	
	is_triggered_only = yes
	
	trigger = {
		any_owned_province = {
			has_province_modifier = mycos_caurak
		}
	}
	
	### Contain the collapse
	option = {
        name = diggy.39.a
        ai_chance = { factor = 100 }
		add_years_of_income = -0.05
		add_adm_power = -10
		add_dip_power = -10
		add_mil_power = -10
		random_owned_province = {
			limit = { has_province_modifier = mycos_caurak }
			remove_province_modifier = mycos_caurak
			hidden_effect = { set_province_flag = caurak_collapse }
		}
		hidden_effect = { set_country_flag = serpent_rot_start clr_country_flag = sent_expedition clr_country_flag = explore_mycos }
	}
}

##The Remnant Awekening
country_event = {
	id = diggy.40
	title = diggy.40.t
	desc = diggy.40.d
	picture = ARTWORK_eventPicture
	
	mean_time_to_happen = {
		days = 1
	}
	
	trigger = {
		has_country_modifier = remnant_legacy
		NOT = { has_country_flag = remnant_legacy }
	}
	
	# Call digging expert
	option = {
        name = diggy.40.a
        ai_chance = { factor = 10 }
		add_adm_power = -250
		hidden_effect = { set_country_flag = remnant_legacy }
		hidden_effect = { set_country_flag = remnant_dig }
	}
	# Establish expansion plans
	option = {
        name = diggy.40.b
        ai_chance = { factor = 80 }
		add_dip_power = -250
		hidden_effect = { set_country_flag = remnant_legacy }
		hidden_effect = { set_country_flag = remnant_colonial }
	}
	# Revive old foundry
	option = {
        name = diggy.40.c
        ai_chance = { factor = 10 }
		add_mil_power = -250
		hidden_effect = { set_country_flag = remnant_legacy }
		hidden_effect = { set_country_flag = remnant_army }
	}
}

country_event = {
	id = diggy.41
	title = diggy.41.t
	desc = diggy.41.d
	picture = ARTWORK_eventPicture
	
	mean_time_to_happen = {
		years = 20
		
		modifier = {
			factor = 0.5
			is_year = 1450
		}
		
		modifier = {
			factor = 0.5
			is_year = 1455
		}
		
		modifier = {
			factor = 0.1
			is_year = 1460
		}
	}
	
	trigger = {
		has_country_modifier = remnant_legacy
		has_country_flag = remnant_legacy
	}
	
	immediate = {
		capital_scope = {
			every_neighbor_province = {
				discover_country = ROOT
				every_neighbor_province = {
					discover_country = ROOT
					every_neighbor_province = {
						discover_country = ROOT
					}
				}
			}
		}
	}
	
	# Call digging expert
	option = {
        name = diggy.41.a
        ai_chance = { factor = 10 }
		trigger = { has_country_flag = remnant_dig }
		add_prestige = 10
		remove_country_modifier = remnant_legacy
		add_country_modifier = {
			name = remnant_dig
			duration = 18250
		}
		hidden_effect = { clr_country_flag = remnant_legacy }
		hidden_effect = { clr_country_flag = remnant_dig }
		if = {
			limit = { capital_scope = { has_province_modifier = dig_1 } }
			capital_scope = {
				add_permanent_province_modifier = {
					name = dig_2
					duration = -1
				}
				hidden_effect = { remove_province_modifier = dig_1 }
			}
		}
		else_if = {
			limit = { capital_scope = { has_province_modifier = dig_2 } }
			capital_scope = {
				add_permanent_province_modifier = {
					name = dig_3
					duration = -1
				}
				hidden_effect = { remove_province_modifier = dig_2 }
			}
		}
		else_if = {
			limit = { capital_scope = { has_province_modifier = dig_3 } }
			capital_scope = {
				add_permanent_province_modifier = {
					name = dig_4
					duration = -1
				}
				hidden_effect = { remove_province_modifier = dig_3 }
			}
		}
		else_if = {
			limit = { capital_scope = { has_province_modifier = dig_4 } }
			capital_scope = {
				add_permanent_province_modifier = {
					name = dig_5
					duration = -1
				}
				hidden_effect = { remove_province_modifier = dig_4 }
			}
		}
		else_if = {
			limit = { capital_scope = { has_province_modifier = dig_5 } }
			capital_scope = {
				add_permanent_province_modifier = {
					name = dig_6
					duration = -1
				}
				hidden_effect = { remove_province_modifier = dig_5 }
			}
		}
		else_if = {
			limit = { capital_scope = { has_province_modifier = dig_6 } }
			capital_scope = {
				add_permanent_province_modifier = {
					name = dig_7
					duration = -1
				}
				hidden_effect = { remove_province_modifier = dig_6 }
			}
		}
		else_if = {
			limit = { capital_scope = { has_province_modifier = dig_7 } }
			capital_scope = {
				add_permanent_province_modifier = {
					name = dig_8
					duration = -1
				}
				hidden_effect = { remove_province_modifier = dig_7 }
			}
		}
		else_if = {
			limit = { capital_scope = { has_province_modifier = dig_8 } }
			capital_scope = {
				add_permanent_province_modifier = {
					name = dig_9
					duration = -1
				}
				hidden_effect = { remove_province_modifier = dig_8 }
			}
		}
		else_if = {
			limit = { capital_scope = { has_province_modifier = dig_9 } }
			capital_scope = {
				add_permanent_province_modifier = {
					name = dig_10
					duration = -1
				}
				hidden_effect = { remove_province_modifier = dig_9 }
			}
		}
	}
	# Establish expansion plans
	option = {
        name = diggy.41.b
        ai_chance = { factor = 80 }
		trigger = { has_country_flag = remnant_colonial }
		add_prestige = 10
		remove_country_modifier = remnant_legacy
		add_country_modifier = {
			name = remnant_colonial
			duration = 18250
		}
		hidden_effect = { clr_country_flag = remnant_legacy }
		hidden_effect = { clr_country_flag = remnant_colonial }
		
	}
	# Revive old foundry
	option = {
        name = diggy.41.c
        ai_chance = { factor = 10 }
		trigger = { has_country_flag = remnant_army }
		add_prestige = 10
		remove_country_modifier = remnant_legacy
		add_country_modifier = {
			name = remnant_army
			duration = 18250
		}
		hidden_effect = { clr_country_flag = remnant_legacy }
		hidden_effect = { clr_country_flag = remnant_army }
	}
}

##Upgrading a Rail
province_event = {
	id = diggy.42
	title = diggy.42.t
	desc = diggy.42.d
	picture = ARTWORK_eventPicture
	
	is_triggered_only = yes
	
	trigger = {
		has_province_modifier = upgrading_rail
	}
	
	option = {
        name = diggy.42.a
        ai_chance = { factor = 100 }
		remove_province_modifier = upgrading_rail
		remove_province_modifier = restored_rail
		add_permanent_province_modifier = {
			name = advanced_rail
			duration = -1
		}
		add_prestige = 2
	}
}

##Irrigation system
country_event = {
	id = diggy.43
	title = diggy.43.t
	desc = diggy.43.d
	picture = FARMING_eventPicture
	
	is_triggered_only = yes
	
	trigger = {
		always = yes
	}
	
	
	#North
	option = {
        name = diggy.43.a
        ai_chance = { factor = 100 }
		trigger = { NOT = { has_global_flag = irrigation_north } }
		hidden_effect = { set_global_flag = irrigation_north }
		hidden_effect = { country_event = { id = diggy.44 days = 1825 random = 365 } }
		if = {
			limit = { ai = no }
			add_treasury = -1500
			add_adm_power = -200
		}
		else = {
			add_treasury = -500
		}
	}
	#South
	option = {
        name = diggy.43.b
        ai_chance = { factor = 100 }
		trigger = { NOT = { has_global_flag = irrigation_south } }
		hidden_effect = { set_global_flag = irrigation_south }
		hidden_effect = { country_event = { id = diggy.44 days = 1825 random = 365 } }
		if = {
			limit = { ai = no }
			add_treasury = -1500
			add_adm_power = -200
		}
		else = {
			add_treasury = -500
		}
	}
	#East
	option = {
        name = diggy.43.c
        ai_chance = { factor = 100 }
		trigger = { NOT = { has_global_flag = irrigation_east } }
		hidden_effect = { set_global_flag = irrigation_east }
		hidden_effect = { country_event = { id = diggy.44 days = 1825 random = 365 } }
		if = {
			limit = { ai = no }
			add_treasury = -1500
			add_adm_power = -200
		}
		else = {
			add_treasury = -500
		}
	}
	#West
	option = {
        name = diggy.43.e
        ai_chance = { factor = 100 }
		trigger = { NOT = { has_global_flag = irrigation_west } }
		hidden_effect = { set_global_flag = irrigation_west }
		hidden_effect = { country_event = { id = diggy.44 days = 1825 random = 365 } }
		if = {
			limit = { ai = no }
			add_treasury = -1500
			add_adm_power = -200
		}
		else = {
			add_treasury = -500
		}
	}
	#GoBack
	option = {
        name = diggy.43.f
        ai_chance = { factor = 0 }
		hidden_effect = { clr_country_flag = repairing_irrigation }
	}
}

country_event = {
	id = diggy.44
	title = diggy.44.t
	desc = diggy.44.d
	picture = FARMING_eventPicture
	
	is_triggered_only = yes
	
	trigger = {
		always = yes
	}
	
	immediate = {
		hidden_effect = { clr_country_flag = repairing_irrigation }
	}
	
	option = {
        name = diggy.44.a
        ai_chance = { factor = 100 }
		if = {
			limit = { 
				has_global_flag = irrigation_north
				NOT = { has_global_flag = irrigation_north_done }
			}
			areadw05_area = {
				if = {
					limit = { NOT = { province_id = 4120 } }
					add_base_manpower = 1
					add_base_tax = 1
					add_base_production = 1
					remove_province_modifier = flooded_province
					add_province_triggered_modifier = efficient_irrigation
					change_trade_goods = grain
				}
			}
			hidden_effect = { set_global_flag = irrigation_north_done }
		}
		else_if = {
			limit = { 
				has_global_flag = irrigation_south
				NOT = { has_global_flag = irrigation_south_done }
			}
			areadw02_area = {
				if = {
					limit = { NOT = { province_id = 4121 } }
					add_base_manpower = 1
					add_base_tax = 1
					add_base_production = 1
					remove_province_modifier = flooded_province
					add_province_triggered_modifier = efficient_irrigation
					change_trade_goods = grain
				}
			}
			hidden_effect = { set_global_flag = irrigation_south_done }
		}
		else_if = {
			limit = { 
				has_global_flag = irrigation_west
				NOT = { has_global_flag = irrigation_west_done }
			}
			areadw04_area = {
				add_base_manpower = 1
				add_base_tax = 1
				add_base_production = 1
				remove_province_modifier = flooded_province
				add_province_triggered_modifier = efficient_irrigation
				change_trade_goods = grain
			}
			hidden_effect = { set_global_flag = irrigation_west_done }
		}
		else_if = {
			limit = { 
				has_global_flag = irrigation_east
				NOT = { has_global_flag = irrigation_east_done }
			}
			areadw03_area = {
				add_base_manpower = 1
				add_base_tax = 1
				add_base_production = 1
				remove_province_modifier = flooded_province
				add_province_triggered_modifier = efficient_irrigation
				change_trade_goods = grain
			}
			hidden_effect = { set_global_flag = irrigation_east_done }
		}
	}
}

#Irrigation done, gain cool modifier
country_event = {
	id = diggy.45
	title = diggy.45.t
	desc = diggy.45.d
	picture = FARMING_eventPicture
	
	fire_only_once = yes
	
	mean_time_to_happen = {
		months = 1
	}
	
	trigger = {
		4119 = {
			owned_by = ROOT
		}
		irrigation_dwarovar = {
			type = all
			country_or_vassal_holds = ROOT
			has_province_modifier = efficient_irrigation
		}
	}
	
	option = {
        name = diggy.45.a
        ai_chance = { factor = 100 }
		hidden_effect = {
			set_global_flag = serpent_vale_irrigation
			clr_global_flag = irrigation_east
			clr_global_flag = irrigation_north
			clr_global_flag = irrigation_west
			clr_global_flag = irrigation_south
			clr_global_flag = irrigation_east_done
			clr_global_flag = irrigation_north_done
			clr_global_flag = irrigation_west_done
			clr_global_flag = irrigation_south_done
		}
		4119 = {
			add_permanent_province_modifier = {
				name = dwarovar_granary
				duration = -1
			}
		}
	}
}

#Irrigation done, gain cool modifier
country_event = {
	id = diggy.46
	title = diggy.46.t
	desc = diggy.46.d
	picture = ARTWORK_eventPicture
	
	mean_time_to_happen = {
		years = 1
	}
	
	trigger = {
		capital_scope = {
			continent = serpentspine
			OR = {
				has_terrain = dwarven_hold
				has_terrain = dwarven_hold_surface
			}
		}
		has_country_modifier = dwarven_administration
		NOT = { religion = ancestor_worship }
		NOT = { has_country_flag = diggy_proposed_conversion }
	}
	
	immediate = {
		hidden_effect = { set_country_flag = diggy_proposed_conversion }
	}
	
	option = {
        name = diggy.46.a
        ai_chance = { factor = 5 }
		add_prestige = -5
		add_legitimacy = 5
	}
	
	option = {
        name = diggy.46.b
        ai_chance = { factor = 95 }
		add_prestige = 5
		change_religion = ancestor_worship
		every_owned_province = { change_religion = ancestor_worship }
	}
}

#####################################################################
##### AI helps & Debug Event
#####################################################################
#Dev help for main AI hold
country_event = {
	id = diggy.100
	title = diggy.100.t
	desc = diggy.100.d
	picture = ARTWORK_eventPicture
	
	mean_time_to_happen = {
		years = 8
		
		modifier = {
			factor = 0.75
			capital_scope = { continent = serpentspine }
		}
		
		modifier = {
			factor = 2
			is_subject = yes
		}
		
		modifier = {
			factor = 1.2
			
			has_province_modifier = orc_hold_arena
		}
		
		modifier = {
			factor = 1.2
			
			has_province_modifier = orc_hold_barrack
		}
		
		modifier = {
			factor = 1.2
			
			has_province_modifier = orc_hold_raider
		}
	}
	
	hidden = yes
	
	trigger = {
		OR = {
			OR = {
				has_country_modifier = dwarven_administration
				capital_scope = { has_integrated_dwarven_pop_trigger = yes }
			}
			AND = {
				capital_scope = { has_integrated_dwarven_pop_trigger = yes }
				adm_tech = 7
			}
			AND = {
				capital_scope = { has_subterranean_race = yes }
				adm_tech = 12
			}
		}
		OR = {
			capital_scope = { NOT = { development = 40 } has_province_modifier = dig_1 }
			capital_scope = { NOT = { development = 50 } has_province_modifier = dig_2 }
			capital_scope = { NOT = { development = 60 } has_province_modifier = dig_3 }
			capital_scope = { NOT = { development = 70 } has_province_modifier = dig_4 }
			capital_scope = { NOT = { development = 80 } has_province_modifier = dig_5 }
			capital_scope = { NOT = { development = 90 } has_province_modifier = dig_6 }
			capital_scope = { NOT = { development = 100 } has_province_modifier = dig_7 }
			capital_scope = { NOT = { development = 110 } has_province_modifier = dig_8 }
			capital_scope = { NOT = { development = 120 } has_province_modifier = dig_9 }
			capital_scope = { NOT = { development = 130 } has_province_modifier = dig_10 province_id = 4119 }
			capital_scope = { NOT = { development = 130 } has_province_modifier = dig_10 province_id = 4311 }
		}
		ai = yes
	}
	
	#Profit
	option = {
        name = diggy.100.a
        ai_chance = { factor = 100 }
		capital_scope = {
			add_base_manpower = 1
			add_base_tax = 1
			add_base_production = 1
		}
	}
}
#Passive dev gain for other hold Don't go higher than 100 dev
province_event = {
	id = diggy.101
	title = diggy.100.t
	desc = diggy.100.d
	picture = ARTWORK_eventPicture
	
	mean_time_to_happen = {
		years = 7
		
		modifier = {
			factor = 1.2
			
			has_province_modifier = orc_hold_arena
		}
		
		modifier = {
			factor = 1.2
			
			has_province_modifier = orc_hold_barrack
		}
		
		modifier = {
			factor = 1.2
			
			has_province_modifier = orc_hold_raider
		}
		
		modifier = {
			factor = 0.6
			
			owner = { has_age_ability = ab_dwarven_reclamation }
		}
		
		modifier = {
			factor = 0.8
			
			owner = { in_golden_age = yes }
		}
		
		modifier = {
			factor = 0.9
			
			owner = { has_country_flag = formed_diggy_formable }
		}
		
		modifier = {
			factor = 0.9
			
			owner = { tag = I24 } #Aul-Dwarov 
		}
		
		modifier = {
			factor = 0.8
			owner = { owns = 676 }
			676 = { has_province_modifier = the_harpylen_dam }
		}
	}
	
	hidden = yes
	
	trigger = {
		OR = {
			has_terrain = dwarven_hold
			has_terrain = dwarven_hold_surface
		}
		OR = {
			has_integrated_dwarven_pop_trigger = yes
			AND = {
				has_subterranean_race = yes
				adm_tech = 7
			}
		}
		OR = {
			AND = { NOT = { development = 40 } has_province_modifier = dig_1 }
			AND = { NOT = { development = 50 } has_province_modifier = dig_2 }
			AND = { NOT = { development = 60 } has_province_modifier = dig_3 }
			AND = { NOT = { development = 70 } has_province_modifier = dig_4 }
			AND = { NOT = { development = 80 } has_province_modifier = dig_5 }
			AND = { NOT = { development = 90 } has_province_modifier = dig_6 }
			AND = { NOT = { development = 100 } has_province_modifier = dig_7 }
		}
		is_capital = no
	}
	
	#Profit
	option = {
        name = diggy.100.a
        ai_chance = { factor = 100 }
		random = {
			chance = 50
			add_base_tax = 1
		}
		random = {
			chance = 50
			add_base_manpower = 1
		}
		random = {
			chance = 50
			add_base_production = 1
		}
	}
}
#Has subteran race
country_event = {
	id = diggy.102
	title = diggy.100.t
	desc = diggy.100.d
	picture = ARTWORK_eventPicture
	
	fire_only_once = yes
	
	mean_time_to_happen = {
		days = 1
	}
	
	hidden = yes
	
	trigger = {
		always = yes
	}
	
	#Profit
	option = {
        name = diggy.100.a
        ai_chance = { factor = 100 }
		every_province = {
			limit = {
				OR = {
					has_terrain = dwarven_hold
					has_terrain = dwarven_hold_surface
				}
			}
			add_province_triggered_modifier = no_subterannean_race
		}
	}
}

###Marrhold setup
country_event = {
	id = diggy.104
	title = diggy.100.t
	desc = diggy.100.d
	picture = ARTWORK_eventPicture
	
	mean_time_to_happen = {
		months = 1
	}
	
	hidden = yes
	
	trigger = {
		2931 = {
			trade_share = {
				country = ROOT
				share = 1
			}
		}
		NOT = {
			2931 = {
				has_trade_modifier = {
					who = ROOT
					key = MARRHOLD_CLOSED
				}
			}
		}
		AND = {
			888 = {
				trade_share = {
					country = ROOT
					share = 1
				}
			}
			NOT = {
				any_owned_province = {
					OR = {
						superregion = west_serpentspine_superregion
						superregion = northern_expanse_superregion
					}
				}
			}
		}
		NOT = { has_global_flag = marrhold_canal }
	}
	
	option = {
        name = diggy.100.a
        ai_chance = { factor = 100 }
		2931 = {
			add_trade_modifier = {
				who = ROOT
				duration = -1
				power = -1000
				key = MARRHOLD_CLOSED
			}
		}
	}
}
##Marrhold open
country_event = {
	id = diggy.105
	title = diggy.105.t
	desc = diggy.105.d
	picture = ARTWORK_eventPicture
	
	major = yes
	
	mean_time_to_happen = {
		months = 1
	}
	
	fire_only_once = yes
	
	trigger = {
		4097 = { has_great_project = marrhold_tunnel }
		owns = 4097
	}
	
	option = {
        name = diggy.105.a
        ai_chance = { factor = 100 }
		4097 = {
			add_permanent_province_modifier = {
				name = marrhold_door
				duration = -1
			}
			center_of_trade = 1
		}
		hidden_effect = { set_global_flag = marrhold_canal }
		every_country = {
			limit = {
				2931 = {
					has_trade_modifier = {
						who = PREV
						key = MARRHOLD_CLOSED
					}
				}
			}
			2931 = {
				remove_trade_modifier = {
					who = PREV
					key = MARRHOLD_CLOSED
				}
			}
		}
	}
}
##Random setup for special cave
country_event = {
	id = diggy.106
	title = diggy.106.t
	desc = diggy.106.d
	picture = ARTWORK_eventPicture
	
	is_triggered_only = yes
	
	hidden = yes
	
	trigger = {
		always = yes
	}
	
	option = {
        name = diggy.106.a
        ai_chance = { factor = 100 }
		REB = {
			set_variable = {
				which = nbSpecialCavern
				value = 0
			}
		}
		while = {
			limit = {
				NOT = {
					REB = {
						check_variable = {
							which = variable:nbSpecialCavern
							value = 40
						}
					}
				}
			}
			random_province = {
				limit = {
					has_terrain = cavern
					NOT = { has_province_flag = special_cavern }
					continent = serpentspine
				}
				set_province_flag = special_cavern
				add_permanent_province_modifier = {
					name = special_cave
					duration = -1
				}
			}
			REB = {
				change_variable = {
					which = variable:nbSpecialCavern
					value = 1
				}
			}
		}
	}
}

##Make hold capital
country_event = {
	id = diggy.107
	title = diggy.107.t
	desc = diggy.107.d
	picture = ARTWORK_eventPicture
	
	mean_time_to_happen = {
		years = 1
	}
	
	hidden = yes
	
	trigger = {
		has_country_modifier = dwarven_administration
		capital_scope = {
			NOT = { has_terrain = dwarven_hold }
			NOT = { has_terrain = dwarven_hold_surface }
		}
		any_owned_province = {
			OR = {
				has_terrain = dwarven_hold
				has_terrain = dwarven_hold_surface
			}
			is_city = yes
		}
		NOT = { has_country_flag = capital_to_hold }
		ai = yes
	}
	
	option = {
        name = diggy.107.a
        ai_chance = { factor = 100 }
		random_owned_province = {
			limit = {
				OR = {
					has_terrain = dwarven_hold
					has_terrain = dwarven_hold_surface
				}
				is_city = yes
			}
			move_capital_effect = yes
		}
		set_country_flag = capital_to_hold
	}
}

##Starting Bonus
country_event = {
	id = diggy.108
	title = diggy.108.t
	desc = diggy.108.d
	picture = ARTWORK_eventPicture
	
	is_triggered_only = yes
	
	hidden = yes
	
	trigger = {
		always = yes
	}
	
	option = {
        name = diggy.108.a
        ai_chance = { factor = 100 }
		every_country = {
			limit = {
				OR = {
					AND = {
						capital_scope = {
							OR = {
								superregion = east_serpentspine_superregion
								superregion = west_serpentspine_superregion
							}
						}
						NOT = { total_development = 10 }
					}
					has_reform = dwarovar_squatter
				}
			}
			add_country_modifier = {
				name = dwarovar_claimer
				duration = 18250
			}
		}
	}
}


##Migration tweak
country_event = {
	id = diggy.109
	title = diggy.109.t
	desc = diggy.109.d
	picture = ARTWORK_eventPicture
	
	mean_time_to_happen = {
		months = 2
	}
	
	hidden = yes
	
	trigger = {
		has_reform = adventurer_reform
		NOT = { num_of_cities = 2 }
		capital_scope = {
			continent = serpentspine
			OR = {
				has_terrain = dwarven_hold
				has_terrain = dwarven_hold_surface
			}
		}
		ai = yes
	}
	
	option = {
        name = diggy.109.a
        ai_chance = { factor = 100 }
		add_country_modifier = {
			name = diggy_stop_migrate
			duration = -1
		}
	}
}

##AI discover everything
country_event = {
	id = diggy.110
	title = diggy.110.t
	desc = diggy.110.d
	picture = ARTWORK_eventPicture
	
	is_triggered_only = yes
	hidden = yes
	trigger = {
		ai = yes
	}
	
	option = {
        name = diggy.110.a
        ai_chance = { factor = 100 }
		every_country = {
			limit = {
				ai = yes
				capital_scope = {
					superregion = west_serpentspine_superregion
				}
				NOT = { num_of_cities = 2 }
			}
			western_cannor_superregion = {
				undiscover_country = PREV
			}
			gerudia_superregion = {
				undiscover_country = PREV
			}
			bulwar_superregion = {
				undiscover_country = PREV
			}
			west_serpentspine_superregion = {
				discover_country = PREV
			}
		}
	}
}
country_event = {
	id = diggy.111
	title = diggy.111.t
	desc = diggy.111.d
	picture = ARTWORK_eventPicture
	
	is_triggered_only = yes
	
	hidden = yes
	trigger = {
		ai = yes
	}
	
	option = {
        name = diggy.111.a
        ai_chance = { factor = 100 }
		every_country = {
			limit = {
				ai = yes
				capital_scope = {
					superregion = east_serpentspine_superregion
				}
				NOT = { num_of_cities = 2 }
			}
			salahad_superregion = {
				undiscover_country = PREV
			}
			east_serpentspine_superregion = {
				discover_country = PREV
			}
		}
	}
}

##Building Black Orc Shit in Dwarovar
province_event = {
	id = diggy.112
	title = diggy.112.t
	desc = diggy.112.d
	picture = ARTWORK_eventPicture
	
	is_triggered_only = yes
	hidden = yes
	
	trigger = {
		OR = {
			has_province_modifier = black_orc_building_1
			has_province_modifier = black_orc_building_2
			has_province_modifier = black_orc_building_3
		}
	}
	
	option = {
        name = diggy.112.a
        ai_chance = { factor = 100 }
		if = {
			limit = { has_province_modifier = black_orc_building_1 }
			remove_province_modifier = black_orc_building_1
			add_province_modifier = {
				name = orc_hold_barrack
				duration = -1
			}
		}
		else_if = {
			limit = { has_province_modifier = black_orc_building_2 }
			remove_province_modifier = black_orc_building_2
			add_province_modifier = {
				name = orc_hold_raider
				duration = -1
			}
		}
		else_if = {
			limit = { has_province_modifier = black_orc_building_3 }
			remove_province_modifier = black_orc_building_3
			add_province_modifier = {
				name = orc_hold_arena
				duration = -1
			}
		}
	}
}

##Parliament shit
country_event = {
	id = diggy.113
	title = diggy.113.t
	desc = diggy.113.d
	picture = ARTWORK_eventPicture
	
	hidden = yes
	fire_only_once = yes
	mean_time_to_happen = {
		days = 1
	}
	
	trigger = {
		always = yes
	}
	
	option = {
        name = diggy.113.a
        ai_chance = { factor = 100 }
		every_province = {
			limit = {
				OR = {
					has_terrain = dwarven_hold
					has_terrain = dwarven_hold_surface
				}
			}
			add_province_triggered_modifier = hold_has_parliament
			add_province_triggered_modifier = gold_hold
		}
	}
}


#Vision for player
country_event = {
	id = diggy.114
	title = diggy.114.t
	desc = diggy.114.d
	picture = ARTWORK_eventPicture
	
	hidden = yes
	fire_only_once = yes
	mean_time_to_happen = {
		days = 1
	}
	
	trigger = {
		always = yes
	}
	
	option = {
        name = diggy.114.a
        ai_chance = { factor = 100 }
		every_country = {
			limit = {
				ai = no
				capital_scope = { continent = serpentspine }
			}
			save_event_target_as = country
			every_owned_province = {
				every_empty_neighbor_province = {
					discover_country = event_target:country
					every_empty_neighbor_province = {
						discover_country = event_target:country
						every_empty_neighbor_province = {
							discover_country = event_target:country
						}
					}
				}
			}
		}
	}
}