
namespace = flavor_arannen

#Arannen Lace Industry
country_event = {
	id = flavor_arannen.1
	title = flavor_arannen.1.t
	desc = flavor_arannen.1.d
	picture = TRADEGOODS_eventPicture
	
	fire_only_once = yes
	
	trigger = {
		tag = A72 #Arannen
		is_year = 1550
	}
	
	mean_time_to_happen = {
		months = 60
	}
	
	option = {
		name = flavor_arannen.1.a
		904 = {
			add_permanent_province_modifier = {
				name = arannese_lacemakers_guild
				duration = -1
			}
		}
	
	}
}

