namespace = halfling_tolerance_events

country_event = {
	id = halfling_tolerance_events.1
	title = halfling_tolerance_events.1.t
	desc = halfling_tolerance_events.1.d
	picture = MERCHANTS_TALKING_eventPicture
	
	trigger = {
		NOT = { cultue_group = halfling }
		any_owned_province = {
			NOT = { has_province_modifier = halfling_not_allowed_to_trade }
			NOT = { has_province_modifier = halfling_low_quality_wares }
			has_halfling_minority_trigger = yes
			OR = {
				trade_goods = grain
				trade_goods = livestock
				trade_goods = fish
				trade_goods = wine
				trade_goods = sugar
				trade_goods = coffee
				trade_goods = tobacco
				trade_goods = cocoa
				trade_goods = dyes
			}
		}
	}
	
	mean_time_to_happen = {
		days = 1
		modifier = {
			factor = 1.1
			low_tolerance_halfling_race_trigger = yes
		}
		modifier = {
			factor = 0.9
			high_tolerance_halfling_race_trigger = yes
		}
	}
	
	is_triggered_only = yes
	
	immediate = {
		hidden_effect = {
			random_owned_province = {
				limit = {
					NOT = { has_province_modifier = halfling_not_allowed_to_trade }
					NOT = { has_province_modifier = halfling_low_quality_wares }
					has_halfling_minority_trigger = yes
					OR = {
						trade_goods = grain
						trade_goods = livestock
						trade_goods = fish
						trade_goods = wine
						trade_goods = sugar
						trade_goods = coffee
						trade_goods = tobacco
						trade_goods = cocoa
						trade_goods = dyes
					}
				}
				save_event_target_as = poor_wares_halfling_province
			}
			random_owned_province = {
				limit = {
					NOT = { has_province_modifier = halfling_not_allowed_to_trade }
					NOT = { has_province_modifier = halfling_low_quality_wares }
					has_halfling_minority_trigger = yes
					development = 6
					OR = {
						trade_goods = grain
						trade_goods = livestock
						trade_goods = fish
						trade_goods = wine
						trade_goods = tobacco
						trade_goods = dyes
					}
				}
				save_event_target_as = poor_wares_halfling_province
			}
			random_owned_province = {
				limit = {
					NOT = { has_province_modifier = halfling_not_allowed_to_trade }
					NOT = { has_province_modifier = halfling_low_quality_wares }
					has_halfling_minority_trigger = yes
					development = 12
					OR = {
						trade_goods = grain
						trade_goods = livestock
						trade_goods = dyes
					}
				}
				save_event_target_as = poor_wares_halfling_province
			}
		}
	}
	
	option = {	# The merchants are right
		name = halfling_tolerance_events.1.a
		ai_chance = {
			factor = 50
			modifier = {
				factor = 0.5
				ai_equal_to_wanted_tolerance_halfling = yes
			}
			modifier = {
				factor = 0.1
				ai_lower_than_wanted_tolerance_halfling = yes
			}
		}
		add_dip_power = -40
		small_decrease_of_halfling_tolerance_effect = yes
		event_target:poor_wares_halfling_province = {
			area = {
				limit = {
					owned_by = ROOT
					NOT = { has_province_modifier = halfling_not_allowed_to_trade }
					NOT = { has_province_modifier = halfling_low_quality_wares }
				}
				add_province_modifier = {
					name = halfling_not_allowed_to_trade
					duration = 730
				}
			}
		}
		if = {
			limit = {
				has_estate = estate_burghers
			}
			add_estate_loyalty = {
				estate = estate_burghers
				loyalty = 5
			}
		}
	}
	
	option = {	# Let them trade
		name = halfling_tolerance_events.1.b
		ai_chance = {
			factor = 50
			modifier = {
				factor = 0.5
				has_dlc = "The Cossacks"
				has_estate = estate_burghers
				NOT = {
					estate_loyalty = {
						estate = estate_burghers
						loyalty = 40
					}
				}
			}
			modifier = {
				factor = 0.5
				ai_equal_to_wanted_tolerance_halfling = yes
			}
			modifier = {
				factor = 0.1
				ai_higher_than_wanted_tolerance_halfling = yes
			}
		}
		add_prestige = -5
		small_increase_of_halfling_tolerance_effect = yes
		event_target:poor_wares_halfling_province = {
			area = {
				limit = {
					owned_by = ROOT
					NOT = { has_province_modifier = halfling_not_allowed_to_trade }
					NOT = { has_province_modifier = halfling_low_quality_wares }
				}
				add_province_modifier = {
					name = halfling_low_quality_wares
					duration = 730
				}
			}
		}
		if = {
			limit = {
				has_estate = estate_burghers
			}
			add_estate_loyalty = {
				estate = estate_burghers
				loyalty = -10
			}
		}
	}
	
	option = {	# We need to confiscate their goods
		name = halfling_tolerance_events.1.c
		trigger = {
			OR = {
				ruler_has_personality = embezzler_personality
				ruler_has_personality = greedy_personality
			}
		}
		required_personality = greedy_personality
		required_personality = embezzler_personality
		highlight = yes
		ai_chance = {
			factor = 100
			modifier = {
				factor = 0.5
				ai_equal_to_wanted_tolerance_halfling = yes
			}
			modifier = {
				factor = 0.01
				ai_lower_than_wanted_tolerance_halfling = yes
			}
		}
		add_years_of_income = 0.05
		medium_decrease_of_halfling_tolerance_effect = yes
		event_target:poor_wares_halfling_province = {
			add_unrest = 2
			area = {
				limit = {
					owned_by = ROOT
					NOT = { has_province_modifier = halfling_not_allowed_to_trade }
					NOT = { has_province_modifier = halfling_low_quality_wares }
				}
				add_province_modifier = {
					name = halfling_not_allowed_to_trade
					duration = 730
				}
			}
		}
		if = {
			limit = {
				has_estate = estate_burghers
			}
			add_estate_loyalty = {
				estate = estate_burghers
				loyalty = 5
			}
		}
	}
	
	option = {	# Compesensate both parties to avoid further issues
		name = halfling_tolerance_events.1.e
		trigger = {
			OR = {
				ruler_has_personality = just_personality
				ruler_has_personality = kind_hearted_personality
			}
		}
		required_personality = just_personality
		required_personality = kind_hearted_personality
		highlight = yes
		ai_chance = {
			factor = 100
			modifier = {
				factor = 0.5
				has_dlc = "The Cossacks"
				has_estate = estate_burghers
				NOT = {
					estate_loyalty = {
						estate = estate_burghers
						loyalty = 40
					}
				}
			}
			modifier = {
				factor = 0.5
				ai_equal_to_wanted_tolerance_halfling = yes
			}
			modifier = {
				factor = 0.1
				ai_higher_than_wanted_tolerance_halfling = yes
			}
		}
		add_years_of_income = -0.15
		small_increase_of_halfling_tolerance_effect = yes
		if = {
			limit = {
				has_estate = estate_burghers
			}
			add_estate_loyalty = {
				estate = estate_burghers
				loyalty = -5
			}
		}
	}
	
	option = {	# Get rid of the complainers
		name = halfling_tolerance_events.1.f
		trigger = {
			OR = {
				ruler_has_personality = cruel_personality
				ruler_has_personality = malevolent_personality
			}
		}
		required_personality = cruel_personality
		required_personality = malevolent_personality
		highlight = yes
		ai_chance = {
			factor = 100
			modifier = {
				factor = 0.5
				has_dlc = "The Cossacks"
				has_estate = estate_burghers
				NOT = {
					estate_loyalty = {
						estate = estate_burghers
						loyalty = 40
					}
				}
			}
		}
		add_mil_power = -60
		if = {
			limit = {
				has_estate = estate_burghers
			}
			add_estate_loyalty = {
				estate = estate_burghers
				loyalty = -10
			}
		}
	}
}

country_event = {
	id = halfling_tolerance_events.2
	title = halfling_tolerance_events.2.t
	desc = halfling_tolerance_events.2.d
	picture = ANGRY_MOB_eventPicture
	
	trigger = {
		NOT = { cultue_group = halfling }
		any_owned_province = {
			NOT = { has_province_modifier = halfling_was_not_given_compensation }
			has_halfling_minority_trigger = yes
			OR = {
				trade_goods = grain
				trade_goods = livestock
				trade_goods = dyes
				province_trade_power = 10
			}
		}
	}
	
	is_triggered_only = yes
	
	mean_time_to_happen = {
		days = 1
		modifier = {
			factor = 0.9
			low_tolerance_halfling_race_trigger = yes
		}
		modifier = {
			factor = 1.1
			high_tolerance_halfling_race_trigger = yes
		}
	}
	
	option = {	# Greedy little...
		name = halfling_tolerance_events.2.a
		ai_chance = {
			factor = 50
			modifier = {
				factor = 0.5
				ai_equal_to_wanted_tolerance_halfling = yes
			}
			modifier = {
				factor = 0.1
				ai_lower_than_wanted_tolerance_halfling = yes
			}
		}
		small_decrease_of_halfling_tolerance_effect = yes
		every_owned_province = {
			limit = {
				NOT = { has_province_modifier = halfling_was_not_given_compensation }
				has_halfling_minority_trigger = yes
				OR = {
					trade_goods = grain
					trade_goods = livestock
					trade_goods = dyes
					province_trade_power = 10
				}
			}
			add_province_modifier = {
				name = halfling_was_not_given_compensation
				duration = 1825
			}
		}
	}
	
	option = {	# Comply with their demands
		name = halfling_tolerance_events.2.b
		ai_chance = {
			factor = 50
			modifier = {
				factor = 0.5
				ai_higher_than_wanted_tolerance_halfling = yes
			}
		}
		add_prestige = -10
		add_years_of_income = -0.5
	}
	
	option = {	# We'll show them!
		name = halfling_tolerance_events.2.c
		trigger = {
			OR = {
				ruler_has_personality = cruel_personality
				ruler_has_personality = malevolent_personality
				ruler_has_personality = bold_fighter_personality
			}
		}
		required_personality = cruel_personality
		required_personality = malevolent_personality
		required_personality = bold_fighter_personality
		highlight = yes
		ai_chance = {
			factor = 100
			modifier = {
				factor = 0.5
				OR = {
					NOT = { army_size_percentage = 0.25 }
					revolt_percentage = 0.1
				}
			}
			modifier = {
				factor = 0.5
				ai_equal_to_wanted_tolerance_halfling = yes
			}
			modifier = {
				factor = 0.1
				ai_lower_than_wanted_tolerance_halfling = yes
			}
		}
		add_mil_power = -50
		small_decrease_of_halfling_tolerance_effect = yes
		random_owned_province = {
			limit = {
				NOT = { has_province_modifier = halfling_was_not_given_compensation }
				has_halfling_minority_trigger = yes
				OR = {
					trade_goods = grain
					trade_goods = livestock
				}
			}
			spawn_rebels = {
				type = anti_tax_rebels
				size = 1
			}
		}
		every_owned_province = {
			limit = {
				NOT = { has_province_modifier = halfling_was_not_given_compensation }
				has_halfling_minority_trigger = yes
				OR = {
					trade_goods = grain
					trade_goods = livestock
					trade_goods = dyes
					province_trade_power = 10
				}
			}
			add_unrest = 2
			add_province_modifier = {
				name = halfling_was_not_given_compensation
				duration = 1095
			}
		}
	}
	
	option = {	# Let us find a compromise
		name = halfling_tolerance_events.2.e
		trigger = {
			OR = {
				ruler_has_personality = fierce_negotiator_personality
				ruler_has_personality = charismatic_negotiator_personality
				ruler_has_personality = silver_tongue_personality
			}
		}
		required_personality = fierce_negotiator_personality
		required_personality = charismatic_negotiator_personality
		required_personality = silver_tongue_personality
		highlight = yes
		ai_chance = {
			factor = 100
			modifier = {
				factor = 0.5
				ai_higher_than_wanted_tolerance_halfling = yes
			}
		}
		add_dip_power = -25
		add_years_of_income = -0.25
	}
}

country_event = {
	id = halfling_tolerance_events.3
	title = halfling_tolerance_events.3.t
	desc = halfling_tolerance_events.3.d
	picture = COURT_eventPicture
	
	trigger = {
		NOT = { cultue_group = halfling }
		any_owned_province = {
			NOT = { has_province_modifier = halfling_angry_over_not_accepting_gift }
			NOT = { has_province_modifier = halfling_punishment_of_local_traitors }
			has_halfling_minority_trigger = yes
		}
	}
	
	is_triggered_only = yes
	
	mean_time_to_happen = {
		days = 1
	}
	
	
	immediate = {
		hidden_effect = {
			random_owned_province = {
				limit = {
					NOT = { has_province_modifier = halfling_angry_over_not_accepting_gift }
					has_halfling_minority_trigger = yes
				}
				save_event_target_as = gift_halfling_province
			}
			random_owned_province = {
				limit = {
					NOT = { has_province_modifier = halfling_angry_over_not_accepting_gift }
					has_halfling_minority_trigger = yes
					is_in_capital_area = yes
				}
				save_event_target_as = gift_halfling_province
			}
			random_owned_province = {
				limit = {
					NOT = { has_province_modifier = halfling_angry_over_not_accepting_gift }
					has_halfling_minority_trigger = yes
					any_neighbor_province = {
						owned_by = ROOT
						is_capital = yes
					}
				}
				save_event_target_as = gift_halfling_province
			}
		}
	}
	
	option = {	# Accept their gift...
		name = halfling_tolerance_events.3.a
		ai_chance = {
			factor = 50
			modifier = {
				factor = 0.1
				ai_lower_than_wanted_tolerance_halfling = yes
			}
		}
		add_legitimacy = -1
		add_prestige = -2
		add_years_of_income = 0.02
	}
	
	option = {	# This is indeed suspicious...
		name = halfling_tolerance_events.3.b
		ai_chance = {
			factor = 50
			modifier = {
				factor = 0.8
				event_target:gift_halfling_province = { unrest = 1 }
			}
			modifier = {
				factor = 0.5
				ai_equal_to_wanted_tolerance_halfling = yes
			}
			modifier = {
				factor = 0.1
				ai_lower_than_wanted_tolerance_halfling = yes
			}
		}
		small_decrease_of_halfling_tolerance_effect = yes
		event_target:gift_halfling_province = {
			add_province_modifier = {
				name = halfling_angry_over_not_accepting_gift
				duration = 1460
			}
		}
	}
	
	option = {	# We should reward them for their generousity!
		name = halfling_tolerance_events.3.c
		ai_chance = {
			factor = 50
			modifier = {
				factor = 0.5
				ai_equal_to_wanted_tolerance_halfling = yes
			}
			modifier = {
				factor = 0.1
				ai_higher_than_wanted_tolerance_halfling = yes
			}
		}
		add_dip_power = 10
		add_years_of_income = -0.025
		small_increase_of_halfling_tolerance_effect = yes
		event_target:gift_halfling_province = {
			add_unrest = -1
		}
	}
	
	option = {	# ...this has to be a trap! Guards get them!
		name = halfling_tolerance_events.3.e
		trigger = {
			ruler_has_personality = craven_personality
		}
		required_personality = craven_personality
		highlight = yes
		ai_chance = {
			factor = 100
			modifier = {
				factor = 0.8
				event_target:gift_halfling_province = { unrest = 1 }
			}
			modifier = {
				factor = 0.5
				ai_equal_to_wanted_tolerance_halfling = yes
			}
			modifier = {
				factor = 0.1
				ai_lower_than_wanted_tolerance_halfling = yes
			}
		}
		add_mil_power = -10
		small_decrease_of_halfling_tolerance_effect = yes
		event_target:gift_halfling_province = {
			add_province_modifier = {
				name = halfling_punishment_of_local_traitors
				duration = 730
			}
		}
	}
}